Projects/RTL/pong_pt1/emulation/Test_VCD/Epong_pt1_12_Good.vcd
$date
     Oct 03, 2025       16:22:18
$end

$version
 SystemC 3.0.2-Accellera --- Jun 13 2025 17:49:45
$end

$timescale
     100 ps
$end

$scope module SystemC $end
$var wire    1  aaaaa  rgb       $end
$var wire    1  aaaab  vsync       $end
$var wire    1  aaaac  hsync       $end
$var wire    1  aaaad  p_tick       $end
$var wire    1  aaaae  down       $end
$var wire    1  aaaaf  up       $end
$var wire    1  aaaag  enable       $end
$var wire    1  aaaah  reset       $end
$var wire    1  aaaai  clk       $end
$upscope $end
$enddefinitions  $end

$comment
All initial values are dumped below at time 0 sec = 0 timescale units.
$end

$dumpvars
0aaaaa
0aaaab
0aaaac
0aaaad
0aaaae
0aaaaf
1aaaag
1aaaah
0aaaai
$end

#500
1aaaab
1aaaai

#1000
0aaaai

#1500
1aaaai

#2000
0aaaai

#2500
1aaaai

#3000
0aaaai

#3500
0aaaah
1aaaai

#4000
0aaaai

#4500
1aaaai

#5000
0aaaai

#5500
1aaaai

#6000
0aaaai

#6500
1aaaai

#7000
0aaaai

#7500
1aaaai

#8000
0aaaai

#8500
1aaaai

#9000
0aaaai

#9500
1aaaai

#10000
0aaaai

#10500
1aaaai

#11000
0aaaai

#11500
1aaaai

#12000
0aaaai

#12500
1aaaai

#13000
0aaaai

#13500
1aaaai

#14000
0aaaai

#14500
1aaaai

#15000
0aaaai

#15500
1aaaai

#16000
0aaaai

#16500
1aaaai

#17000
0aaaai

#17500
1aaaai

#18000
0aaaai

#18500
1aaaai

#19000
0aaaai

#19500
1aaaai

#20000
0aaaai

#20500
1aaaai

#21000
0aaaai

#21500
1aaaai

#22000
0aaaai

#22500
1aaaai

#23000
0aaaai

#23500
1aaaai

#24000
0aaaai

#24500
1aaaai

#25000
0aaaai

#25500
1aaaai

#26000
0aaaai

#26500
1aaaai

#27000
0aaaai

#27500
1aaaai

#28000
0aaaai

#28500
1aaaai

#29000
0aaaai

#29500
1aaaai

#30000
0aaaai

#30500
1aaaai

#31000
0aaaai

#31500
1aaaai

#32000
0aaaai

#32500
1aaaai

#33000
0aaaai

#33500
1aaaai

#34000
0aaaai

#34500
1aaaai

#35000
0aaaai

#35500
1aaaai

#36000
0aaaai

#36500
1aaaai

#37000
0aaaai

#37500
1aaaai

#38000
0aaaai

#38500
1aaaai

#39000
0aaaai

#39500
1aaaai

#40000
0aaaai

#40500
1aaaai

#41000
0aaaai

#41500
1aaaai

#42000
0aaaai

#42500
1aaaai

#43000
0aaaai

#43500
1aaaai

#44000
0aaaai

#44500
1aaaai

#45000
0aaaai

#45500
1aaaai

#46000
0aaaai

#46500
1aaaai

#47000
0aaaai

#47500
1aaaai

#48000
0aaaai

#48500
1aaaai

#49000
0aaaai

#49500
1aaaai

#50000
0aaaai

#50500
1aaaai

#51000
0aaaai

#51500
1aaaai

#52000
0aaaai

#52500
1aaaai

#53000
0aaaai

#53500
1aaaai

#54000
0aaaai

#54500
1aaaai

#55000
0aaaai

#55500
1aaaai

#56000
0aaaai

#56500
1aaaai

#57000
0aaaai

#57500
1aaaai

#58000
0aaaai

#58500
1aaaai

#59000
0aaaai

#59500
1aaaai

#60000
0aaaai

#60500
1aaaai

#61000
0aaaai

#61500
1aaaai

#62000
0aaaai

#62500
1aaaai

#63000
0aaaai

#63500
1aaaai

#64000
0aaaai

#64500
1aaaai

#65000
0aaaai

#65500
1aaaai

#66000
0aaaai

#66500
1aaaai

#67000
0aaaai

#67500
1aaaai

#68000
0aaaai

#68500
1aaaai

#69000
0aaaai

#69500
1aaaai

#70000
0aaaai

#70500
1aaaai

#71000
0aaaai

#71500
1aaaai

#72000
0aaaai

#72500
1aaaai

#73000
0aaaai

#73500
1aaaai

#74000
0aaaai

#74500
1aaaai

#75000
0aaaai

#75500
1aaaai

#76000
0aaaai

#76500
1aaaai

#77000
0aaaai

#77500
1aaaai

#78000
0aaaai

#78500
1aaaai

#79000
0aaaai

#79500
1aaaai

#80000
0aaaai

#80500
1aaaai

#81000
0aaaai

#81500
1aaaai

#82000
0aaaai

#82500
1aaaai

#83000
0aaaai

#83500
1aaaai

#84000
0aaaai

#84500
1aaaai

#85000
0aaaai

#85500
1aaaai

#86000
0aaaai

#86500
1aaaai

#87000
0aaaai

#87500
1aaaai

#88000
0aaaai

#88500
1aaaai

#89000
0aaaai

#89500
1aaaai

#90000
0aaaai

#90500
1aaaai

#91000
0aaaai

#91500
1aaaai

#92000
0aaaai

#92500
1aaaai

#93000
0aaaai

#93500
1aaaai

#94000
0aaaai

#94500
1aaaai

#95000
0aaaai

#95500
1aaaai

#96000
0aaaai

#96500
1aaaai

#97000
0aaaai

#97500
1aaaai

#98000
0aaaai

#98500
1aaaai

#99000
0aaaai

#99500
1aaaai

#100000
0aaaai

#100500
1aaaai

#101000
0aaaai

#101500
1aaaai

#102000
0aaaai

#102500
1aaaai

#103000
0aaaai

#103500
1aaaai

#104000
0aaaai

#104500
1aaaai

#105000
0aaaai

#105500
1aaaai

#106000
0aaaai

#106500
1aaaai

#107000
0aaaai

#107500
1aaaai

#108000
0aaaai

#108500
1aaaai

#109000
0aaaai

#109500
1aaaai

#110000
0aaaai

#110500
1aaaai

#111000
0aaaai

#111500
1aaaai

#112000
0aaaai

#112500
1aaaai

#113000
0aaaai

#113500
1aaaai

#114000
0aaaai

#114500
1aaaai

#115000
0aaaai

#115500
1aaaai

#116000
0aaaai

#116500
1aaaai

#117000
0aaaai

#117500
1aaaai

#118000
0aaaai

#118500
1aaaai

#119000
0aaaai

#119500
1aaaai

#120000
0aaaai

#120500
1aaaai

#121000
0aaaai

#121500
1aaaai

#122000
0aaaai

#122500
1aaaai

#123000
0aaaai

#123500
1aaaai

#124000
0aaaai

#124500
1aaaai

#125000
0aaaai

#125500
1aaaai

#126000
0aaaai

#126500
1aaaai

#127000
0aaaai

#127500
1aaaai

#128000
0aaaai

#128500
1aaaai

#129000
0aaaai

#129500
1aaaai

#130000
0aaaai

#130500
1aaaai

#131000
0aaaai

#131500
1aaaai

#132000
0aaaai

#132500
1aaaai

#133000
0aaaai

#133500
1aaaai

#134000
0aaaai

#134500
1aaaai

#135000
0aaaai

#135500
1aaaai

#136000
0aaaai

#136500
1aaaai

#137000
0aaaai

#137500
1aaaai

#138000
0aaaai

#138500
1aaaai

#139000
0aaaai

#139500
1aaaai

#140000
0aaaai

#140500
1aaaai

#141000
0aaaai

#141500
1aaaai

#142000
0aaaai

#142500
1aaaai

#143000
0aaaai

#143500
1aaaai

#144000
0aaaai

#144500
1aaaai

#145000
0aaaai

#145500
1aaaai

#146000
0aaaai

#146500
1aaaai

#147000
0aaaai

#147500
1aaaai

#148000
0aaaai

#148500
1aaaai

#149000
0aaaai

#149500
1aaaai

#150000
0aaaai

#150500
1aaaai

#151000
0aaaai

#151500
1aaaai

#152000
0aaaai

#152500
1aaaai

#153000
0aaaai

#153500
1aaaai

#154000
0aaaai

#154500
1aaaai

#155000
0aaaai

#155500
1aaaai

#156000
0aaaai

#156500
1aaaai

#157000
0aaaai

#157500
1aaaai

#158000
0aaaai

#158500
1aaaai

#159000
0aaaai

#159500
1aaaai

#160000
0aaaai

#160500
1aaaai

#161000
0aaaai

#161500
1aaaai

#162000
0aaaai

#162500
1aaaai

#163000
0aaaai

#163500
1aaaai

#164000
0aaaai

#164500
1aaaai

#165000
0aaaai

#165500
1aaaai

#166000
0aaaai

#166500
1aaaai

#167000
0aaaai

#167500
1aaaai

#168000
0aaaai

#168500
1aaaai

#169000
0aaaai

#169500
1aaaai

#170000
0aaaai

#170500
1aaaai

#171000
0aaaai

#171500
1aaaai

#172000
0aaaai

#172500
1aaaai

#173000
0aaaai

#173500
1aaaai

#174000
0aaaai

#174500
1aaaai

#175000
0aaaai

#175500
1aaaai

#176000
0aaaai

#176500
1aaaai

#177000
0aaaai

#177500
1aaaai

#178000
0aaaai

#178500
1aaaai

#179000
0aaaai

#179500
1aaaai

#180000
0aaaai

#180500
1aaaai

#181000
0aaaai

#181500
1aaaai

#182000
0aaaai

#182500
1aaaai

#183000
0aaaai

#183500
1aaaai

#184000
0aaaai

#184500
1aaaai

#185000
0aaaai

#185500
1aaaai

#186000
0aaaai

#186500
1aaaai

#187000
0aaaai

#187500
1aaaai

#188000
0aaaai

#188500
1aaaai

#189000
0aaaai

#189500
1aaaai

#190000
0aaaai

#190500
1aaaai

#191000
0aaaai

#191500
1aaaai

#192000
0aaaai

#192500
1aaaai

#193000
0aaaai

#193500
1aaaai

#194000
0aaaai

#194500
1aaaai

#195000
0aaaai

#195500
1aaaai

#196000
0aaaai

#196500
1aaaai

#197000
0aaaai

#197500
1aaaai

#198000
0aaaai

#198500
1aaaai

#199000
0aaaai

#199500
1aaaai

#200000
0aaaai

#200500
1aaaai

#201000
0aaaai

#201500
1aaaai

#202000
0aaaai

#202500
1aaaai

#203000
0aaaai

#203500
1aaaai

#204000
0aaaai

#204500
1aaaai

#205000
0aaaai

#205500
1aaaai

#206000
0aaaai

#206500
1aaaai

#207000
0aaaai

#207500
1aaaai

#208000
0aaaai

#208500
1aaaai

#209000
0aaaai

#209500
1aaaai

#210000
0aaaai

#210500
1aaaai

#211000
0aaaai

#211500
1aaaai

#212000
0aaaai

#212500
1aaaai

#213000
0aaaai

#213500
1aaaai

#214000
0aaaai

#214500
1aaaai

#215000
0aaaai

#215500
1aaaai

#216000
0aaaai

#216500
1aaaai

#217000
0aaaai

#217500
1aaaai

#218000
0aaaai

#218500
1aaaai

#219000
0aaaai

#219500
1aaaai

#220000
0aaaai

#220500
1aaaai

#221000
0aaaai

#221500
1aaaai

#222000
0aaaai

#222500
1aaaai

#223000
0aaaai

#223500
1aaaai

#224000
0aaaai

#224500
1aaaai

#225000
0aaaai

#225500
1aaaai

#226000
0aaaai

#226500
1aaaai

#227000
0aaaai

#227500
1aaaai

#228000
0aaaai

#228500
1aaaai

#229000
0aaaai

#229500
1aaaai

#230000
0aaaai

#230500
1aaaai

#231000
0aaaai

#231500
1aaaai

#232000
0aaaai

#232500
1aaaai

#233000
0aaaai

#233500
1aaaai

#234000
0aaaai

#234500
1aaaai

#235000
0aaaai

#235500
1aaaai

#236000
0aaaai

#236500
1aaaai

#237000
0aaaai

#237500
1aaaai

#238000
0aaaai

#238500
1aaaai

#239000
0aaaai

#239500
1aaaai

#240000
0aaaai

#240500
1aaaai

#241000
0aaaai

#241500
1aaaai

#242000
0aaaai

#242500
1aaaai

#243000
0aaaai

#243500
1aaaai

#244000
0aaaai

#244500
1aaaai

#245000
0aaaai

#245500
1aaaai

#246000
0aaaai

#246500
1aaaai

#247000
0aaaai

#247500
1aaaai

#248000
0aaaai

#248500
1aaaai

#249000
0aaaai

#249500
1aaaai

#250000
0aaaai

#250500
1aaaai

#251000
0aaaai

#251500
1aaaai

#252000
0aaaai

#252500
1aaaai

#253000
0aaaai

#253500
1aaaai

#254000
0aaaai

#254500
1aaaai

#255000
0aaaai

#255500
1aaaai

#256000
0aaaai

#256500
1aaaai

#257000
0aaaai

#257500
1aaaai

#258000
0aaaai

#258500
1aaaai

#259000
0aaaai

#259500
1aaaai

#260000
0aaaai

#260500
1aaaai

#261000
0aaaai

#261500
1aaaai

#262000
0aaaai

#262500
1aaaai

#263000
0aaaai

#263500
1aaaai

#264000
0aaaai

#264500
1aaaai

#265000
0aaaai

#265500
1aaaai

#266000
0aaaai

#266500
1aaaai

#267000
0aaaai

#267500
1aaaai

#268000
0aaaai

#268500
1aaaai

#269000
0aaaai

#269500
1aaaai

#270000
0aaaai

#270500
1aaaai

#271000
0aaaai

#271500
1aaaai

#272000
0aaaai

#272500
1aaaai

#273000
0aaaai

#273500
0aaaab
1aaaai

#274000
0aaaai

#274500
1aaaad
1aaaai

#275000
0aaaai

#275500
0aaaad
1aaaai

#276000
0aaaai

#276500
1aaaad
1aaaai

#277000
0aaaai

#277500
0aaaad
1aaaai

#278000
0aaaai

#278500
1aaaad
1aaaai

#279000
0aaaai

#279500
0aaaad
1aaaai

#280000
0aaaai

#280500
1aaaad
1aaaai

#281000
0aaaai

#281500
0aaaad
1aaaai

#282000
0aaaai

#282500
1aaaad
1aaaai

#283000
0aaaai

#283500
0aaaad
1aaaai

#284000
0aaaai

#284500
1aaaad
1aaaai

#285000
0aaaai

#285500
1aaaaa
0aaaad
1aaaai

#286000
0aaaai

#286500
1aaaad
1aaaai

#287000
0aaaai

#287500
0aaaad
1aaaai

#288000
0aaaai

#288500
1aaaad
1aaaai

#289000
0aaaai

#289500
0aaaad
1aaaai

#290000
0aaaai

#290500
1aaaad
1aaaai

#291000
0aaaai

#291500
0aaaad
1aaaai

#292000
0aaaai

#292500
1aaaad
1aaaai

#293000
0aaaai

#293500
0aaaad
1aaaai

#294000
0aaaai

#294500
1aaaad
1aaaai

#295000
0aaaai

#295500
0aaaad
1aaaai

#296000
0aaaai

#296500
1aaaad
1aaaai

#297000
0aaaai

#297500
0aaaad
1aaaai

#298000
0aaaai

#298500
1aaaad
1aaaai

#299000
0aaaai

#299500
0aaaad
1aaaai

#300000
0aaaai

#300500
1aaaad
1aaaai

#301000
0aaaai

#301500
0aaaad
1aaaai

#302000
0aaaai

#302500
1aaaad
1aaaai

#303000
0aaaai

#303500
0aaaaa
0aaaad
1aaaai

#304000
0aaaai

#304500
1aaaad
1aaaai

#305000
0aaaai

#305500
0aaaad
1aaaai

#306000
0aaaai

#306500
1aaaad
1aaaai

#307000
0aaaai

#307500
0aaaad
1aaaai

#308000
0aaaai

#308500
1aaaad
1aaaai

#309000
0aaaai

#309500
0aaaad
1aaaai

#310000
0aaaai

#310500
1aaaad
1aaaai

#311000
0aaaai

#311500
0aaaad
1aaaai

#312000
0aaaai

#312500
1aaaad
1aaaai

#313000
0aaaai

#313500
0aaaad
1aaaai

#314000
0aaaai

#314500
1aaaad
1aaaai

#315000
0aaaai

#315500
0aaaad
1aaaai

#316000
0aaaai

#316500
1aaaad
1aaaai

#317000
0aaaai

#317500
0aaaad
1aaaai

#318000
0aaaai

#318500
1aaaad
1aaaai

#319000
0aaaai

#319500
0aaaad
1aaaai

#320000
0aaaai

#320500
1aaaad
1aaaai

#321000
0aaaai

#321500
0aaaad
1aaaai

#322000
0aaaai

#322500
1aaaad
1aaaai

#323000
0aaaai

#323500
0aaaad
1aaaai

#324000
0aaaai

#324500
1aaaad
1aaaai

#325000
0aaaai

#325500
0aaaad
1aaaai

#326000
0aaaai

#326500
1aaaad
1aaaai

#327000
0aaaai

#327500
0aaaad
1aaaai

#328000
0aaaai

#328500
1aaaad
1aaaai

#329000
0aaaai

#329500
0aaaad
1aaaai

#330000
0aaaai

#330500
1aaaad
1aaaai

#331000
0aaaai

#331500
0aaaad
1aaaai

#332000
0aaaai

#332500
1aaaad
1aaaai

#333000
0aaaai

#333500
0aaaad
1aaaai

#334000
0aaaai

#334500
1aaaad
1aaaai

#335000
0aaaai

#335500
0aaaad
1aaaai

#336000
0aaaai

#336500
1aaaad
1aaaai

#337000
0aaaai

#337500
0aaaad
1aaaai

#338000
0aaaai

#338500
1aaaad
1aaaai

#339000
0aaaai

#339500
0aaaad
1aaaai

#340000
0aaaai

#340500
1aaaad
1aaaai

#341000
0aaaai

#341500
0aaaad
1aaaai

#342000
0aaaai

#342500
1aaaad
1aaaai

#343000
0aaaai

#343500
0aaaad
1aaaai

#344000
0aaaai

#344500
1aaaad
1aaaai

#345000
0aaaai

#345500
0aaaad
1aaaai

#346000
0aaaai

#346500
1aaaad
1aaaai

#347000
0aaaai

#347500
0aaaad
1aaaai

#348000
0aaaai

#348500
1aaaad
1aaaai

#349000
0aaaai

#349500
0aaaad
1aaaai

#350000
0aaaai

#350500
1aaaad
1aaaai

#351000
0aaaai

#351500
0aaaad
1aaaai

#352000
0aaaai

#352500
1aaaad
1aaaai

#353000
0aaaai

#353500
0aaaad
1aaaai

#354000
0aaaai

#354500
1aaaad
1aaaai

#355000
0aaaai

#355500
0aaaad
1aaaai

#356000
0aaaai

#356500
1aaaad
1aaaai

#357000
0aaaai

#357500
0aaaad
1aaaai

#358000
0aaaai

#358500
1aaaad
1aaaai

#359000
0aaaai

#359500
0aaaad
1aaaai

#360000
0aaaai

#360500
1aaaad
1aaaai

#361000
0aaaai

#361500
0aaaad
1aaaai

#362000
0aaaai

#362500
1aaaad
1aaaai

#363000
0aaaai

#363500
0aaaad
1aaaai

#364000
0aaaai

#364500
1aaaad
1aaaai

#365000
0aaaai

#365500
0aaaad
1aaaai

#366000
0aaaai

#366500
1aaaad
1aaaai

#367000
0aaaai

#367500
0aaaad
1aaaai

#368000
0aaaai

#368500
1aaaad
1aaaai

#369000
0aaaai

#369500
0aaaad
1aaaai

#370000
0aaaai

#370500
1aaaad
1aaaai

#371000
0aaaai

#371500
0aaaad
1aaaai

#372000
0aaaai

#372500
1aaaad
1aaaai

#373000
0aaaai

#373500
0aaaad
1aaaai

#374000
0aaaai

#374500
1aaaad
1aaaai

#375000
0aaaai

#375500
0aaaad
1aaaai

#376000
0aaaai

#376500
1aaaad
1aaaai

#377000
0aaaai

#377500
0aaaad
1aaaai

#378000
0aaaai

#378500
1aaaad
1aaaai

#379000
0aaaai

#379500
0aaaad
1aaaai

#380000
0aaaai

#380500
1aaaad
1aaaai

#381000
0aaaai

#381500
0aaaad
1aaaai

#382000
0aaaai

#382500
1aaaad
1aaaai

#383000
0aaaai

#383500
0aaaad
1aaaai

#384000
0aaaai

#384500
1aaaad
1aaaai

#385000
0aaaai

#385500
0aaaad
1aaaai

#386000
0aaaai

#386500
1aaaad
1aaaai

#387000
0aaaai

#387500
0aaaad
1aaaai

#388000
0aaaai

#388500
1aaaad
1aaaai

#389000
0aaaai

#389500
0aaaad
1aaaai

#390000
0aaaai

#390500
1aaaad
1aaaai

#391000
0aaaai

#391500
0aaaad
1aaaai

#392000
0aaaai

#392500
1aaaad
1aaaai

#393000
0aaaai

#393500
0aaaad
1aaaai

#394000
0aaaai

#394500
1aaaad
1aaaai

#395000
0aaaai

#395500
0aaaad
1aaaai

#396000
0aaaai

#396500
1aaaad
1aaaai

#397000
0aaaai

#397500
0aaaad
1aaaai

#398000
0aaaai

#398500
1aaaad
1aaaai

#399000
0aaaai

#399500
0aaaad
1aaaai

#400000
0aaaai

#400500
1aaaad
1aaaai

#401000
0aaaai

#401500
0aaaad
1aaaai

#402000
0aaaai

#402500
1aaaad
1aaaai

#403000
0aaaai

#403500
0aaaad
1aaaai

#404000
0aaaai

#404500
1aaaad
1aaaai

#405000
0aaaai

#405500
0aaaad
1aaaai

#406000
0aaaai

#406500
1aaaad
1aaaai

#407000
0aaaai

#407500
0aaaad
1aaaai

#408000
0aaaai

#408500
1aaaad
1aaaai

#409000
0aaaai

#409500
0aaaad
1aaaai

#410000
0aaaai

#410500
1aaaad
1aaaai

#411000
0aaaai

#411500
0aaaad
1aaaai

#412000
0aaaai

#412500
1aaaad
1aaaai

#413000
0aaaai

#413500
0aaaad
1aaaai

#414000
0aaaai

#414500
1aaaad
1aaaai

#415000
0aaaai

#415500
0aaaad
1aaaai

#416000
0aaaai

#416500
1aaaad
1aaaai

#417000
0aaaai

#417500
0aaaad
1aaaai

#418000
0aaaai

#418500
1aaaad
1aaaai

#419000
0aaaai

#419500
0aaaad
1aaaai

#420000
0aaaai

#420500
1aaaad
1aaaai

#421000
0aaaai

#421500
0aaaad
1aaaai

#422000
0aaaai

#422500
1aaaad
1aaaai

#423000
0aaaai

#423500
0aaaad
1aaaai

#424000
0aaaai

#424500
1aaaad
1aaaai

#425000
0aaaai

#425500
0aaaad
1aaaai

#426000
0aaaai

#426500
1aaaad
1aaaai

#427000
0aaaai

#427500
0aaaad
1aaaai

#428000
0aaaai

#428500
1aaaad
1aaaai

#429000
0aaaai

#429500
0aaaad
1aaaai

#430000
0aaaai

#430500
1aaaad
1aaaai

#431000
0aaaai

#431500
0aaaad
1aaaai

#432000
0aaaai

#432500
1aaaad
1aaaai

#433000
0aaaai

#433500
0aaaad
1aaaai

#434000
0aaaai

#434500
1aaaad
1aaaai

#435000
0aaaai

#435500
0aaaad
1aaaai

#436000
0aaaai

#436500
1aaaad
1aaaai

#437000
0aaaai

#437500
0aaaad
1aaaai

#438000
0aaaai

#438500
1aaaad
1aaaai

#439000
0aaaai

#439500
0aaaad
1aaaai

#440000
0aaaai

#440500
1aaaad
1aaaai

#441000
0aaaai

#441500
0aaaad
1aaaai

#442000
0aaaai

#442500
1aaaad
1aaaai

#443000
0aaaai

#443500
0aaaad
1aaaai

#444000
0aaaai

#444500
1aaaad
1aaaai

#445000
0aaaai

#445500
0aaaad
1aaaai

#446000
0aaaai

#446500
1aaaad
1aaaai

#447000
0aaaai

#447500
0aaaad
1aaaai

#448000
0aaaai

#448500
1aaaad
1aaaai

#449000
0aaaai

#449500
0aaaad
1aaaai

#450000
0aaaai

#450500
1aaaad
1aaaai

#451000
0aaaai

#451500
0aaaad
1aaaai

#452000
0aaaai

#452500
1aaaad
1aaaai

#453000
0aaaai

#453500
0aaaad
1aaaai

#454000
0aaaai

#454500
1aaaad
1aaaai

#455000
0aaaai

#455500
0aaaad
1aaaai

#456000
0aaaai

#456500
1aaaad
1aaaai

#457000
0aaaai

#457500
0aaaad
1aaaai

#458000
0aaaai

#458500
1aaaad
1aaaai

#459000
0aaaai

#459500
0aaaad
1aaaai

#460000
0aaaai

#460500
1aaaad
1aaaai

#461000
0aaaai

#461500
0aaaad
1aaaai

#462000
0aaaai

#462500
1aaaad
1aaaai

#463000
0aaaai

#463500
0aaaad
1aaaai

#464000
0aaaai

#464500
1aaaad
1aaaai

#465000
0aaaai

#465500
0aaaad
1aaaai

#466000
0aaaai

#466500
1aaaad
1aaaai

#467000
0aaaai

#467500
0aaaad
1aaaai

#468000
0aaaai

#468500
1aaaad
1aaaai

#469000
0aaaai

#469500
0aaaad
1aaaai

#470000
0aaaai

#470500
1aaaad
1aaaai

#471000
0aaaai

#471500
0aaaad
1aaaai

#472000
0aaaai

#472500
1aaaad
1aaaai

#473000
0aaaai

#473500
0aaaad
1aaaai

#474000
0aaaai

#474500
1aaaad
1aaaai

#475000
0aaaai

#475500
0aaaad
1aaaai

#476000
0aaaai

#476500
1aaaad
1aaaai

#477000
0aaaai

#477500
0aaaad
1aaaai

#478000
0aaaai

#478500
1aaaad
1aaaai

#479000
0aaaai

#479500
0aaaad
1aaaai

#480000
0aaaai

#480500
1aaaad
1aaaai

#481000
0aaaai

#481500
0aaaad
1aaaai

#482000
0aaaai

#482500
1aaaad
1aaaai

#483000
0aaaai

#483500
0aaaad
1aaaai

#484000
0aaaai

#484500
1aaaad
1aaaai

#485000
0aaaai

#485500
0aaaad
1aaaai

#486000
0aaaai

#486500
1aaaad
1aaaai

#487000
0aaaai

#487500
0aaaad
1aaaai

#488000
0aaaai

#488500
1aaaad
1aaaai

#489000
0aaaai

#489500
0aaaad
1aaaai

#490000
0aaaai

#490500
1aaaad
1aaaai

#491000
0aaaai

#491500
0aaaad
1aaaai

#492000
0aaaai

#492500
1aaaad
1aaaai

#493000
0aaaai

#493500
0aaaad
1aaaai

#494000
0aaaai

#494500
1aaaad
1aaaai

#495000
0aaaai

#495500
0aaaad
1aaaai

#496000
0aaaai

#496500
1aaaad
1aaaai

#497000
0aaaai

#497500
0aaaad
1aaaai

#498000
0aaaai

#498500
1aaaad
1aaaai

#499000
0aaaai

#499500
0aaaad
1aaaai

#500000
0aaaai

#500500
1aaaad
1aaaai

#501000
0aaaai

#501500
0aaaad
1aaaai

#502000
0aaaai

#502500
1aaaad
1aaaai

#503000
0aaaai

#503500
0aaaad
1aaaai

#504000
0aaaai

#504500
1aaaad
1aaaai

#505000
0aaaai

#505500
0aaaad
1aaaai

#506000
0aaaai

#506500
1aaaad
1aaaai

#507000
0aaaai

#507500
0aaaad
1aaaai

#508000
0aaaai

#508500
1aaaad
1aaaai

#509000
0aaaai

#509500
0aaaad
1aaaai

#510000
0aaaai

#510500
1aaaad
1aaaai

#511000
0aaaai

#511500
0aaaad
1aaaai

#512000
0aaaai

#512500
1aaaad
1aaaai

#513000
0aaaai

#513500
0aaaad
1aaaai

#514000
0aaaai

#514500
1aaaad
1aaaai

#515000
0aaaai

#515500
0aaaad
1aaaai

#516000
0aaaai

#516500
1aaaad
1aaaai

#517000
0aaaai

#517500
1aaaaa
0aaaad
1aaaai

#518000
0aaaai

#518500
1aaaad
1aaaai

#519000
0aaaai

#519500
0aaaad
1aaaai

#520000
0aaaai

#520500
1aaaad
1aaaai

#521000
0aaaai

#521500
0aaaad
1aaaai

#522000
0aaaai

#522500
1aaaad
1aaaai

#523000
0aaaai

#523500
0aaaad
1aaaai

#524000
0aaaai

#524500
1aaaad
1aaaai

#525000
0aaaai

#525500
0aaaad
1aaaai

#526000
0aaaai

#526500
1aaaad
1aaaai

#527000
0aaaai

#527500
0aaaaa
0aaaad
1aaaai

#528000
0aaaai

#528500
1aaaad
1aaaai

#529000
0aaaai

#529500
0aaaad
1aaaai

#530000
0aaaai

#530500
1aaaad
1aaaai

#531000
0aaaai

#531500
1aaaac
0aaaad
1aaaai

#532000
0aaaai

#532500
1aaaai

#533000
0aaaai

#533500
0aaaac
1aaaai

#534000
0aaaai

#534500
1aaaai

#535000
0aaaai

#535500
1aaaai

#536000
0aaaai

#536500
1aaaad
1aaaai

#537000
0aaaai

#537500
0aaaad
1aaaai

#538000
0aaaai

#538500
1aaaad
1aaaai

#539000
0aaaai

#539500
0aaaad
1aaaai

#540000
0aaaai

#540500
1aaaad
1aaaai

#541000
0aaaai

#541500
0aaaad
1aaaai

#542000
0aaaai

#542500
1aaaad
1aaaai

#543000
0aaaai

#543500
0aaaad
1aaaai

#544000
0aaaai

#544500
1aaaad
1aaaai

#545000
0aaaai

#545500
0aaaad
1aaaai

#546000
0aaaai

#546500
1aaaad
1aaaai

#547000
0aaaai

#547500
1aaaaa
0aaaad
1aaaai

#548000
0aaaai

#548500
1aaaad
1aaaai

#549000
0aaaai

#549500
0aaaad
1aaaai

#550000
0aaaai

#550500
1aaaad
1aaaai

#551000
0aaaai

#551500
0aaaad
1aaaai

#552000
0aaaai

#552500
1aaaad
1aaaai

#553000
0aaaai

#553500
0aaaad
1aaaai

#554000
0aaaai

#554500
1aaaad
1aaaai

#555000
0aaaai

#555500
0aaaad
1aaaai

#556000
0aaaai

#556500
1aaaad
1aaaai

#557000
0aaaai

#557500
0aaaad
1aaaai

#558000
0aaaai

#558500
1aaaad
1aaaai

#559000
0aaaai

#559500
0aaaad
1aaaai

#560000
0aaaai

#560500
1aaaad
1aaaai

#561000
0aaaai

#561500
0aaaad
1aaaai

#562000
0aaaai

#562500
1aaaad
1aaaai

#563000
0aaaai

#563500
0aaaad
1aaaai

#564000
0aaaai

#564500
1aaaad
1aaaai

#565000
0aaaai

#565500
0aaaaa
0aaaad
1aaaai

#566000
0aaaai

#566500
1aaaad
1aaaai

#567000
0aaaai

#567500
0aaaad
1aaaai

#568000
0aaaai

#568500
1aaaad
1aaaai

#569000
0aaaai

#569500
0aaaad
1aaaai

#570000
0aaaai

#570500
1aaaad
1aaaai

#571000
0aaaai

#571500
0aaaad
1aaaai

#572000
0aaaai

#572500
1aaaad
1aaaai

#573000
0aaaai

#573500
0aaaad
1aaaai

#574000
0aaaai

#574500
1aaaad
1aaaai

#575000
0aaaai

#575500
0aaaad
1aaaai

#576000
0aaaai

#576500
1aaaad
1aaaai

#577000
0aaaai

#577500
0aaaad
1aaaai

#578000
0aaaai

#578500
1aaaad
1aaaai

#579000
0aaaai

#579500
0aaaad
1aaaai

#580000
0aaaai

#580500
1aaaad
1aaaai

#581000
0aaaai

#581500
0aaaad
1aaaai

#582000
0aaaai

#582500
1aaaad
1aaaai

#583000
0aaaai

#583500
0aaaad
1aaaai

#584000
0aaaai

#584500
1aaaad
1aaaai

#585000
0aaaai

#585500
0aaaad
1aaaai

#586000
0aaaai

#586500
1aaaad
1aaaai

#587000
0aaaai

#587500
0aaaad
1aaaai

#588000
0aaaai

#588500
1aaaad
1aaaai

#589000
0aaaai

#589500
0aaaad
1aaaai

#590000
0aaaai

#590500
1aaaad
1aaaai

#591000
0aaaai

#591500
0aaaad
1aaaai

#592000
0aaaai

#592500
1aaaad
1aaaai

#593000
0aaaai

#593500
0aaaad
1aaaai

#594000
0aaaai

#594500
1aaaad
1aaaai

#595000
0aaaai

#595500
0aaaad
1aaaai

#596000
0aaaai

#596500
1aaaad
1aaaai

#597000
0aaaai

#597500
0aaaad
1aaaai

#598000
0aaaai

#598500
1aaaad
1aaaai

#599000
0aaaai

#599500
0aaaad
1aaaai

#600000
0aaaai

#600500
1aaaad
1aaaai

#601000
0aaaai

#601500
0aaaad
1aaaai

#602000
0aaaai

#602500
1aaaad
1aaaai

#603000
0aaaai

#603500
0aaaad
1aaaai

#604000
0aaaai

#604500
1aaaad
1aaaai

#605000
0aaaai

#605500
0aaaad
1aaaai

#606000
0aaaai

#606500
1aaaad
1aaaai

#607000
0aaaai

#607500
0aaaad
1aaaai

#608000
0aaaai

#608500
1aaaad
1aaaai

#609000
0aaaai

#609500
0aaaad
1aaaai

#610000
0aaaai

#610500
1aaaad
1aaaai

#611000
0aaaai

#611500
0aaaad
1aaaai

#612000
0aaaai

#612500
1aaaad
1aaaai

#613000
0aaaai

#613500
0aaaad
1aaaai

#614000
0aaaai

#614500
1aaaad
1aaaai

#615000
0aaaai

#615500
0aaaad
1aaaai

#616000
0aaaai

#616500
1aaaad
1aaaai

#617000
0aaaai

#617500
0aaaad
1aaaai

#618000
0aaaai

#618500
1aaaad
1aaaai

#619000
0aaaai

#619500
0aaaad
1aaaai

#620000
0aaaai

#620500
1aaaad
1aaaai

#621000
0aaaai

#621500
0aaaad
1aaaai

#622000
0aaaai

