Tutorials/7-2_Vitis-HLS_fxp_sqrt/simulation/sc_fxp_sqrt_top_tb.vcd
$date
     Mar 15, 2025       14:37:20
$end

$version
 SystemC 3.0.1-Accellera --- Jan 30 2025 20:30:18
$end

$timescale
     100 ps
$end

$scope module SystemC $end
$var wire    1  aaaaa  ap_clk       $end
$var wire    1  aaaab  ap_rst       $end
$var wire    1  aaaac  ap_start       $end
$var wire    1  aaaad  ap_done       $end
$var wire    1  aaaae  ap_continue       $end
$var wire    1  aaaaf  ap_idle       $end
$var wire    1  aaaag  ap_ready       $end
$var wire   32  aaaah  in_val [31:0]  $end
$var wire   32  aaaai  ap_return [31:0]  $end
$upscope $end
$enddefinitions  $end

$comment
All initial values are dumped below at time 0 sec = 0 timescale units.
$end

$dumpvars
0aaaaa
1aaaab
0aaaac
0aaaad
1aaaae
1aaaaf
0aaaag
b0 aaaah
b0 aaaai
$end

#500
1aaaaa

#1000
0aaaaa

#1500
1aaaaa

#2000
0aaaaa

#2500
1aaaaa

#3000
0aaaaa

#3500
1aaaaa
0aaaab

#4000
0aaaaa

#4500
1aaaaa
1aaaac
0aaaaf
b11000011 aaaah

#5000
0aaaaa

#5500
1aaaaa

#6000
0aaaaa

#6500
1aaaaa

#7000
0aaaaa

#7500
1aaaaa

#8000
0aaaaa

#8500
1aaaaa

#9000
0aaaaa

#9500
1aaaaa

#10000
0aaaaa

#10500
1aaaaa

#11000
0aaaaa

#11500
1aaaaa

#12000
0aaaaa

#12500
1aaaaa

#13000
0aaaaa

#13500
1aaaaa

#14000
0aaaaa

#14500
1aaaaa

#15000
0aaaaa

#15500
1aaaaa

#16000
0aaaaa

#16500
1aaaaa

#17000
0aaaaa

#17500
1aaaaa

#18000
0aaaaa

#18500
1aaaaa

#19000
0aaaaa

#19500
1aaaaa

#20000
0aaaaa

#20500
1aaaaa

#21000
0aaaaa

#21500
1aaaaa

#22000
0aaaaa

#22500
1aaaaa

#23000
0aaaaa

#23500
1aaaaa

#24000
0aaaaa

#24500
1aaaaa

#25000
0aaaaa

#25500
1aaaaa

#26000
0aaaaa

#26500
1aaaaa

#27000
0aaaaa

#27500
1aaaaa

#28000
0aaaaa

#28500
1aaaaa

#29000
0aaaaa

#29500
1aaaaa

#30000
0aaaaa

#30500
1aaaaa

#31000
0aaaaa

#31500
1aaaaa

#32000
0aaaaa

#32500
1aaaaa

#33000
0aaaaa

#33500
1aaaaa

#34000
0aaaaa

#34500
1aaaaa

#35000
0aaaaa

#35500
1aaaaa

#36000
0aaaaa

#36500
1aaaaa

#37000
0aaaaa

#37500
1aaaaa

#38000
0aaaaa

#38500
1aaaaa
1aaaad
1aaaag
b11011111011011011000 aaaai

#39000
0aaaaa

#39500
1aaaaa
0aaaac
0aaaad
1aaaaf
0aaaag

#40000
0aaaaa

#40500
1aaaaa
1aaaac
0aaaaf
b11110111 aaaah

#41000
0aaaaa

#41500
1aaaaa

#42000
0aaaaa

#42500
1aaaaa

#43000
0aaaaa

#43500
1aaaaa

#44000
0aaaaa

#44500
1aaaaa

#45000
0aaaaa

#45500
1aaaaa

#46000
0aaaaa

#46500
1aaaaa

#47000
0aaaaa

#47500
1aaaaa

#48000
0aaaaa

#48500
1aaaaa

#49000
0aaaaa

#49500
1aaaaa

#50000
0aaaaa

#50500
1aaaaa

#51000
0aaaaa

#51500
1aaaaa

#52000
0aaaaa

#52500
1aaaaa

#53000
0aaaaa

#53500
1aaaaa

#54000
0aaaaa

#54500
1aaaaa

#55000
0aaaaa

#55500
1aaaaa

#56000
0aaaaa

#56500
1aaaaa

#57000
0aaaaa

#57500
1aaaaa

#58000
0aaaaa

#58500
1aaaaa

#59000
0aaaaa

#59500
1aaaaa

#60000
0aaaaa

#60500
1aaaaa

#61000
0aaaaa

#61500
1aaaaa

#62000
0aaaaa

#62500
1aaaaa

#63000
0aaaaa

#63500
1aaaaa

#64000
0aaaaa

#64500
1aaaaa

#65000
0aaaaa

#65500
1aaaaa

#66000
0aaaaa

#66500
1aaaaa

#67000
0aaaaa

#67500
1aaaaa

#68000
0aaaaa

#68500
1aaaaa

#69000
0aaaaa

#69500
1aaaaa

#70000
0aaaaa

#70500
1aaaaa

#71000
0aaaaa

#71500
1aaaaa

#72000
0aaaaa

#72500
1aaaaa
1aaaad
1aaaag
b11111011011101011011 aaaai

#73000
0aaaaa

#73500
1aaaaa
0aaaac
0aaaad
1aaaaf
0aaaag

#74000
0aaaaa

#74500
1aaaaa
1aaaac
0aaaaf
b11000 aaaah

