Tutorials/7-2_Vitis-HLS_fxp_sqrt/simulation/Vfxp_sqrt_top.vcd
$version Generated by VerilatedVcd $end
$timescale 1ps $end
 $scope module u_sc_fxp_sqrt_top_TB.u_Vfxp_sqrt_top $end
  $scope module fxp_sqrt_top $end
   $var wire 3 e ap_ST_fsm_state1 [2:0] $end
   $var wire 3 f ap_ST_fsm_state2 [2:0] $end
   $var wire 3 g ap_ST_fsm_state3 [2:0] $end
   $var wire 1 C ap_clk $end
   $var wire 1 D ap_rst $end
   $var wire 1 E ap_start $end
   $var wire 1 # ap_done $end
   $var wire 1 F ap_continue $end
   $var wire 1 Z ap_idle $end
   $var wire 1 $ ap_ready $end
   $var wire 24 G in_val [23:0] $end
   $var wire 28 Q ap_return [27:0] $end
   $var wire 1 % ap_rst_reg_2 $end
   $var wire 1 & ap_rst_reg_1 $end
   $var wire 1 ' ap_rst_reg $end
   $var wire 1 ( ap_done_reg $end
   $var wire 3 ) ap_CS_fsm [2:0] $end
   $var wire 1 * ap_CS_fsm_state1 $end
   $var wire 28 H s_fu_68_p3 [27:0] $end
   $var wire 28 R s_reg_134 [27:0] $end
   $var wire 1 [ ap_block_state1 $end
   $var wire 1 + grp_fxp_sqrt_top_Pipeline_VITIS_LOOP_89_1_fu_60_ap_start $end
   $var wire 1 \ grp_fxp_sqrt_top_Pipeline_VITIS_LOOP_89_1_fu_60_ap_done $end
   $var wire 1 ] grp_fxp_sqrt_top_Pipeline_VITIS_LOOP_89_1_fu_60_ap_idle $end
   $var wire 1 I grp_fxp_sqrt_top_Pipeline_VITIS_LOOP_89_1_fu_60_ap_ready $end
   $var wire 31 J grp_fxp_sqrt_top_Pipeline_VITIS_LOOP_89_1_fu_60_s_4_out [30:0] $end
   $var wire 1 K grp_fxp_sqrt_top_Pipeline_VITIS_LOOP_89_1_fu_60_s_4_out_ap_vld $end
   $var wire 28 L grp_fxp_sqrt_top_Pipeline_VITIS_LOOP_89_1_fu_60_p_v_out [27:0] $end
   $var wire 1 K grp_fxp_sqrt_top_Pipeline_VITIS_LOOP_89_1_fu_60_p_v_out_ap_vld $end
   $var wire 29 M grp_fxp_sqrt_top_Pipeline_VITIS_LOOP_89_1_fu_60_q_1_out [28:0] $end
   $var wire 1 K grp_fxp_sqrt_top_Pipeline_VITIS_LOOP_89_1_fu_60_q_1_out_ap_vld $end
   $var wire 1 + grp_fxp_sqrt_top_Pipeline_VITIS_LOOP_89_1_fu_60_ap_start_reg $end
   $var wire 1 [ ap_block_state1_ignore_call10 $end
   $var wire 1 , ap_CS_fsm_state2 $end
   $var wire 31 S s_4_loc_fu_50 [30:0] $end
   $var wire 28 T p_v_loc_fu_46 [27:0] $end
   $var wire 29 U q_1_loc_fu_42 [28:0] $end
   $var wire 1 $ ap_CS_fsm_state3 $end
   $var wire 29 V add_ln103_fu_92_p2 [28:0] $end
   $var wire 1 W icmp_ln102_fu_86_p2 [0:0] $end
   $var wire 28 X tmp_fu_98_p4 [27:0] $end
   $var wire 3 ^ ap_NS_fsm [2:0] $end
   $var wire 1 [ ap_ST_fsm_state1_blk $end
   $var wire 1 _ ap_ST_fsm_state2_blk $end
   $var wire 1 h ap_ST_fsm_state3_blk $end
   $var wire 1 i ap_ce_reg $end
   $scope module grp_fxp_sqrt_top_Pipeline_VITIS_LOOP_89_1_fu_60 $end
    $var wire 1 j ap_ST_fsm_pp0_stage0 [0:0] $end
    $var wire 1 C ap_clk $end
    $var wire 1 ' ap_rst $end
    $var wire 1 + ap_start $end
    $var wire 1 \ ap_done $end
    $var wire 1 ] ap_idle $end
    $var wire 1 I ap_ready $end
    $var wire 28 R zext_ln82 [27:0] $end
    $var wire 31 J s_4_out [30:0] $end
    $var wire 1 K s_4_out_ap_vld $end
    $var wire 28 L p_v_out [27:0] $end
    $var wire 1 K p_v_out_ap_vld $end
    $var wire 29 M q_1_out [28:0] $end
    $var wire 1 K q_1_out_ap_vld $end
    $var wire 1 - ap_CS_fsm [0:0] $end
    $var wire 1 - ap_CS_fsm_pp0_stage0 $end
    $var wire 1 + ap_enable_reg_pp0_iter0 $end
    $var wire 1 . ap_enable_reg_pp0_iter1 $end
    $var wire 1 ` ap_idle_pp0 $end
    $var wire 1 h ap_block_pp0_stage0_subdone $end
    $var wire 1 / icmp_ln89_fu_252_p2 [0:0] $end
    $var wire 1 I ap_condition_exit_pp0_iter1_stage0 $end
    $var wire 1 I ap_loop_exit_ready $end
    $var wire 1 a ap_ready_int $end
    $var wire 5 0 i1_fu_60 [4:0] $end
    $var wire 5 1 i_fu_246_p2 [4:0] $end
    $var wire 1 h ap_block_pp0_stage0_11001 $end
    $var wire 1 N ap_loop_init $end
    $var wire 1 h ap_block_pp0_stage0 $end
    $var wire 31 2 s_12_fu_64 [30:0] $end
    $var wire 31 J s_fu_203_p3 [30:0] $end
    $var wire 31 Y zext_ln82_cast_fu_103_p1 [30:0] $end
    $var wire 29 3 q_star4_fu_68 [28:0] $end
    $var wire 29 O q_star_fu_229_p3 [28:0] $end
    $var wire 29 4 q6_fu_72 [28:0] $end
    $var wire 29 M q_fu_237_p3 [28:0] $end
    $var wire 1 h ap_block_pp0_stage0_01001 $end
    $var wire 28 L empty_9_fu_220_p3 [27:0] $end
    $var wire 5 5 sub_ln91_fu_153_p2 [4:0] $end
    $var wire 31 6 or_ln_fu_163_p3 [30:0] $end
    $var wire 31 7 zext_ln91_fu_159_p1 [30:0] $end
    $var wire 31 8 shl_ln91_1_fu_147_p2 [30:0] $end
    $var wire 31 9 shl_ln91_fu_171_p2 [30:0] $end
    $var wire 31 : or_ln1_fu_183_p3 [30:0] $end
    $var wire 31 ; shl_ln95_fu_191_p2 [30:0] $end
    $var wire 1 < tmp_fu_139_p3 [0:0] $end
    $var wire 31 = s_2_fu_197_p2 [30:0] $end
    $var wire 31 > s_1_fu_177_p2 [30:0] $end
    $var wire 28 ? empty_fu_212_p1 [27:0] $end
    $var wire 28 @ empty_8_fu_216_p1 [27:0] $end
    $var wire 1 A ap_done_reg $end
    $var wire 1 k ap_continue_int $end
    $var wire 1 P ap_done_int $end
    $var wire 1 B ap_NS_fsm [0:0] $end
    $var wire 1 b ap_enable_pp0 $end
    $var wire 1 + ap_start_int $end
    $var wire 1 I ap_ready_sig $end
    $var wire 1 \ ap_done_sig $end
    $var wire 1 l ap_ce_reg $end
    $scope module flow_control_loop_pipe_sequential_init_U $end
     $var wire 1 C ap_clk $end
     $var wire 1 ' ap_rst $end
     $var wire 1 + ap_start $end
     $var wire 1 I ap_ready $end
     $var wire 1 \ ap_done $end
     $var wire 1 + ap_start_int $end
     $var wire 1 a ap_ready_int $end
     $var wire 1 P ap_done_int $end
     $var wire 1 k ap_continue_int $end
     $var wire 1 N ap_loop_init $end
     $var wire 1 c ap_loop_init_int $end
     $var wire 1 d ap_done_cache $end
     $var wire 1 I ap_loop_exit_ready $end
     $var wire 1 P ap_loop_exit_done $end
    $upscope $end
   $upscope $end
  $upscope $end
 $upscope $end
$enddefinitions $end


#0
0#
0$
0%
1&
1'
0(
b001 )
1*
0+
0,
1-
0.
0/
b00000 0
b00001 1
b0000000000000000000000000000000 2
b00000000000000000000000000000 3
b00000000000000000000000000000 4
b11101 5
b0000000000000000000000000000001 6
b0000000000000000000000000011101 7
b0000000000000000000000000000000 8
b0100000000000000000000000000000 9
b0000000000000000000000000000011 :
b1100000000000000000000000000000 ;
0<
b1100000000000000000000000000000 =
b1100000000000000000000000000000 >
b0000000000000000000000000000 ?
b0000000000000000000000000000 @
0A
1B
0C
1D
0E
1F
b000000000000000000000000 G
b0000000000000000000000000000 H
0I
b1100000000000000000000000000000 J
0K
b0000000000000000000000000000 L
b00000000000000000000000000001 M
0N
b00000000000000000000000000000 O
0P
b0000000000000000000000000000 Q
b0000000000000000000000000000 R
b0000000000000000000000000000000 S
b0000000000000000000000000000 T
b00000000000000000000000000000 U
b00000000000000000000000000001 V
0W
b0000000000000000000000000000 X
b0000000000000000000000000000000 Y
1Z
1[
0\
1]
b001 ^
1_
1`
0a
0b
1c
0d
b001 e
b010 f
b100 g
0h
0i
1j
1k
0l
#50000
1%
0&
1C
#100000
0C
#150000
1&
0'
1C
#200000
0C
#250000
1'
1C
#300000
0C
#350000
1C
0D
#400000
0C
#450000
0%
1C
1E
b000000000000000011000011 G
b0000000000000000110000110000 H
0Z
0[
b010 ^
#500000
0C
#550000
0&
1C
b0000000000000000110000110000 R
b0000000000000000000110000110000 Y
#600000
0C
#650000
0'
1C
#700000
0C
#750000
b010 )
0*
1+
1,
1C
1N
0]
0`
1a
1b
#800000
0C
#850000
1.
b0000000000000000000110000110000 2
b0000000000000000001100001100000 8
b1100000000000000001100001100000 =
b1100000000000000001100001100000 >
1C
b1100000000000000001100001100000 J
0N
0c
#900000
0C
#950000
b00001 0
b00010 1
b1100000000000000001100001100000 2
b00000000000000000000000000001 4
b11100 5
b0000000000000000000000000000101 6
b0000000000000000000000000011100 7
b1000000000000000011000011000000 8
b1010000000000000000000000000000 9
b0110000000000000000000000000000 ;
1<
b1110000000000000011000011000000 =
b1110000000000000011000011000000 >
b0000000000000000000000000001 @
1C
b1110000000000000011000011000000 J
#1000000
0C
#1050000
b00010 0
b00011 1
b1110000000000000011000011000000 2
b11011 5
b0000000000000000000000000011011 7
b1100000000000000110000110000000 8
b0101000000000000000000000000000 9
b0011000000000000000000000000000 ;
b1111000000000000110000110000000 =
b0111000000000000110000110000000 >
1C
b1111000000000000110000110000000 J
#1100000
0C
#1150000
b00011 0
b00100 1
b1111000000000000110000110000000 2
b11010 5
b0000000000000000000000000011010 7
b1110000000000001100001100000000 8
b0010100000000000000000000000000 9
b0001100000000000000000000000000 ;
b1111100000000001100001100000000 =
b1011100000000001100001100000000 >
1C
b1111100000000001100001100000000 J
#1200000
0C
#1250000
b00100 0
b00101 1
b1111100000000001100001100000000 2
b11001 5
b0000000000000000000000000011001 7
b1111000000000011000011000000000 8
b0001010000000000000000000000000 9
b0000110000000000000000000000000 ;
b1111110000000011000011000000000 =
b1101110000000011000011000000000 >
1C
b1111110000000011000011000000000 J
#1300000
0C
#1350000
b00101 0
b00110 1
b1111110000000011000011000000000 2
b11000 5
b0000000000000000000000000011000 7
b1111100000000110000110000000000 8
b0000101000000000000000000000000 9
b0000011000000000000000000000000 ;
b1111111000000110000110000000000 =
b1110111000000110000110000000000 >
1C
b1111111000000110000110000000000 J
#1400000
0C
#1450000
b00110 0
b00111 1
b1111111000000110000110000000000 2
b10111 5
b0000000000000000000000000010111 7
b1111110000001100001100000000000 8
b0000010100000000000000000000000 9
b0000001100000000000000000000000 ;
b1111111100001100001100000000000 =
b1111011100001100001100000000000 >
1C
b1111111100001100001100000000000 J
#1500000
0C
#1550000
b00111 0
b01000 1
b1111111100001100001100000000000 2
b10110 5
b0000000000000000000000000010110 7
b1111111000011000011000000000000 8
b0000001010000000000000000000000 9
b0000000110000000000000000000000 ;
b1111111110011000011000000000000 =
b1111101110011000011000000000000 >
1C
b1111111110011000011000000000000 J
#1600000
0C
#1650000
b01000 0
b01001 1
b1111111110011000011000000000000 2
b10101 5
b0000000000000000000000000010101 7
b1111111100110000110000000000000 8
b0000000101000000000000000000000 9
b0000000011000000000000000000000 ;
b1111111111110000110000000000000 =
b1111110111110000110000000000000 >
1C
b1111111111110000110000000000000 J
#1700000
0C
#1750000
b01001 0
b01010 1
b1111111111110000110000000000000 2
b10100 5
b0000000000000000000000000010100 7
b1111111111100001100000000000000 8
b0000000010100000000000000000000 9
b0000000001100000000000000000000 ;
b0000000001000001100000000000000 =
b1111111101000001100000000000000 >
1C
b0000000001000001100000000000000 J
#1800000
0C
#1850000
b01010 0
b01011 1
b0000000001000001100000000000000 2
b10011 5
b0000000000000000000000000010011 7
b0000000010000011000000000000000 8
b0000000001010000000000000000000 9
b0000000000110000000000000000000 ;
0<
b0000000010110011000000000000000 =
b0000000000110011000000000000000 >
1C
b0000000000110011000000000000000 J
b0000000000000000000000000001 L
b00000000000000000000000000011 M
b00000000000000000000000000010 O
#1900000
0C
#1950000
b01011 0
b01100 1
b0000000000110011000000000000000 2
b00000000000000000000000000010 3
b00000000000000000000000000011 4
b10010 5
b0000000000000000000000000001101 6
b0000000000000000000000000010010 7
b0000000001100110000000000000000 8
b0000000001101000000000000000000 9
b0000000000000000000000000001011 :
b0000000001011000000000000000000 ;
b0000000010111110000000000000000 =
b1111111111111110000000000000000 >
b0000000000000000000000000010 ?
b0000000000000000000000000011 @
1C
b1111111111111110000000000000000 J
b0000000000000000000000000011 L
b00000000000000000000000000111 M
b00000000000000000000000000110 O
#2000000
0C
#2050000
b01100 0
b01101 1
b1111111111111110000000000000000 2
b00000000000000000000000000110 3
b00000000000000000000000000111 4
b10001 5
b0000000000000000000000000011101 6
b0000000000000000000000000010001 7
b1111111111111100000000000000000 8
b0000000001110100000000000000000 9
b0000000000000000000000000011011 :
b0000000001101100000000000000000 ;
1<
b0000000001101000000000000000000 =
b1111111110001000000000000000000 >
b0000000000000000000000000110 ?
b0000000000000000000000000111 @
1C
b0000000001101000000000000000000 J
b0000000000000000000000000110 L
b00000000000000000000000001101 M
b00000000000000000000000001100 O
#2100000
0C
#2150000
b01101 0
b01110 1
b0000000001101000000000000000000 2
b00000000000000000000000001100 3
b00000000000000000000000001101 4
b10000 5
b0000000000000000000000000110101 6
b0000000000000000000000000010000 7
b0000000011010000000000000000000 8
b0000000001101010000000000000000 9
b0000000000000000000000000110011 :
b0000000001100110000000000000000 ;
0<
b0000000100110110000000000000000 =
b0000000001100110000000000000000 >
b0000000000000000000000001100 ?
b0000000000000000000000001101 @
1C
b0000000001100110000000000000000 J
b0000000000000000000000001101 L
b00000000000000000000000011011 M
b00000000000000000000000011010 O
#2200000
0C
#2250000
b01110 0
b01111 1
b0000000001100110000000000000000 2
b00000000000000000000000011010 3
b00000000000000000000000011011 4
b01111 5
b0000000000000000000000001101101 6
b0000000000000000000000000001111 7
b0000000011001100000000000000000 8
b0000000001101101000000000000000 9
b0000000000000000000000001101011 :
b0000000001101011000000000000000 ;
b0000000100110111000000000000000 =
b0000000001011111000000000000000 >
b0000000000000000000000011010 ?
b0000000000000000000000011011 @
1C
b0000000001011111000000000000000 J
b0000000000000000000000011011 L
b00000000000000000000000110111 M
b00000000000000000000000110110 O
#2300000
0C
#2350000
b01111 0
b10000 1
b0000000001011111000000000000000 2
b00000000000000000000000110110 3
b00000000000000000000000110111 4
b01110 5
b0000000000000000000000011011101 6
b0000000000000000000000000001110 7
b0000000010111110000000000000000 8
b0000000001101110100000000000000 9
b0000000000000000000000011011011 :
b0000000001101101100000000000000 ;
b0000000100101011100000000000000 =
b0000000001001111100000000000000 >
b0000000000000000000000110110 ?
b0000000000000000000000110111 @
1C
b0000000001001111100000000000000 J
b0000000000000000000000110111 L
b00000000000000000000001101111 M
b00000000000000000000001101110 O
#2400000
0C
#2450000
b10000 0
b10001 1
b0000000001001111100000000000000 2
b00000000000000000000001101110 3
b00000000000000000000001101111 4
b01101 5
b0000000000000000000000110111101 6
b0000000000000000000000000001101 7
b0000000010011111000000000000000 8
b0000000001101111010000000000000 9
b0000000000000000000000110111011 :
b0000000001101110110000000000000 ;
b0000000100001101110000000000000 =
b0000000000101111110000000000000 >
b0000000000000000000001101110 ?
b0000000000000000000001101111 @
1C
b0000000000101111110000000000000 J
b0000000000000000000001101111 L
b00000000000000000000011011111 M
b00000000000000000000011011110 O
#2500000
0C
#2550000
b10001 0
b10010 1
b0000000000101111110000000000000 2
b00000000000000000000011011110 3
b00000000000000000000011011111 4
b01100 5
b0000000000000000000001101111101 6
b0000000000000000000000000001100 7
b0000000001011111100000000000000 8
b0000000001101111101000000000000 9
b0000000000000000000001101111011 :
b0000000001101111011000000000000 ;
b0000000011001110111000000000000 =
b1111111111101111111000000000000 >
b0000000000000000000011011110 ?
b0000000000000000000011011111 @
1C
b1111111111101111111000000000000 J
b0000000000000000000011011111 L
b00000000000000000000110111111 M
b00000000000000000000110111110 O
#2600000
0C
#2650000
b10010 0
b10011 1
b1111111111101111111000000000000 2
b00000000000000000000110111110 3
b00000000000000000000110111111 4
b01011 5
b0000000000000000000011011111101 6
b0000000000000000000000000001011 7
b1111111111011111110000000000000 8
b0000000001101111110100000000000 9
b0000000000000000000011011111011 :
b0000000001101111101100000000000 ;
1<
b0000000001001111011100000000000 =
b1111111101101111111100000000000 >
b0000000000000000000110111110 ?
b0000000000000000000110111111 @
1C
b0000000001001111011100000000000 J
b0000000000000000000110111110 L
b00000000000000000001101111101 M
b00000000000000000001101111100 O
#2700000
0C
#2750000
b10011 0
b10100 1
b0000000001001111011100000000000 2
b00000000000000000001101111100 3
b00000000000000000001101111101 4
b01010 5
b0000000000000000000110111110101 6
b0000000000000000000000000001010 7
b0000000010011110111000000000000 8
b0000000001101111101010000000000 9
b0000000000000000000110111110011 :
b0000000001101111100110000000000 ;
0<
b0000000100001110011110000000000 =
b0000000000101111001110000000000 >
b0000000000000000001101111100 ?
b0000000000000000001101111101 @
1C
b0000000000101111001110000000000 J
b0000000000000000001101111101 L
b00000000000000000011011111011 M
b00000000000000000011011111010 O
#2800000
0C
#2850000
b10100 0
b10101 1
b0000000000101111001110000000000 2
b00000000000000000011011111010 3
b00000000000000000011011111011 4
b01001 5
b0000000000000000001101111101101 6
b0000000000000000000000000001001 7
b0000000001011110011100000000000 8
b0000000001101111101101000000000 9
b0000000000000000001101111101011 :
b0000000001101111101011000000000 ;
b0000000011001110000111000000000 =
b1111111111101110101111000000000 >
b0000000000000000011011111010 ?
b0000000000000000011011111011 @
1C
b1111111111101110101111000000000 J
b0000000000000000011011111011 L
b00000000000000000110111110111 M
b00000000000000000110111110110 O
#2900000
0C
#2950000
b10101 0
b10110 1
b1111111111101110101111000000000 2
b00000000000000000110111110110 3
b00000000000000000110111110111 4
b01000 5
b0000000000000000011011111011101 6
b0000000000000000000000000001000 7
b1111111111011101011110000000000 8
b0000000001101111101110100000000 9
b0000000000000000011011111011011 :
b0000000001101111101101100000000 ;
1<
b0000000001001101001011100000000 =
b1111111101101101101111100000000 >
b0000000000000000110111110110 ?
b0000000000000000110111110111 @
1C
b0000000001001101001011100000000 J
b0000000000000000110111110110 L
b00000000000000001101111101101 M
b00000000000000001101111101100 O
#3000000
0C
#3050000
b10110 0
b10111 1
b0000000001001101001011100000000 2
b00000000000000001101111101100 3
b00000000000000001101111101101 4
b00111 5
b0000000000000000110111110110101 6
b0000000000000000000000000000111 7
b0000000010011010010111000000000 8
b0000000001101111101101010000000 9
b0000000000000000110111110110011 :
b0000000001101111101100110000000 ;
0<
b0000000100001010000011110000000 =
b0000000000101010101001110000000 >
b0000000000000001101111101100 ?
b0000000000000001101111101101 @
1C
b0000000000101010101001110000000 J
b0000000000000001101111101101 L
b00000000000000011011111011011 M
b00000000000000011011111011010 O
#3100000
0C
#3150000
b10111 0
b11000 1
b0000000000101010101001110000000 2
b00000000000000011011111011010 3
b00000000000000011011111011011 4
b00110 5
b0000000000000001101111101101101 6
b0000000000000000000000000000110 7
b0000000001010101010011100000000 8
b0000000001101111101101101000000 9
b0000000000000001101111101101011 :
b0000000001101111101101011000000 ;
b0000000011000101000000111000000 =
b1111111111100101100101111000000 >
b0000000000000011011111011010 ?
b0000000000000011011111011011 @
1C
b1111111111100101100101111000000 J
b0000000000000011011111011011 L
b00000000000000110111110110111 M
b00000000000000110111110110110 O
#3200000
0C
#3250000
b11000 0
b11001 1
b1111111111100101100101111000000 2
b00000000000000110111110110110 3
b00000000000000110111110110111 4
b00101 5
b0000000000000011011111011011101 6
b0000000000000000000000000000101 7
b1111111111001011001011110000000 8
b0000000001101111101101110100000 9
b0000000000000011011111011011011 :
b0000000001101111101101101100000 ;
1<
b0000000000111010111001011100000 =
b1111111101011011011101111100000 >
b0000000000000110111110110110 ?
b0000000000000110111110110111 @
1C
b0000000000111010111001011100000 J
b0000000000000110111110110110 L
b00000000000001101111101101101 M
b00000000000001101111101101100 O
#3300000
0C
#3350000
b11001 0
b11010 1
b0000000000111010111001011100000 2
b00000000000001101111101101100 3
b00000000000001101111101101101 4
b00100 5
b0000000000000110111110110110101 6
b0000000000000000000000000000100 7
b0000000001110101110010111000000 8
b0000000001101111101101101010000 9
b0000000000000110111110110110011 :
b0000000001101111101101100110000 ;
0<
b0000000011100101100000011110000 =
b0000000000000110000101001110000 >
b0000000000001101111101101100 ?
b0000000000001101111101101101 @
1C
b0000000000000110000101001110000 J
b0000000000001101111101101101 L
b00000000000011011111011011011 M
b00000000000011011111011011010 O
#3400000
0C
#3450000
b11010 0
b11011 1
b0000000000000110000101001110000 2
b00000000000011011111011011010 3
b00000000000011011111011011011 4
b00011 5
b0000000000001101111101101101101 6
b0000000000000000000000000000011 7
b0000000000001100001010011100000 8
b0000000001101111101101101101000 9
b0000000000001101111101101101011 :
b0000000001101111101101101011000 ;
b0000000001111011111000000111000 =
b1111111110011100011100101111000 >
b0000000000011011111011011010 ?
b0000000000011011111011011011 @
1C
b1111111110011100011100101111000 J
b0000000000011011111011011011 L
b00000000000110111110110110111 M
b00000000000110111110110110110 O
#3500000
0C
#3550000
b11011 0
b11100 1
b1111111110011100011100101111000 2
b00000000000110111110110110110 3
b00000000000110111110110110111 4
b00010 5
b0000000000011011111011011011101 6
b0000000000000000000000000000010 7
b1111111100111000111001011110000 8
b0000000001101111101101101110100 9
b0000000000011011111011011011011 :
b0000000001101111101101101101100 ;
1<
b1111111110101000100111001011100 =
b1111111011001001001011101111100 >
b0000000000110111110110110110 ?
b0000000000110111110110110111 @
1C
b1111111110101000100111001011100 J
b0000000000110111110110110110 L
b00000000001101111101101101101 M
b00000000001101111101101101100 O
#3600000
0C
#3650000
b11100 0
b11101 1
b1111111110101000100111001011100 2
b00000000001101111101101101100 3
b00000000001101111101101101101 4
b00001 5
b0000000000110111110110110110101 6
b0000000000000000000000000000001 7
b1111111101010001001110010111000 8
b0000000001101111101101101101010 9
b0000000000110111110110110110011 :
b0000000001101111101101101100110 ;
b1111111111000000111100000011110 =
b1111111011100001100000101001110 >
b0000000001101111101101101100 ?
b0000000001101111101101101101 @
1C
b1111111111000000111100000011110 J
b0000000001101111101101101100 L
b00000000011011111011011011001 M
b00000000011011111011011011000 O
#3700000
0C
#3750000
1/
b11101 0
b11110 1
b1111111111000000111100000011110 2
b00000000011011111011011011000 3
b00000000011011111011011011001 4
b00000 5
b0000000001101111101101101100101 6
b0000000000000000000000000000000 7
b1111111110000001111000000111100 8
b0000000001101111101101101100101 9
b0000000001101111101101101100011 :
b0000000001101111101101101100011 ;
b1111111111110001100101110011111 =
b1111111100010010001010011010111 >
b0000000011011111011011011000 ?
b0000000011011111011011011001 @
1C
1I
b1111111111110001100101110011111 J
1K
b0000000011011111011011011000 L
b00000000110111110110110110001 M
b00000000110111110110110110000 O
1P
1\
b100 ^
0_
#3800000
0C
#3850000
1#
1$
b100 )
0+
0,
0.
0/
b11110 0
b11111 1
b1111111111110001100101110011111 2
b00000000110111110110110110000 3
b00000000110111110110110110001 4
b11111 5
b0000000011011111011011011000101 6
b0000000000000000000000000011111 7
b1111111111100011001011100111110 8
b0000000000000000000000000000000 9
b0000000011011111011011011000011 :
b0000000000000000000000000000000 ;
b1111111111100011001011100111110 =
b1111111111100011001011100111110 >
b0000000110111110110110110000 ?
b0000000110111110110110110001 @
1C
0I
b1111111111100011001011100111110 J
0K
b0000000110111110110110110000 L
b00000001101111101101101100001 M
b00000001101111101101101100000 O
0P
b0000000011011111011011011000 Q
b1111111111110001100101110011111 S
b0000000011011111011011011000 T
b00000000110111110110110110001 U
b00000000110111110110110110010 V
b0000000011011111011011011001 X
1]
b001 ^
1`
0a
0b
1c
1d
#3900000
0C
#3950000
0#
0$
b001 )
1*
1C
0E
1Z
1[
#4000000
0C
#4050000
1C
1E
b000000000000000011110111 G
b0000000000000000111101110000 H
0Z
0[
b010 ^
#4100000
0C
#4150000
b010 )
0*
1+
1,
1C
1N
b0000000000000000111101110000 R
b0000000000000000000111101110000 Y
0\
0]
1_
0`
1a
1b
#4200000
0C
#4250000
1.
b00000 0
b00001 1
b0000000000000000000111101110000 2
b00000000000000000000000000000 3
b00000000000000000000000000000 4
b11101 5
b0000000000000000000000000000001 6
b0000000000000000000000000011101 7
b0000000000000000001111011100000 8
b0100000000000000000000000000000 9
b0000000000000000000000000000011 :
b1100000000000000000000000000000 ;
0<
b1100000000000000001111011100000 =
b1100000000000000001111011100000 >
b0000000000000000000000000000 ?
b0000000000000000000000000000 @
1C
b1100000000000000001111011100000 J
b0000000000000000000000000000 L
b00000000000000000000000000001 M
0N
b00000000000000000000000000000 O
0c
0d
#4300000
0C
#4350000
b00001 0
b00010 1
b1100000000000000001111011100000 2
b00000000000000000000000000001 4
b11100 5
b0000000000000000000000000000101 6
b0000000000000000000000000011100 7
b1000000000000000011110111000000 8
b1010000000000000000000000000000 9
b0110000000000000000000000000000 ;
1<
b1110000000000000011110111000000 =
b1110000000000000011110111000000 >
b0000000000000000000000000001 @
1C
b1110000000000000011110111000000 J
#4400000
0C
#4450000
b00010 0
b00011 1
b1110000000000000011110111000000 2
b11011 5
b0000000000000000000000000011011 7
b1100000000000000111101110000000 8
b0101000000000000000000000000000 9
b0011000000000000000000000000000 ;
b1111000000000000111101110000000 =
b0111000000000000111101110000000 >
1C
b1111000000000000111101110000000 J
#4500000
0C
#4550000
b00011 0
b00100 1
b1111000000000000111101110000000 2
b11010 5
b0000000000000000000000000011010 7
b1110000000000001111011100000000 8
b0010100000000000000000000000000 9
b0001100000000000000000000000000 ;
b1111100000000001111011100000000 =
b1011100000000001111011100000000 >
1C
b1111100000000001111011100000000 J
#4600000
0C
#4650000
b00100 0
b00101 1
b1111100000000001111011100000000 2
b11001 5
b0000000000000000000000000011001 7
b1111000000000011110111000000000 8
b0001010000000000000000000000000 9
b0000110000000000000000000000000 ;
b1111110000000011110111000000000 =
b1101110000000011110111000000000 >
1C
b1111110000000011110111000000000 J
#4700000
0C
#4750000
b00101 0
b00110 1
b1111110000000011110111000000000 2
b11000 5
b0000000000000000000000000011000 7
b1111100000000111101110000000000 8
b0000101000000000000000000000000 9
b0000011000000000000000000000000 ;
b1111111000000111101110000000000 =
b1110111000000111101110000000000 >
1C
b1111111000000111101110000000000 J
#4800000
0C
#4850000
b00110 0
b00111 1
b1111111000000111101110000000000 2
b10111 5
b0000000000000000000000000010111 7
b1111110000001111011100000000000 8
b0000010100000000000000000000000 9
b0000001100000000000000000000000 ;
b1111111100001111011100000000000 =
b1111011100001111011100000000000 >
1C
b1111111100001111011100000000000 J
#4900000
0C
#4950000
b00111 0
b01000 1
b1111111100001111011100000000000 2
b10110 5
b0000000000000000000000000010110 7
b1111111000011110111000000000000 8
b0000001010000000000000000000000 9
b0000000110000000000000000000000 ;
b1111111110011110111000000000000 =
b1111101110011110111000000000000 >
1C
b1111111110011110111000000000000 J
#5000000
0C
#5050000
b01000 0
b01001 1
b1111111110011110111000000000000 2
b10101 5
b0000000000000000000000000010101 7
b1111111100111101110000000000000 8
b0000000101000000000000000000000 9
b0000000011000000000000000000000 ;
b1111111111111101110000000000000 =
b1111110111111101110000000000000 >
1C
b1111111111111101110000000000000 J
#5100000
0C
#5150000
b01001 0
b01010 1
b1111111111111101110000000000000 2
b10100 5
b0000000000000000000000000010100 7
b1111111111111011100000000000000 8
b0000000010100000000000000000000 9
b0000000001100000000000000000000 ;
b0000000001011011100000000000000 =
b1111111101011011100000000000000 >
1C
b0000000001011011100000000000000 J
#5200000
0C
#5250000
b01010 0
b01011 1
b0000000001011011100000000000000 2
b10011 5
b0000000000000000000000000010011 7
b0000000010110111000000000000000 8
b0000000001010000000000000000000 9
b0000000000110000000000000000000 ;
0<
b0000000011100111000000000000000 =
b0000000001100111000000000000000 >
1C
b0000000001100111000000000000000 J
b0000000000000000000000000001 L
b00000000000000000000000000011 M
b00000000000000000000000000010 O
#5300000
0C
#5350000
b01011 0
b01100 1
b0000000001100111000000000000000 2
b00000000000000000000000000010 3
b00000000000000000000000000011 4
b10010 5
b0000000000000000000000000001101 6
b0000000000000000000000000010010 7
b0000000011001110000000000000000 8
b0000000001101000000000000000000 9
b0000000000000000000000000001011 :
b0000000001011000000000000000000 ;
b0000000100100110000000000000000 =
b0000000001100110000000000000000 >
b0000000000000000000000000010 ?
b0000000000000000000000000011 @
1C
b0000000001100110000000000000000 J
b0000000000000000000000000011 L
b00000000000000000000000000111 M
b00000000000000000000000000110 O
#5400000
0C
#5450000
b01100 0
b01101 1
b0000000001100110000000000000000 2
b00000000000000000000000000110 3
b00000000000000000000000000111 4
b10001 5
b0000000000000000000000000011101 6
b0000000000000000000000000010001 7
b0000000011001100000000000000000 8
b0000000001110100000000000000000 9
b0000000000000000000000000011011 :
b0000000001101100000000000000000 ;
b0000000100111000000000000000000 =
b0000000001011000000000000000000 >
b0000000000000000000000000110 ?
b0000000000000000000000000111 @
1C
b0000000001011000000000000000000 J
b0000000000000000000000000111 L
b00000000000000000000000001111 M
b00000000000000000000000001110 O
#5500000
0C
#5550000
b01101 0
b01110 1
b0000000001011000000000000000000 2
b00000000000000000000000001110 3
b00000000000000000000000001111 4
b10000 5
b0000000000000000000000000111101 6
b0000000000000000000000000010000 7
b0000000010110000000000000000000 8
b0000000001111010000000000000000 9
b0000000000000000000000000111011 :
b0000000001110110000000000000000 ;
b0000000100100110000000000000000 =
b0000000000110110000000000000000 >
b0000000000000000000000001110 ?
b0000000000000000000000001111 @
1C
b0000000000110110000000000000000 J
b0000000000000000000000001111 L
b00000000000000000000000011111 M
b00000000000000000000000011110 O
#5600000
0C
