Tutorials_New/4-3_FIR_PE_MPW240925002/FIR_PE_Rev_E_20240924_MPW240925002_Chip_Test/chip_test/E_fir_pe.vcd
$date
     Sep 14, 2025       11:53:02
$end

$version
 SystemC 3.0.2-Accellera --- Jun 13 2025 17:49:45
$end

$timescale
     100 ps
$end

$scope module SystemC $end
$var wire    4  aaaaa  Yout [3:0]  $end
$var wire    4  aaaab  Yin [3:0]  $end
$var wire    4  aaaac  Xout [3:0]  $end
$var wire    4  aaaad  Xin [3:0]  $end
$var wire    7  aaaae  Cin [6:0]  $end
$var wire    1  aaaaf  Vld       $end
$var wire    1  aaaag  Rdy       $end
$var wire    1  aaaah  clk       $end
$upscope $end
$enddefinitions  $end

$comment
All initial values are dumped below at time 0 sec = 0 timescale units.
$end

$dumpvars
b1 aaaaa
b0 aaaab
b0 aaaac
b0 aaaad
b0 aaaae
0aaaaf
1aaaag
0aaaah
$end

#500
b11 aaaaa
b11 aaaac
1aaaaf
0aaaag
1aaaah

#1000
0aaaah

#1500
1aaaah

#2000
b1100 aaaaa
b0 aaaac
0aaaaf
0aaaah

#2500
1aaaah

#3000
b100 aaaaa
0aaaah

#3500
1aaaah

#4000
b101 aaaaa
0aaaah

#4500
1aaaaf
1aaaag
1aaaah

#5000
0aaaah

#5500
b110 aaaaa
0aaaaf
0aaaag
1aaaah

#6000
0aaaah

#6500
1aaaah

#7000
b0 aaaaa
0aaaah

#7500
1aaaah

#8000
0aaaah

#8500
1aaaah

#9000
0aaaah

#9500
1aaaaf
1aaaag
1aaaah

#10000
0aaaah

#10500
0aaaaf
0aaaag
1aaaah

#11000
0aaaah

#11500
1aaaah

#12000
0aaaah

#12500
1aaaah

#13000
0aaaah

#13500
1aaaah

#14000
0aaaah

#14500
1aaaaf
1aaaag
1aaaah

#15000
0aaaah

#15500
0aaaaf
0aaaag
1aaaah

#16000
0aaaah

#16500
1aaaah

#17000
0aaaah

#17500
1aaaah

#18000
0aaaah

#18500
1aaaah

#19000
0aaaah

#19500
1aaaaf
1aaaag
1aaaah

#20000
0aaaah

#20500
0aaaaf
0aaaag
1aaaah

#21000
0aaaah

#21500
1aaaah

#22000
0aaaah

#22500
1aaaah

#23000
0aaaah

#23500
1aaaah

#24000
0aaaah

#24500
1aaaaf
1aaaag
1aaaah

#25000
0aaaah

#25500
0aaaaf
0aaaag
1aaaah

#26000
0aaaah

#26500
1aaaah

#27000
0aaaah

#27500
1aaaah

#28000
0aaaah

#28500
1aaaah

#29000
0aaaah

#29500
1aaaaf
1aaaag
1aaaah

#30000
0aaaah

#30500
0aaaaf
0aaaag
1aaaah

#31000
0aaaah

#31500
1aaaah

#32000
0aaaah

#32500
1aaaah

#33000
0aaaah

#33500
1aaaah

#34000
0aaaah

#34500
1aaaaf
1aaaag
1aaaah

#35000
0aaaah

#35500
0aaaaf
0aaaag
1aaaah

#36000
0aaaah

#36500
1aaaah

#37000
0aaaah

#37500
1aaaah

#38000
0aaaah

#38500
1aaaah

#39000
0aaaah

#39500
1aaaaf
1aaaag
1aaaah

#40000
0aaaah

#40500
0aaaaf
0aaaag
1aaaah

#41000
0aaaah

#41500
1aaaah

#42000
0aaaah

#42500
1aaaah

#43000
0aaaah

#43500
1aaaah

#44000
0aaaah

#44500
1aaaaf
1aaaag
1aaaah

#45000
0aaaah

#45500
0aaaaf
0aaaag
1aaaah

#46000
0aaaah

#46500
1aaaah

#47000
0aaaah

#47500
1aaaah

#48000
0aaaah

#48500
1aaaah

#49000
0aaaah

#49500
1aaaaf
1aaaag
1aaaah

#50000
0aaaah

#50500
0aaaaf
0aaaag
1aaaah

#51000
0aaaah

#51500
1aaaah

#52000
0aaaah

#52500
1aaaah

#53000
0aaaah

#53500
1aaaah

#54000
0aaaah

#54500
1aaaaf
1aaaag
1aaaah

#55000
0aaaah

#55500
0aaaaf
0aaaag
1aaaah

#56000
0aaaah

#56500
1aaaah

#57000
0aaaah

#57500
1aaaah

#58000
0aaaah

#58500
1aaaah

#59000
0aaaah

#59500
1aaaaf
1aaaag
1aaaah

#60000
0aaaah

#60500
0aaaaf
0aaaag
1aaaah

#61000
0aaaah

#61500
1aaaah

#62000
0aaaah

#62500
1aaaah

#63000
0aaaah

#63500
1aaaah

#64000
0aaaah

#64500
1aaaaf
1aaaag
1aaaah

#65000
0aaaah

#65500
0aaaaf
0aaaag
1aaaah

#66000
0aaaah

#66500
1aaaah

#67000
0aaaah

#67500
1aaaah

#68000
0aaaah

#68500
1aaaah

#69000
0aaaah

#69500
1aaaaf
1aaaag
1aaaah

#70000
0aaaah

#70500
0aaaaf
0aaaag
1aaaah

#71000
0aaaah

#71500
1aaaah

#72000
0aaaah

#72500
1aaaah

#73000
0aaaah

#73500
1aaaah

#74000
0aaaah

#74500
1aaaaf
1aaaag
1aaaah

#75000
0aaaah

#75500
0aaaaf
0aaaag
1aaaah

#76000
0aaaah

#76500
1aaaah

#77000
0aaaah

#77500
1aaaah

#78000
0aaaah

#78500
1aaaah

#79000
0aaaah

#79500
1aaaaf
1aaaag
1aaaah

#80000
0aaaah

#80500
0aaaaf
0aaaag
1aaaah

#81000
0aaaah

#81500
1aaaah

#82000
0aaaah

#82500
1aaaah

#83000
0aaaah

#83500
1aaaah

#84000
0aaaah

#84500
1aaaaf
1aaaag
1aaaah

#85000
0aaaah

#85500
0aaaaf
0aaaag
1aaaah

#86000
0aaaah

#86500
1aaaah

#87000
0aaaah

#87500
1aaaah

#88000
0aaaah

#88500
1aaaah

#89000
0aaaah

#89500
1aaaaf
1aaaag
1aaaah

#90000
0aaaah

#90500
0aaaaf
0aaaag
1aaaah

#91000
0aaaah

#91500
1aaaah

#92000
0aaaah

#92500
1aaaah

#93000
0aaaah

#93500
1aaaah

#94000
0aaaah

#94500
1aaaaf
1aaaag
1aaaah

#95000
0aaaah

#95500
0aaaaf
0aaaag
1aaaah

#96000
0aaaah

#96500
1aaaah

#97000
0aaaah

#97500
1aaaah

#98000
0aaaah

#98500
1aaaah

#99000
0aaaah

#99500
1aaaaf
1aaaag
1aaaah

#100000
0aaaah

#100500
0aaaaf
0aaaag
1aaaah

#101000
0aaaah

#101500
1aaaah

#102000
0aaaah

#102500
1aaaah

#103000
0aaaah

#103500
1aaaah

#104000
0aaaah

#104500
1aaaaf
1aaaag
1aaaah

#105000
0aaaah

#105500
0aaaaf
0aaaag
1aaaah

#106000
0aaaah

#106500
1aaaah

#107000
0aaaah

#107500
1aaaah

#108000
0aaaah

#108500
1aaaah

#109000
0aaaah

#109500
1aaaaf
1aaaag
1aaaah

#110000
0aaaah

#110500
0aaaaf
0aaaag
1aaaah

#111000
0aaaah

#111500
1aaaah

#112000
0aaaah

#112500
1aaaah

#113000
0aaaah

#113500
1aaaah

#114000
0aaaah

#114500
1aaaaf
1aaaag
1aaaah

#115000
0aaaah

#115500
0aaaaf
0aaaag
1aaaah

#116000
0aaaah

#116500
1aaaah

#117000
0aaaah

#117500
1aaaah

#118000
0aaaah

#118500
1aaaah

#119000
0aaaah

#119500
1aaaaf
1aaaag
1aaaah

#120000
0aaaah

#120500
0aaaaf
0aaaag
1aaaah

#121000
0aaaah

#121500
1aaaah

#122000
0aaaah

#122500
1aaaah

#123000
0aaaah

#123500
1aaaah

#124000
0aaaah

#124500
1aaaaf
1aaaag
1aaaah

#125000
0aaaah

#125500
0aaaaf
0aaaag
1aaaah

#126000
0aaaah

#126500
1aaaah

#127000
0aaaah

#127500
1aaaah

#128000
0aaaah

#128500
1aaaah

#129000
0aaaah

#129500
1aaaaf
1aaaag
1aaaah

#130000
0aaaah

#130500
0aaaaf
0aaaag
1aaaah

#131000
0aaaah

#131500
1aaaah

#132000
0aaaah

#132500
1aaaah

#133000
0aaaah

#133500
1aaaah

#134000
0aaaah

#134500
1aaaaf
1aaaag
1aaaah

#135000
0aaaah

#135500
0aaaaf
0aaaag
1aaaah

#136000
0aaaah

#136500
1aaaah

#137000
0aaaah

#137500
1aaaah

#138000
0aaaah

#138500
1aaaah

#139000
0aaaah

#139500
1aaaaf
1aaaag
1aaaah

#140000
0aaaah

#140500
0aaaaf
0aaaag
1aaaah

#141000
0aaaah

#141500
1aaaah

#142000
0aaaah

#142500
1aaaah

#143000
0aaaah

#143500
1aaaah

#144000
0aaaah

#144500
1aaaaf
1aaaag
1aaaah

#145000
0aaaah

#145500
0aaaaf
0aaaag
1aaaah

#146000
0aaaah

#146500
1aaaah

#147000
0aaaah

#147500
1aaaah

#148000
0aaaah

#148500
1aaaah

#149000
0aaaah

#149500
1aaaaf
1aaaag
1aaaah

#150000
0aaaah

#150500
0aaaaf
0aaaag
1aaaah

#151000
0aaaah

#151500
1aaaah

#152000
0aaaah

#152500
1aaaah

#153000
0aaaah

#153500
1aaaah

#154000
0aaaah

#154500
1aaaaf
1aaaag
1aaaah

#155000
0aaaah

#155500
0aaaaf
0aaaag
1aaaah

#156000
0aaaah

#156500
1aaaah

#157000
0aaaah

#157500
1aaaah

#158000
0aaaah

#158500
1aaaah

#159000
0aaaah

#159500
1aaaaf
1aaaag
1aaaah

#160000
0aaaah

#160500
0aaaaf
0aaaag
1aaaah

#161000
0aaaah

#161500
1aaaah

#162000
0aaaah

#162500
1aaaah

#163000
0aaaah

#163500
1aaaah

#164000
0aaaah

#164500
1aaaaf
1aaaag
1aaaah

#165000
0aaaah

#165500
0aaaaf
0aaaag
1aaaah

#166000
0aaaah

#166500
1aaaah

#167000
0aaaah

#167500
1aaaah

#168000
0aaaah

#168500
1aaaah

#169000
0aaaah

#169500
1aaaaf
1aaaag
1aaaah

#170000
0aaaah

#170500
0aaaaf
0aaaag
1aaaah

#171000
0aaaah

#171500
1aaaah

#172000
0aaaah

#172500
1aaaah

#173000
0aaaah

#173500
1aaaah

#174000
0aaaah

#174500
1aaaaf
1aaaag
1aaaah

#175000
0aaaah

#175500
0aaaaf
0aaaag
1aaaah

#176000
0aaaah

#176500
1aaaah

#177000
0aaaah

#177500
1aaaah

#178000
0aaaah

#178500
1aaaah

#179000
0aaaah

#179500
1aaaaf
1aaaag
1aaaah

#180000
0aaaah

#180500
0aaaaf
0aaaag
1aaaah

#181000
0aaaah

#181500
1aaaah

#182000
0aaaah

#182500
1aaaah

#183000
0aaaah

#183500
1aaaah

#184000
0aaaah

#184500
1aaaaf
1aaaag
1aaaah

#185000
0aaaah

#185500
0aaaaf
0aaaag
1aaaah

#186000
0aaaah

#186500
1aaaah

#187000
0aaaah

#187500
1aaaah

#188000
0aaaah

#188500
1aaaah

#189000
0aaaah

#189500
1aaaaf
1aaaag
1aaaah

#190000
0aaaah

#190500
0aaaaf
0aaaag
1aaaah

#191000
0aaaah

#191500
1aaaah

#192000
0aaaah

#192500
1aaaah

#193000
0aaaah

#193500
1aaaah

#194000
0aaaah

#194500
1aaaaf
1aaaag
1aaaah

#195000
0aaaah

#195500
0aaaaf
0aaaag
1aaaah

#196000
0aaaah

#196500
1aaaah

#197000
0aaaah

#197500
1aaaah

#198000
0aaaah

#198500
1aaaah

#199000
0aaaah

#199500
1aaaaf
1aaaag
1aaaah

#200000
0aaaah

#200500
0aaaaf
0aaaag
1aaaah

#201000
0aaaah

#201500
1aaaah

#202000
0aaaah

#202500
1aaaah

#203000
0aaaah

#203500
1aaaah

#204000
0aaaah

#204500
1aaaaf
1aaaag
1aaaah

#205000
0aaaah

#205500
0aaaaf
0aaaag
1aaaah

#206000
0aaaah

#206500
1aaaah

#207000
0aaaah

#207500
1aaaah

#208000
0aaaah

#208500
1aaaah

#209000
0aaaah

#209500
1aaaaf
1aaaag
1aaaah

#210000
0aaaah

#210500
0aaaaf
0aaaag
1aaaah

#211000
0aaaah

#211500
1aaaah

#212000
0aaaah

#212500
1aaaah

#213000
0aaaah

#213500
1aaaah

#214000
0aaaah

#214500
1aaaaf
1aaaag
1aaaah

#215000
0aaaah

#215500
0aaaaf
0aaaag
1aaaah

#216000
0aaaah

#216500
1aaaah

#217000
0aaaah

#217500
1aaaah

#218000
0aaaah

#218500
1aaaah

#219000
0aaaah

#219500
1aaaaf
1aaaag
1aaaah

#220000
0aaaah

#220500
0aaaaf
0aaaag
1aaaah

#221000
0aaaah

#221500
1aaaah

#222000
0aaaah

#222500
1aaaah

#223000
0aaaah

#223500
1aaaah

#224000
0aaaah

#224500
1aaaaf
1aaaag
1aaaah

#225000
0aaaah

#225500
0aaaaf
0aaaag
1aaaah

#226000
0aaaah

#226500
1aaaah

#227000
0aaaah

#227500
1aaaah

#228000
0aaaah

#228500
1aaaah

#229000
0aaaah

#229500
1aaaaf
1aaaag
1aaaah

#230000
0aaaah

#230500
0aaaaf
0aaaag
1aaaah

#231000
0aaaah

#231500
1aaaah

#232000
0aaaah

#232500
1aaaah

#233000
0aaaah

#233500
1aaaah

#234000
0aaaah

#234500
1aaaaf
1aaaag
1aaaah

#235000
0aaaah

#235500
0aaaaf
0aaaag
1aaaah

#236000
0aaaah

#236500
1aaaah

#237000
0aaaah

#237500
1aaaah

#238000
0aaaah

#238500
1aaaah

#239000
0aaaah

#239500
1aaaaf
1aaaag
1aaaah

#240000
0aaaah

#240500
0aaaaf
0aaaag
1aaaah

#241000
0aaaah

#241500
1aaaah

#242000
0aaaah

#242500
1aaaah

#243000
0aaaah

#243500
1aaaah

#244000
0aaaah

#244500
1aaaaf
1aaaag
1aaaah

#245000
0aaaah

#245500
0aaaaf
0aaaag
1aaaah

#246000
0aaaah

#246500
1aaaah

#247000
0aaaah

#247500
1aaaah

#248000
0aaaah

#248500
1aaaah

#249000
0aaaah

#249500
1aaaaf
1aaaag
1aaaah

#250000
0aaaah

#250500
0aaaaf
0aaaag
1aaaah

#251000
0aaaah

#251500
1aaaah

#252000
0aaaah

#252500
1aaaah

#253000
0aaaah

#253500
1aaaah

#254000
0aaaah

#254500
1aaaaf
1aaaag
1aaaah

#255000
0aaaah

#255500
0aaaaf
0aaaag
1aaaah

#256000
0aaaah

#256500
1aaaah

#257000
0aaaah

#257500
1aaaah

#258000
0aaaah

#258500
1aaaah

#259000
0aaaah

#259500
1aaaaf
1aaaag
1aaaah

#260000
0aaaah

#260500
0aaaaf
0aaaag
1aaaah

#261000
0aaaah

#261500
1aaaah

#262000
0aaaah

#262500
1aaaah

#263000
0aaaah

#263500
1aaaah

#264000
0aaaah

#264500
1aaaaf
1aaaag
1aaaah

#265000
0aaaah

#265500
0aaaaf
0aaaag
1aaaah

#266000
0aaaah

#266500
1aaaah

#267000
0aaaah

#267500
1aaaah

#268000
0aaaah

#268500
1aaaah

#269000
0aaaah

#269500
1aaaaf
1aaaag
1aaaah

#270000
0aaaah

#270500
0aaaaf
0aaaag
1aaaah

#271000
0aaaah

#271500
1aaaah

#272000
0aaaah

#272500
1aaaah

#273000
0aaaah

#273500
1aaaah

#274000
0aaaah

#274500
1aaaaf
1aaaag
1aaaah

#275000
0aaaah

#275500
0aaaaf
0aaaag
1aaaah

#276000
0aaaah

#276500
1aaaah

#277000
0aaaah

#277500
1aaaah

#278000
0aaaah

#278500
1aaaah

#279000
0aaaah

#279500
1aaaaf
1aaaag
1aaaah

#280000
0aaaah

#280500
0aaaaf
0aaaag
1aaaah

#281000
0aaaah

#281500
1aaaah

#282000
0aaaah

#282500
1aaaah

#283000
0aaaah

#283500
1aaaah

#284000
0aaaah

#284500
1aaaaf
1aaaag
1aaaah

#285000
0aaaah

#285500
0aaaaf
0aaaag
1aaaah

#286000
0aaaah

#286500
1aaaah

#287000
0aaaah

#287500
1aaaah

#288000
0aaaah

#288500
1aaaah

#289000
0aaaah

#289500
1aaaaf
1aaaag
1aaaah

#290000
0aaaah

#290500
0aaaaf
0aaaag
1aaaah

#291000
0aaaah

#291500
1aaaah

#292000
0aaaah

#292500
1aaaah

#293000
0aaaah

#293500
1aaaah

#294000
0aaaah

#294500
1aaaaf
1aaaag
1aaaah

#295000
0aaaah

#295500
0aaaaf
0aaaag
1aaaah

#296000
0aaaah

#296500
1aaaah

#297000
0aaaah

#297500
1aaaah

#298000
0aaaah

#298500
1aaaah

#299000
0aaaah

#299500
1aaaaf
1aaaag
1aaaah

#300000
0aaaah

#300500
0aaaaf
0aaaag
1aaaah

#301000
0aaaah

#301500
1aaaah

#302000
0aaaah

#302500
1aaaah

#303000
0aaaah

#303500
1aaaah

#304000
0aaaah

#304500
1aaaaf
1aaaag
1aaaah

#305000
0aaaah

#305500
0aaaaf
0aaaag
1aaaah

#306000
0aaaah

#306500
1aaaah

#307000
0aaaah

#307500
1aaaah

#308000
0aaaah

#308500
1aaaah

#309000
0aaaah

#309500
1aaaaf
1aaaag
1aaaah

#310000
0aaaah

#310500
0aaaaf
0aaaag
1aaaah

#311000
0aaaah

#311500
1aaaah

#312000
0aaaah

#312500
1aaaah

#313000
0aaaah

#313500
1aaaah

#314000
0aaaah

#314500
1aaaaf
1aaaag
1aaaah

#315000
0aaaah

#315500
0aaaaf
0aaaag
1aaaah

#316000
0aaaah

#316500
1aaaah

#317000
0aaaah

#317500
1aaaah

#318000
0aaaah

#318500
1aaaah

#319000
0aaaah

#319500
1aaaaf
1aaaag
1aaaah

#320000
0aaaah

#320500
0aaaaf
0aaaag
1aaaah

#321000
0aaaah

#321500
1aaaah

#322000
0aaaah

#322500
1aaaah

#323000
0aaaah

#323500
1aaaah

#324000
0aaaah

#324500
1aaaaf
1aaaag
1aaaah

#325000
0aaaah

#325500
0aaaaf
0aaaag
1aaaah

#326000
0aaaah

#326500
1aaaah

#327000
0aaaah

#327500
1aaaah

#328000
0aaaah

#328500
1aaaah

#329000
0aaaah

#329500
1aaaaf
1aaaag
1aaaah

#330000
0aaaah

#330500
0aaaaf
0aaaag
1aaaah

#331000
0aaaah

#331500
1aaaah

#332000
0aaaah

#332500
1aaaah

#333000
0aaaah

#333500
1aaaah

#334000
0aaaah

#334500
1aaaaf
1aaaag
1aaaah

#335000
0aaaah

#335500
0aaaaf
0aaaag
1aaaah

#336000
0aaaah

#336500
1aaaah

#337000
0aaaah

#337500
1aaaah

#338000
0aaaah

#338500
1aaaah

#339000
0aaaah

#339500
1aaaaf
1aaaag
1aaaah

#340000
0aaaah

#340500
0aaaaf
0aaaag
1aaaah

#341000
0aaaah

#341500
1aaaah

#342000
0aaaah

#342500
1aaaah

#343000
0aaaah

#343500
1aaaah

#344000
0aaaah

#344500
1aaaaf
1aaaag
1aaaah

#345000
0aaaah

#345500
0aaaaf
0aaaag
1aaaah

#346000
0aaaah

#346500
1aaaah

#347000
0aaaah

#347500
1aaaah

#348000
0aaaah

#348500
1aaaah

#349000
0aaaah

#349500
1aaaaf
1aaaag
1aaaah

#350000
0aaaah

#350500
0aaaaf
0aaaag
1aaaah

#351000
0aaaah

#351500
1aaaah

#352000
0aaaah

#352500
1aaaah

#353000
0aaaah

#353500
1aaaah

#354000
0aaaah

#354500
1aaaaf
1aaaag
1aaaah

#355000
0aaaah

#355500
0aaaaf
0aaaag
1aaaah

#356000
0aaaah

#356500
1aaaah

#357000
0aaaah

#357500
1aaaah

#358000
0aaaah

#358500
1aaaah

#359000
0aaaah

#359500
1aaaaf
1aaaag
1aaaah

#360000
0aaaah

#360500
0aaaaf
0aaaag
1aaaah

#361000
0aaaah

#361500
1aaaah

#362000
0aaaah

#362500
1aaaah

#363000
0aaaah

#363500
1aaaah

#364000
0aaaah

#364500
1aaaaf
1aaaag
1aaaah

#365000
0aaaah

#365500
0aaaaf
0aaaag
1aaaah

#366000
0aaaah

#366500
1aaaah

#367000
0aaaah

#367500
1aaaah

#368000
0aaaah

#368500
1aaaah

#369000
0aaaah

#369500
1aaaaf
1aaaag
1aaaah

#370000
0aaaah

#370500
0aaaaf
0aaaag
1aaaah

#371000
0aaaah

#371500
1aaaah

#372000
0aaaah

#372500
1aaaah

#373000
0aaaah

#373500
1aaaah

#374000
0aaaah

#374500
1aaaaf
1aaaag
1aaaah

#375000
0aaaah

#375500
0aaaaf
0aaaag
1aaaah

#376000
0aaaah

#376500
1aaaah

#377000
0aaaah

#377500
1aaaah

#378000
0aaaah

#378500
1aaaah

#379000
0aaaah

#379500
1aaaaf
1aaaag
1aaaah

#380000
0aaaah

#380500
0aaaaf
0aaaag
1aaaah

#381000
0aaaah

#381500
1aaaah

#382000
0aaaah

#382500
1aaaah

#383000
0aaaah

#383500
1aaaah

#384000
0aaaah

#384500
1aaaaf
1aaaag
1aaaah

#385000
0aaaah

#385500
0aaaaf
0aaaag
1aaaah

#386000
0aaaah

#386500
1aaaah

#387000
0aaaah

#387500
1aaaah

#388000
0aaaah

#388500
1aaaah

#389000
0aaaah

#389500
1aaaaf
1aaaag
1aaaah

#390000
0aaaah

#390500
0aaaaf
0aaaag
1aaaah

#391000
0aaaah

#391500
1aaaah

#392000
0aaaah

#392500
1aaaah

#393000
0aaaah

#393500
1aaaah

#394000
0aaaah

#394500
1aaaaf
1aaaag
1aaaah

#395000
0aaaah

#395500
0aaaaf
0aaaag
1aaaah

#396000
0aaaah

#396500
1aaaah

#397000
0aaaah

#397500
1aaaah

#398000
0aaaah

#398500
1aaaah

#399000
0aaaah

#399500
1aaaaf
1aaaag
1aaaah

#400000
0aaaah

#400500
0aaaaf
0aaaag
1aaaah

#401000
0aaaah

#401500
1aaaah

#402000
0aaaah

#402500
1aaaah

#403000
0aaaah

#403500
1aaaah

#404000
0aaaah

#404500
1aaaaf
1aaaag
1aaaah

#405000
0aaaah

#405500
0aaaaf
0aaaag
1aaaah

#406000
0aaaah

#406500
1aaaah

#407000
0aaaah

#407500
1aaaah

#408000
0aaaah

#408500
1aaaah

#409000
0aaaah

#409500
1aaaaf
1aaaag
1aaaah

#410000
0aaaah

#410500
0aaaaf
0aaaag
1aaaah

#411000
0aaaah

#411500
1aaaah

#412000
0aaaah

#412500
1aaaah

#413000
0aaaah

#413500
1aaaah

#414000
0aaaah

#414500
1aaaaf
1aaaag
1aaaah

#415000
0aaaah

#415500
0aaaaf
0aaaag
1aaaah

#416000
0aaaah

#416500
1aaaah

#417000
0aaaah

#417500
1aaaah

#418000
0aaaah

#418500
1aaaah

#419000
0aaaah

#419500
1aaaaf
1aaaag
1aaaah

#420000
0aaaah

#420500
0aaaaf
0aaaag
1aaaah

#421000
0aaaah

#421500
1aaaah

#422000
0aaaah

#422500
1aaaah

#423000
0aaaah

#423500
1aaaah

#424000
0aaaah

#424500
1aaaaf
1aaaag
1aaaah

#425000
0aaaah

#425500
0aaaaf
0aaaag
1aaaah

#426000
0aaaah

#426500
1aaaah

#427000
0aaaah

#427500
1aaaah

#428000
0aaaah

#428500
1aaaah

#429000
0aaaah

#429500
1aaaaf
1aaaag
1aaaah

#430000
0aaaah

#430500
0aaaaf
0aaaag
1aaaah

#431000
0aaaah

#431500
1aaaah

#432000
0aaaah

#432500
1aaaah

#433000
0aaaah

#433500
1aaaah

#434000
0aaaah

#434500
1aaaaf
1aaaag
1aaaah

#435000
0aaaah

#435500
0aaaaf
0aaaag
1aaaah

#436000
0aaaah

#436500
1aaaah

#437000
0aaaah

#437500
1aaaah

#438000
0aaaah

#438500
1aaaah

#439000
0aaaah

#439500
1aaaaf
1aaaag
1aaaah

#440000
0aaaah

#440500
0aaaaf
0aaaag
1aaaah

#441000
0aaaah

#441500
1aaaah

#442000
0aaaah

#442500
1aaaah

#443000
0aaaah

#443500
1aaaah

#444000
0aaaah

#444500
1aaaaf
1aaaag
1aaaah

#445000
0aaaah

#445500
0aaaaf
0aaaag
1aaaah

#446000
0aaaah

#446500
1aaaah

#447000
0aaaah

#447500
1aaaah

#448000
0aaaah

#448500
1aaaah

#449000
0aaaah

#449500
1aaaaf
1aaaag
1aaaah

#450000
0aaaah

#450500
0aaaaf
0aaaag
1aaaah

#451000
0aaaah

#451500
1aaaah

#452000
0aaaah

#452500
1aaaah

#453000
0aaaah

#453500
1aaaah

#454000
0aaaah

#454500
1aaaaf
1aaaag
1aaaah

#455000
0aaaah

#455500
0aaaaf
0aaaag
1aaaah

#456000
0aaaah

#456500
1aaaah

#457000
0aaaah

#457500
1aaaah

#458000
0aaaah

#458500
1aaaah

#459000
0aaaah

#459500
1aaaaf
1aaaag
1aaaah

#460000
0aaaah

#460500
0aaaaf
0aaaag
1aaaah

#461000
0aaaah

#461500
1aaaah

#462000
0aaaah

#462500
1aaaah

#463000
0aaaah

#463500
1aaaah

#464000
0aaaah

#464500
1aaaaf
1aaaag
1aaaah

#465000
0aaaah

#465500
0aaaaf
0aaaag
1aaaah

#466000
0aaaah

#466500
1aaaah

#467000
0aaaah

#467500
1aaaah

#468000
0aaaah

#468500
1aaaah

#469000
0aaaah

#469500
1aaaaf
1aaaag
1aaaah

#470000
0aaaah

#470500
0aaaaf
0aaaag
1aaaah

#471000
0aaaah

#471500
1aaaah

#472000
0aaaah

#472500
1aaaah

#473000
0aaaah

#473500
1aaaah

#474000
0aaaah

#474500
1aaaaf
1aaaag
1aaaah

#475000
0aaaah

#475500
0aaaaf
0aaaag
1aaaah

#476000
0aaaah

#476500
1aaaah

#477000
0aaaah

#477500
1aaaah

#478000
0aaaah

#478500
1aaaah

#479000
0aaaah

#479500
1aaaaf
1aaaag
1aaaah

#480000
0aaaah

#480500
0aaaaf
0aaaag
1aaaah

#481000
0aaaah

#481500
1aaaah

#482000
0aaaah

#482500
1aaaah

#483000
0aaaah

#483500
1aaaah

#484000
0aaaah

#484500
1aaaaf
1aaaag
1aaaah

#485000
0aaaah

#485500
0aaaaf
0aaaag
1aaaah

#486000
0aaaah

#486500
1aaaah

#487000
0aaaah

#487500
1aaaah

#488000
0aaaah

#488500
1aaaah

#489000
0aaaah

#489500
1aaaaf
1aaaag
1aaaah

#490000
0aaaah

#490500
0aaaaf
0aaaag
1aaaah

#491000
0aaaah

#491500
1aaaah

#492000
0aaaah

#492500
1aaaah

#493000
0aaaah

#493500
1aaaah

#494000
0aaaah

#494500
1aaaaf
1aaaag
1aaaah

#495000
0aaaah

#495500
0aaaaf
0aaaag
1aaaah

#496000
0aaaah

#496500
1aaaah

#497000
0aaaah

#497500
1aaaah

#498000
0aaaah

#498500
1aaaah

#499000
0aaaah

#499500
1aaaaf
1aaaag
1aaaah

#500000
0aaaah

#500500
b100 aaaab
b1000 aaaad
0aaaaf
0aaaag
1aaaah

#501000
0aaaah

#501500
b1010 aaaab
b1111 aaaad
1aaaah

#502000
0aaaah

#502500
b100 aaaab
b1111 aaaac
b0 aaaad
1aaaah

#503000
0aaaah

#503500
b11 aaaab
1aaaah

#504000
0aaaah

#504500
1aaaaf
1aaaag
1aaaah

#505000
0aaaah

#505500
b1000 aaaac
b1011 aaaad
0aaaaf
0aaaag
1aaaah

#506000
0aaaah

#506500
b1 aaaab
b1111 aaaac
b1 aaaad
1aaaah

#507000
0aaaah

#507500
b111 aaaab
b1 aaaac
b0 aaaad
1aaaah

#508000
0aaaah

#508500
1aaaah

#509000
0aaaah

#509500
1aaaaf
1aaaag
1aaaah

#510000
0aaaah

#510500
b100 aaaaa
b1010 aaaab
b1011 aaaac
b101 aaaad
0aaaaf
0aaaag
1aaaah

#511000
0aaaah

#511500
b1010 aaaaa
b1100 aaaab
b1 aaaac
b1011 aaaad
1aaaah

#512000
0aaaah

#512500
b100 aaaaa
b1010 aaaab
b1011 aaaac
b0 aaaad
1aaaah

#513000
0aaaah

#513500
b11 aaaaa
b10 aaaab
1aaaah

#514000
0aaaah

#514500
1aaaaf
1aaaag
1aaaah

#515000
0aaaah

#515500
b1000 aaaab
b101 aaaac
b1110 aaaad
0aaaaf
0aaaag
1aaaah

#516000
0aaaah

#516500
b1 aaaaa
b1110 aaaab
b1011 aaaac
b100 aaaad
1aaaah

#517000
0aaaah

#517500
b111 aaaaa
b11 aaaab
b100 aaaac
b0 aaaad
1aaaah

#518000
0aaaah

#518500
b1101 aaaab
1aaaah

#519000
0aaaah

#519500
1aaaaf
1aaaag
1aaaah

#520000
0aaaah

#520500
b1010 aaaaa
b10 aaaab
b1110 aaaac
b1000 aaaad
0aaaaf
0aaaag
1aaaah

#521000
0aaaah

#521500
b1100 aaaaa
b11 aaaab
b100 aaaac
b1001 aaaad
1aaaah

#522000
0aaaah

#522500
b1010 aaaaa
b110 aaaab
b1001 aaaac
b0 aaaad
1aaaah

#523000
0aaaah

#523500
b10 aaaaa
b1111 aaaab
1aaaah

#524000
0aaaah

#524500
1aaaaf
1aaaag
1aaaah

#525000
0aaaah

#525500
b1000 aaaaa
b0 aaaab
b1000 aaaac
b1000 aaaad
0aaaaf
0aaaag
1aaaah

#526000
0aaaah

#526500
b1110 aaaaa
b1110 aaaab
b1001 aaaac
b11 aaaad
1aaaah

#527000
0aaaah

#527500
b11 aaaaa
b1000 aaaab
b11 aaaac
b0 aaaad
1aaaah

#528000
0aaaah

#528500
b1101 aaaaa
b1110 aaaab
1aaaah

#529000
0aaaah

#529500
1aaaaf
1aaaag
1aaaah

#530000
0aaaah

#530500
b10 aaaaa
b1101 aaaab
b1000 aaaac
b1001 aaaad
0aaaaf
0aaaag
1aaaah

#531000
0aaaah

#531500
b11 aaaaa
b100 aaaab
b11 aaaac
b111 aaaad
1aaaah

#532000
0aaaah

#532500
b110 aaaaa
b1100 aaaab
b111 aaaac
b0 aaaad
1aaaah

#533000
0aaaah

#533500
b1111 aaaaa
b101 aaaab
1aaaah

#534000
0aaaah

#534500
1aaaaf
1aaaag
1aaaah

#535000
0aaaah

#535500
b0 aaaaa
b100 aaaab
b1001 aaaac
b1101 aaaad
0aaaaf
0aaaag
1aaaah

#536000
0aaaah

#536500
b1110 aaaaa
b11 aaaab
b111 aaaac
b11 aaaad
1aaaah

#537000
0aaaah

#537500
b1000 aaaaa
b1010 aaaab
b11 aaaac
b0 aaaad
1aaaah

#538000
0aaaah

#538500
b1110 aaaaa
b1 aaaab
1aaaah

#539000
0aaaah

#539500
1aaaaf
1aaaag
1aaaah

#540000
0aaaah

