Ref_Design/array_multiplier/simulation/sc_array16_TB.vcd
$date
     Oct 04, 2024       17:37:30
$end

$version
 SystemC 3.0.0-Accellera --- Aug 22 2024 08:19:28
$end

$timescale
     100 ps
$end

$scope module SystemC $end
$var wire   16  aaaaa  a_dut [15:0]  $end
$var wire   16  aaaab  b_dut [15:0]  $end
$var wire   32  aaaac  c_dut [31:0]  $end
$upscope $end
$enddefinitions  $end

$comment
All initial values are dumped below at time 0 sec = 0 timescale units.
$end

$dumpvars
b0 aaaaa
b0 aaaab
b0 aaaac
$end

#1000
b10111111011001 aaaaa
b1111001101110110 aaaab
b101101100000010000100100000110 aaaac

#2000
b1000101110100001 aaaaa
b1001100011010 aaaab
b1010011010110010000101011010 aaaac

#3000
b11101010101101 aaaaa
b1000010111100000 aaaab
b11110101011110011100001100000 aaaac

#4000
b1011110111111 aaaaa
b1000001100000110 aaaab
b1100001001110100101101111010 aaaac

#5000
b101011011010101 aaaaa
b1100101100110110 aaaab
b1000100111011010011011111101110 aaaac

#6000
b100111111 aaaaa
b101011111001001 aaaab
b11011010110001101110111 aaaac

#7000
b100101111100001 aaaaa
b1110111100001010 aaaab
b1000110110110100000010111001010 aaaac

#8000
b11010101001111 aaaaa
b10110111011 aaaab
b1001100010111101110110101 aaaac

#9000
b100000110001100 aaaaa
b1010111100111001 aaaab
b101100110111010100110000101100 aaaac

#10000
b1111101110101100 aaaaa
b111000100001011 aaaab
b1101111001000011011110001100100 aaaac

#11000
b1110111100001001 aaaaa
b1011000110100101 aaaab
b10100101110111110100100111001101 aaaac

#12000
b111111001100101 aaaaa
b111010111010100 aaaab
b111010001011001101010010100100 aaaac

#13000
b1111100111001010 aaaaa
b11110100011000 aaaab
b111011100111001000110011110000 aaaac

#14000
b1110100101000000 aaaaa
b1010000111001110 aaaab
b10010011011011001111000110000000 aaaac

#15000
b1001001011111100 aaaaa
b1101000111100111 aaaab
b1111000100001000101110101100100 aaaac

#16000
b1111001010 aaaaa
b10110001010101 aaaab
b101001111111101000010010 aaaac

#17000
b11110011000000 aaaaa
b1001000100101101 aaaab
b100010011100110110110111000000 aaaac

#18000
b1111111010001011 aaaaa
b100110111101101 aaaab
b1001101011110110111010110101111 aaaac

#19000
b1010110100100101 aaaaa
b11111001100101 aaaab
b101010001100110100010110011001 aaaac

#20000
b1101100101001 aaaaa
b1100011011000 aaaab
b10101000101100001010011000 aaaac

#21000
b11110101100111 aaaaa
b1101001110111000 aaaab
b110010110010000000011100001000 aaaac

#22000
b11000010001100 aaaaa
b1000001111100011 aaaab
b11001000000101011000000100100 aaaac

#23000
b11011010100001 aaaaa
b100101101010101 aaaab
b10000000100110100111001110101 aaaac

#24000
b1111100111111111 aaaaa
b111010001110110 aaaab
b1110001101110101100011110001010 aaaac

#25000
b100000000100 aaaaa
b1111001100000001 aaaab
b111100110111101010000000100 aaaac

#26000
b1111101001010001 aaaaa
b1111101000001100 aaaab
b11110100011111101101010111001100 aaaac

#27000
b1100001100110110 aaaaa
b1101000011001110 aaaab
b10011111001110001111010101110100 aaaac

#28000
b1001011000000010 aaaaa
b111001100000100 aaaab
b1000011011001010011111000001000 aaaac

#29000
b1100111111110110 aaaaa
b1111110111000 aaaab
b11001110001000100001011010000 aaaac

#30000
b1100000011100110 aaaaa
b1110001010010010 aaaab
b10101010101110010000111100101100 aaaac

#31000
b110100110100110 aaaaa
b1001010100101000 aaaab
b111101100011100001111111110000 aaaac

#32000
b10000000101 aaaaa
b1110110000010111 aaaab
b11101101001111100001110011 aaaac

#33000
b1101011000110001 aaaaa
b110000100101111 aaaab
b1010001010011111110001111111111 aaaac

#34000
b1101001101111111 aaaaa
b1101110010011000 aaaab
b10110110001111101011011101101000 aaaac

#35000
b110111111100 aaaaa
b1011111111101000 aaaab
b1010011110111011000001100000 aaaac

#36000
b1101010010110101 aaaaa
b1000101010010011 aaaab
b1110011001000111011010111101111 aaaac

#37000
b1101111111010110 aaaaa
b1011011001010100 aaaab
b10011111011010111001011000111000 aaaac

#38000
b1000100001110100 aaaaa
b1101100100101 aaaab
b1110011101111111010011000100 aaaac

#39000
b1101100110100010 aaaaa
b1010010010111111 aaaab
b10001100000011100010011111011110 aaaac

#40000
b1110010010010010 aaaaa
b1001110001000110 aaaab
b10001011100001110111011111101100 aaaac

#41000
b1000011110001111 aaaaa
b1010010111001011 aaaab
b1010111110010101010100101100101 aaaac

#42000
b111000110100000 aaaaa
b1101100000001000 aaaab
b1011111111000101000110100000000 aaaac

#43000
b10111011111001 aaaaa
b10111011011001 aaaab
b1000100110001000111100010001 aaaac

#44000
b1101011111111001 aaaaa
b1010101010 aaaab
b10001111110101110101011010 aaaac

#45000
b1001010100101010 aaaaa
b11000101111100 aaaab
b11100110101010100101001011000 aaaac

#46000
b1001111000101011 aaaaa
b10001101000101 aaaab
b10101110010101000001010010111 aaaac

#47000
b1111100000111 aaaaa
b1110011100101011 aaaab
b11100000001001000011100101101 aaaac

#48000
b110110001101 aaaaa
b11110010100000 aaaab
b11001101011000010000100000 aaaac

#49000
b1110000000011001 aaaaa
b10100110010001 aaaab
b100100011000101110111100101001 aaaac

#50000
b1101010100100110 aaaaa
b1001010110111111 aaaab
b1111100101011100010010101011010 aaaac

#51000
b1011110101011111 aaaaa
b1010110010 aaaab
b1111111100110101000001110 aaaac

#52000
b10001101101111 aaaaa
b1110110110101111 aaaab
b100000111001011111101111100001 aaaac

#53000
b1001111010101111 aaaaa
b100010111001110 aaaab
b101011010001001101101111010010 aaaac

#54000
b10100001010111 aaaaa
b1101000000110110 aaaab
b100000110011110011001001011010 aaaac

#55000
b1010111001001 aaaaa
b1100001000011110 aaaab
b10000100001001101111110001110 aaaac

#56000
b11011001010000 aaaaa
b10101110100000 aaaab
b1001010000010110001000000000 aaaac

#57000
b1000110011100101 aaaaa
b111100110110000 aaaab
b1000010111110010001101001110000 aaaac

#58000
b1011100001000101 aaaaa
b1000101010001001 aaaab
b1100011101101111100111011101101 aaaac

#59000
b101111000110110 aaaaa
b11001101010110 aaaab
b10010111001000110100000100100 aaaac

#60000
b111100001011001 aaaaa
b1010111010011001 aaaab
b1010010000101000110101100110001 aaaac

#61000
b110001001100000 aaaaa
b110101011 aaaab
b101001000001011000100000 aaaac

#62000
b111111110100001 aaaaa
b10110011110001 aaaab
b10110011001111101001010010001 aaaac

#63000
b111001010011011 aaaaa
b110111110100010 aaaab
b110001111110011011101100010110 aaaac

#64000
b1010010110000101 aaaaa
b1000101111011100 aaaab
b1011010011011010111010101001100 aaaac

#65000
b1011011100010011 aaaaa
b110111010100100 aaaab
b1001111000111110111001000101100 aaaac

#66000
b1001110100101001 aaaaa
b1111011001001011 aaaab
b10010111001100110111000100000011 aaaac

#67000
b100001100011 aaaaa
b1011101011011101 aaaab
b110000111110010101101110111 aaaac

#68000
b101011011011111 aaaaa
b10111011101000 aaaab
b1111111010101100110000011000 aaaac

#69000
b1110010101101110 aaaaa
b111010001011111 aaaab
b1101000010010101111101111010010 aaaac

#70000
b1110101101111110 aaaaa
b1100110101001011 aaaab
b10111100110110001110001111101010 aaaac

#71000
b1100100011000 aaaaa
b1110010001010001 aaaab
b10110011000010101000010011000 aaaac

#72000
b100011001001011 aaaaa
b1001101010101 aaaab
b101010011101110011111100111 aaaac

#73000
b1100110001101001 aaaaa
b1001110110000100 aaaab
b1111101110001011100101100100100 aaaac

#74000
b1000000000011011 aaaaa
b1010101001100100 aaaab
b1010101010000111111100010001100 aaaac

#75000
b1100010111001100 aaaaa
b1111000000011 aaaab
b10111001100000011100101100100 aaaac

#76000
b1111111010100 aaaaa
b1000110101101100 aaaab
b10001100101010011000101110000 aaaac

#77000
b1111000001101110 aaaaa
b111101000011011 aaaab
b1110010101011011100011110011010 aaaac

#78000
b1100111000000010 aaaaa
b1000111000111101 aaaab
b1110010011101100011001001111010 aaaac

#79000
b1010010000101011 aaaaa
b1100111001100100 aaaab
b10000100010110101011101011001100 aaaac

#80000
b111000001110110 aaaaa
b111111001101100 aaaab
b110111100010011000010111001000 aaaac

#81000
b11111100101011 aaaaa
b1100010001011110 aaaab
b110000011101000001110111001010 aaaac

#82000
b1010110011011000 aaaaa
b1001000001110 aaaab
b1100001100001010001111010000 aaaac

#83000
b111000110100000 aaaaa
b101001011111010 aaaab
b100100110101000011011001000000 aaaac

#84000
b101101100101 aaaaa
b111100101010101 aaaab
b101011001101000010110001001 aaaac

#85000
b1011110110000100 aaaaa
b110100010000010 aaaab
b1001101010111011101110100001000 aaaac

#86000
b100100000110111 aaaaa
b1100111100001010 aaaab
b111010011001110100101100100110 aaaac

#87000
b11101100011001 aaaaa
b1001000100011110 aaaab
b100001100000000001010111101110 aaaac

#88000
b1110111010011101 aaaaa
b1010101101110010 aaaab
b10011111110011010010000011101010 aaaac

#89000
b1101111010001111 aaaaa
b100000111010101 aaaab
b111001001110110111101111111011 aaaac

#90000
b1101001110001 aaaaa
b1000011110000000 aaaab
b1101111111101100111110000000 aaaac

#91000
b10101111101101 aaaaa
b110110010001110 aaaab
b10010101000000101100101110110 aaaac

#92000
b1011000001101000 aaaaa
b100001011100101 aaaab
b101110000110001001110100001000 aaaac

#93000
b10101000111000 aaaaa
b100010001100001 aaaab
b1011010001101101111100111000 aaaac

#94000
b11011011101110 aaaaa
b1100110000100010 aaaab
b101011110011001111001110011100 aaaac

#95000
b110101110001111 aaaaa
b1001011101110110 aaaab
b111111101000101110110011101010 aaaac

#96000
b1011001011111010 aaaaa
b110011001001111 aaaab
b1000111100001101101011100100110 aaaac

#97000
b110010110011100 aaaaa
b1100000110101000 aaaab
b1001100110111010100101001100000 aaaac

#98000
b11100110000100 aaaaa
b111001011001111 aaaab
b11001110010110100100110111100 aaaac

#99000
b1011011001111010 aaaaa
b10111111110010 aaaab
b100010001011001110010101010100 aaaac

#100000
b101000001100100 aaaaa
b10011110001010 aaaab
b1100011010101001000111101000 aaaac

#101000
b1000000100100001 aaaaa
b1011010101011010 aaaab
b1011011011110011011101010011010 aaaac

#102000
b110011011110011 aaaaa
b1001000110000000 aaaab
b111010100000110001110010000000 aaaac

#103000
b1111010100001111 aaaaa
b11110011111111 aaaab
b111010011000111001110111110001 aaaac

#104000
b1110100101110110 aaaaa
b1011101011011000 aaaab
b10101010011001001011011110010000 aaaac

#105000
b1110110101110011 aaaaa
b10111011001100 aaaab
b101011011001111110000110100100 aaaac

#106000
b101001011100000 aaaaa
b11110010101010 aaaab
b10011101000111000100011000000 aaaac

#107000
b1101000011111010 aaaaa
b1110001011011111 aaaab
b10111001001100101011110111000110 aaaac

#108000
b1011011000100001 aaaaa
b1111111111111 aaaab
b10110110000110110100111011111 aaaac

#109000
b110100010000101 aaaaa
b10010010110000 aaaab
b1110111110101000111101110000 aaaac

#110000
b1110111111110010 aaaaa
b1010010111011 aaaab
b10011011011100010110111000110 aaaac

#111000
b1000110101000100 aaaaa
b10010001001 aaaab
b10100000001010100101100100 aaaac

#112000
b1011111100011000 aaaaa
b101011101010000 aaaab
b1000001001011001101111110000000 aaaac

#113000
b1010011001010000 aaaaa
b1011001011101000 aaaab
b1110100001110100101100010000000 aaaac

#114000
b1001000100010 aaaaa
b10001110111000 aaaab
b10100001111010111001110000 aaaac

#115000
b1010010011011110 aaaaa
b11110001010011 aaaab
b100110110110010111101111111010 aaaac

#116000
b101000001010010 aaaaa
b10111001111100 aaaab
b1110100101011010001110111000 aaaac

#117000
b1100100001001011 aaaaa
b10011101100111 aaaab
b11110110101000000001100101101 aaaac

#118000
b1001100011001001 aaaaa
b1110100000011010 aaaab
b10001010100001011010110001101010 aaaac

#119000
b100111001110101 aaaaa
b110100111000010 aaaab
b100000011010010111000110101010 aaaac

#120000
b11111111111100 aaaaa
b110110111000000 aaaab
b11011011011100100100100000000 aaaac

#121000
b10011101110110 aaaaa
b101111100100100 aaaab
b1110101010100101011010011000 aaaac

#122000
b110010000111111 aaaaa
b10111010000101 aaaab
b10010001101110110011010111011 aaaac

#123000
b1011111110101101 aaaaa
b100011011100 aaaab
b110101000100010000010101100 aaaac

#124000
b110000010110000 aaaaa
b111110111111100 aaaab
b101111100101010001110101000000 aaaac

#125000
b101000101011000 aaaaa
b1111110101100010 aaaab
b1010000100000110001101110110000 aaaac

#126000
b100100101010001 aaaaa
b1101101000001110 aaaab
b111110011100101111110001101110 aaaac

#127000
b1111010111010111 aaaaa
b1111101111000010 aaaab
b11110001110001000001100111101110 aaaac

#128000
b1101101101101 aaaaa
b11111111100010 aaaab
b110110110000000100100111010 aaaac

#129000
b1010011001100101 aaaaa
b1111011000010111 aaaab
b10011111111101000000000100010011 aaaac

#130000
b1110101110011001 aaaaa
b1101000011110010 aaaab
b11000000010010110000011010100010 aaaac

#131000
b111001011011111 aaaaa
b1010001011000010 aaaab
b1001001000010000010101011111110 aaaac

#132000
b1011001001110110 aaaaa
b101011111111100 aaaab
b111101010101011100011000101000 aaaac

#133000
b11001110101011 aaaaa
b111111101011010 aaaab
b11001101100111111111100011110 aaaac

#134000
b110001000100000 aaaaa
b1010111100110001 aaaab
b1000011001001101010100000100000 aaaac

#135000
b1100000101011101 aaaaa
b11101011001000 aaaab
b101100011001100010001010101000 aaaac

#136000
b1111100001101000 aaaaa
b1100111001 aaaab
b11001000001000011100101000 aaaac

#137000
b1000100111010010 aaaaa
b1011100001011011 aaaab
b1100011001111111110110110100110 aaaac

#138000
b1000001101001000 aaaaa
b1110110000000110 aaaab
b1111001000010010111001110110000 aaaac

#139000
b111100110101101 aaaaa
b1010110101000110 aaaab
b1010010010110110010111001001110 aaaac

#140000
b1000000111111110 aaaaa
b1100001111010110 aaaab
b1100011011100010010010001010100 aaaac

#141000
b1001100110100 aaaaa
b1110011000100011 aaaab
b10001010000110101100000011100 aaaac

#142000
b1011110000011101 aaaaa
b110100001000111 aaaab
b1001100100111111111010000001011 aaaac

#143000
b111011010101100 aaaaa
b1100000001001010 aaaab
b1011001001000110100110110111000 aaaac

#144000
b1100100111001100 aaaaa
b1101111101101110 aaaab
b10110000000111110110100110101000 aaaac

#145000
b10101110110 aaaaa
b1110000100001000 aaaab
b100110011001110000110110000 aaaac

#146000
b111111110111110 aaaaa
b10011001101011 aaaab
b10011001010111001100001101010 aaaac

#147000
b1010001100111011 aaaaa
b111110000101111 aaaab
b1001111001011101000101111010101 aaaac

#148000
b1111111010011001 aaaaa
b101111011110001 aaaab
b1011110011010111101110000001001 aaaac

#149000
b1000000110001101 aaaaa
b11101101110000 aaaab
b11110000101000010110010110000 aaaac

#150000
b111110011010010 aaaaa
b1101111010001011 aaaab
b1101100100000011110001000000110 aaaac

#151000
b111100010010111 aaaaa
b100111010110100 aaaab
b100101000100101100110000101100 aaaac

#152000
b1010001110000000 aaaaa
b100111000000100 aaaab
b110001110100111000111000000000 aaaac

#153000
b100010100001 aaaaa
b101111101001110 aaaab
b11001101100110000000001110 aaaac

#154000
b1000111011111110 aaaaa
b1110111101000 aaaab
b10000101101000101110000110000 aaaac

#155000
b1000011010100010 aaaaa
b1011101000011000 aaaab
b1100001110111100101001100110000 aaaac

#156000
b1101110100111010 aaaaa
b1000001011011 aaaab
b1110001000100100001110011110 aaaac

#157000
b1101010110000111 aaaaa
b1010101000101000 aaaab
b10001101111011010000001100011000 aaaac

#158000
b111111111001010 aaaaa
b1100001101011101 aaaab
b1100001100001010100101001100010 aaaac

#159000
b1100101110110 aaaaa
b1101101000101000 aaaab
b10101101100100111011001110000 aaaac

#160000
b1111000110010001 aaaaa
b10000001001011 aaaab
b11110011110001110010101111011 aaaac

#161000
b110000101111101 aaaaa
b1001110111111101 aaaab
b111100001010100000000110001001 aaaac

#162000
b1111100111110100 aaaaa
b1100010100010110 aaaab
b11000000011011100011111011111000 aaaac

#163000
b1101110111000010 aaaaa
b1000010101110111 aaaab
b1110011100111001101111100101110 aaaac

#164000
b1011111010000010 aaaaa
b10011010101101 aaaab
b11100110010000000100111011010 aaaac

#165000
b100110001100001 aaaaa
b111000000100010 aaaab
b100001011101001001010011100010 aaaac

#166000
b1110001111110110 aaaaa
b100000000010010 aaaab
b111001000011011000011101001100 aaaac

#167000
b1000010000000 aaaaa
b1011110111001 aaaab
b1100001110110110010000000 aaaac

#168000
b1100100111101 aaaaa
b1111000011011110 aaaab
b10111101111110001001011100110 aaaac

#169000
b1001111110011001 aaaaa
b1001010001100111 aaaab
b1011100100001001010101010001111 aaaac

#170000
b1110010110000110 aaaaa
b101001000100110 aaaab
b1001001101001101111110111100100 aaaac

#171000
b111100100101111 aaaaa
b1001111101110111 aaaab
b1001011011111001000010111011001 aaaac

#172000
b100000110001110 aaaaa
b11010111110 aaaab
b1101110011111101101100100 aaaac

#173000
b1011101010000100 aaaaa
b1111111111100101 aaaab
b10111010011100000101010000010100 aaaac

#174000
b1101000111001110 aaaaa
b1010001111111101 aaaab
b10000110011001011000001010010110 aaaac

#175000
b100011010011001 aaaaa
b101000000100110 aaaab
b10110000110100100101010110110 aaaac

#176000
b111011101010001 aaaaa
b101111000000011 aaaab
b101011110100010010001111110011 aaaac

#177000
b1000101110100010 aaaaa
b1110101000101101 aaaab
b1111111101110101001111101111010 aaaac

#178000
b1010001111000 aaaaa
b1100100111100101 aaaab
b10000001001001000011101011000 aaaac

#179000
b101100110010001 aaaaa
b1111000001001101 aaaab
b1010100000100101110000010011101 aaaac

#180000
b110111011100111 aaaaa
b110010010111111 aaaab
b101011101001001111101001011001 aaaac

#181000
b111011101110000 aaaaa
b1110010110000010 aaaab
b1101011000100111101011011100000 aaaac

#182000
b101000010001111 aaaaa
b10010111000000 aaaab
b1011111000010001011001000000 aaaac

#183000
b1011011010101101 aaaaa
b1001010111010010 aaaab
b1101010111010001000101011101010 aaaac

#184000
b1000011010010100 aaaaa
b11000100100 aaaab
b11001110100110010011010000 aaaac

#185000
b1000001011101001 aaaaa
b111011101000001 aaaab
b111100111110111000110000101001 aaaac

#186000
b101001101101010 aaaaa
b111110001100 aaaab
b101000100001101001111111000 aaaac

#187000
b1011101010011101 aaaaa
b1111111011001011 aaaab
b10111001101110111100000001111111 aaaac

#188000
b10000000110110 aaaaa
b1100001010011 aaaab
b11000011111000000110000010 aaaac

#189000
b1010010010010011 aaaaa
b1011101100111 aaaab
b1111000010110110110000100101 aaaac

#190000
b1100110101100011 aaaaa
b1000100010011000 aaaab
b1101101100101101000101011001000 aaaac

#191000
b11111111110100 aaaaa
b1101001000000 aaaab
b110100011101100010100000000 aaaac

#192000
b1101010110110010 aaaaa
b1010101111110100 aaaab
b10001111100010011001001110101000 aaaac

#193000
b1111110110101110 aaaaa
b1000001011010100 aaaab
b10000001101001000111000000011000 aaaac

#194000
b11111101000111 aaaaa
b1111010111100101 aaaab
b111100110001111000110110000011 aaaac

#195000
b110010001001111 aaaaa
b1101010110110100 aaaab
b1010011101111000100001010001100 aaaac

#196000
b11101000100110 aaaaa
b1110111001010111 aaaab
b110110001000110001011011101010 aaaac

#197000
b1110111111011 aaaaa
b1000001000100000 aaaab
b1111001111010011010101100000 aaaac

#198000
b11011011101000 aaaaa
b1111101010110 aaaab
b110101110001000100111110000 aaaac

#199000
b1001001010101000 aaaaa
b11111010000111 aaaab
b100011110100100000011010011000 aaaac

#200000
b110111110010110 aaaaa
b11100001110001 aaaab
b11000100110100001000100110110 aaaac

#201000
b1000111101000110 aaaaa
b1010111111101110 aaaab
b1100010011101100000110100010100 aaaac

#202000
b1110111000011001 aaaaa
b1001111001011011 aaaab
b10010011010010000001000011100011 aaaac

#203000
b1011110100011111 aaaaa
b1010100001100001 aaaab
b1111100011001000000000010111111 aaaac

#204000
b1101000100000101 aaaaa
b100110100011000 aaaab
b111110111100100001100101111000 aaaac

#205000
b110100001101000 aaaaa
b10110001010100 aaaab
b10010000101000010001000100000 aaaac

#206000
b1110010100100000 aaaaa
b1001110111000001 aaaab
b10001101001100010101110100100000 aaaac

#207000
b1110111100110101 aaaaa
b1011110011111001 aaaab
b10110000100100111001011010001101 aaaac

#208000
b1100010000101111 aaaaa
b1101011010001001 aaaab
b10100100011010000100011100100111 aaaac

#209000
b1010111111000010 aaaaa
b1001111000101 aaaab
b1101100100101010011001001010 aaaac

#210000
b111111001111101 aaaaa
b110011110000110 aaaab
b110011001001101000000001101110 aaaac

#211000
b101010100000 aaaaa
b1010011110111 aaaab
b110111101100000001100000 aaaac

#212000
b1110010101000011 aaaaa
b1101010110010010 aaaab
b10111111010000110111111100110110 aaaac

#213000
b1100101111001011 aaaaa
b1101111100111 aaaab
b10110001101100100110100101101 aaaac

#214000
b1001111000110010 aaaaa
b1111100100110001 aaaab
b10011001111111001110100110010010 aaaac

#215000
b1100100110110010 aaaaa
b1101101111110101 aaaab
b10101101010011000100110101011010 aaaac

#216000
b11000101101101 aaaaa
b100000100111100 aaaab
b1100100110000100001010001100 aaaac

#217000
b1111111111110111 aaaaa
b1011101101011100 aaaab
b10111011010101010110100111000100 aaaac

#218000
b11001011110010 aaaaa
b1001100011000 aaaab
b11110011001011110010110000 aaaac

#219000
b1100010010100010 aaaaa
b1100010111011001 aaaab
b10010111111101110101011101010010 aaaac

#220000
b1010100000100010 aaaaa
b1000111100100 aaaab
b1011110000000000000001001000 aaaac

#221000
b1010011010001100 aaaaa
b1100111000110 aaaab
b10000110001000111110001001000 aaaac

#222000
b1111100000000100 aaaaa
b100110001101100 aaaab
b1001010000010011101000110110000 aaaac

#223000
b1101110101011100 aaaaa
b10110111111 aaaab
b100111101111111001110100100 aaaac

#224000
b11011011110100 aaaaa
b1101110101010100 aaaab
b101111100000101010110000010000 aaaac

#225000
b100010011111 aaaaa
b1110001100011101 aaaab
b111101001011111011100000011 aaaac

#226000
b101001100 aaaaa
b1100001011100011 aaaab
b111111001011111001100100 aaaac

#227000
b1100001000111001 aaaaa
b1001111010001010 aaaab
b1111000010001111110000010111010 aaaac

#228000
b1101011111011111 aaaaa
b1000110100111100 aaaab
b1110111000110000110101101000100 aaaac

#229000
b10101001000 aaaaa
b1011100100 aaaab
b11110100010000100000 aaaac

#230000
b1100111001101110 aaaaa
b101100100101111 aaaab
b1000111111010100010010000110010 aaaac

#231000
b1000110010101101 aaaaa
b11100000100000 aaaab
b11110110101110110110110100000 aaaac

#232000
b1110001001101100 aaaaa
b1001010011010000 aaaab
b10000011100111100110011111000000 aaaac

#233000
b1011101110011110 aaaaa
b10110000111000 aaaab
b100000011010000011001010010000 aaaac

#234000
b1101111100110000 aaaaa
b1111110110100110 aaaab
b11011101001000110010100100100000 aaaac

#235000
b110101011000111 aaaaa
b100010111111100 aaaab
b11101001100001011111011100100 aaaac

#236000
b111001101010111 aaaaa
b1010101010011 aaaab
b1001100110111000100000110101 aaaac

#237000
b110110001100110 aaaaa
b1100010001110110 aaaab
b1010011001100000000111100000100 aaaac

#238000
b10101011100111 aaaaa
b1000000001110100 aaaab
b10101100001101111000010101100 aaaac

#239000
b1101110000101110 aaaaa
b101111100100010 aaaab
b1010001110100100101000000011100 aaaac

#240000
b100101010101010 aaaaa
b1101101011101011 aaaab
b111111110110010100111000001110 aaaac

#241000
b111101101010110 aaaaa
b1110001110010110 aaaab
b1101101101001011000011001100100 aaaac

#242000
b1001101010000 aaaaa
b1000010100100111 aaaab
b1010000010111000000100110000 aaaac

#243000
b1100110111010100 aaaaa
b100001111101011 aaaab
b110110100110110110110110011100 aaaac

#244000
b11011001010001 aaaaa
b111000100101001 aaaab
b11000000000100111001111111001 aaaac

#245000
b1000110111100101 aaaaa
b101101011110101 aaaab
b110010011010100100111000101001 aaaac

#246000
b1100001100010111 aaaaa
b11101001111111 aaaab
b101100100100111111111001101001 aaaac

#247000
b1010110000110010 aaaaa
b11001111101100 aaaab
b100010111011001011010000011000 aaaac

#248000
b101011110111100 aaaaa
b1111110110011010 aaaab
b1010110111010011001001100011000 aaaac

#249000
b1001100011000011 aaaaa
b1001010000111 aaaab
b1011000011100100010011010101 aaaac

#250000
b111110110110010 aaaaa
b1101101100100001 aaaab
b1101011100101110111100111110010 aaaac

#251000
b110001001101101 aaaaa
b110111101111100 aaaab
b101010110111001110111111001100 aaaac

#252000
b1101100011110001 aaaaa
b1011000100011110 aaaab
b10010110000110000000110100111110 aaaac

#253000
b1100010001000110 aaaaa
b10001000111101 aaaab
b11010010000000001000010101110 aaaac

#254000
b1110001000101001 aaaaa
b1110000011111 aaaab
b11000110101111101111011110111 aaaac

#255000
b101011100100011 aaaaa
b1110010011101100 aaaab
b1001101111010111000000001000100 aaaac

#256000
b1100010101100010 aaaaa
b111101011100 aaaab
b1011110101111010110100111000 aaaac

#257000
b110010110101011 aaaaa
b1110001011110101 aaaab
b1011010001000100100001010100111 aaaac

#258000
b101111101111 aaaaa
b1000111011111000 aaaab
b110101010100010000110001000 aaaac

#259000
b10111110100010 aaaaa
b1000111011001101 aaaab
b11010100100100000000010111010 aaaac

#260000
b1011111111000111 aaaaa
b1110010100100 aaaab
b10101011101001001111101111100 aaaac

#261000
b1111011111110101 aaaaa
b1111100000010110 aaaab
b11110000010010101010011100001110 aaaac

#262000
b1100000101001010 aaaaa
b1111110101010111 aaaab
b10111111010001111101001000100110 aaaac

#263000
b1010001100000010 aaaaa
b1001101011001011 aaaab
b1100010100100000111011010010110 aaaac

#264000
b10101110010110 aaaaa
b10010001011101 aaaab
b110001100001110110101111110 aaaac

#265000
b101011100100010 aaaaa
b1011101011000001 aaaab
b111111100100000110010010100010 aaaac

#266000
b1111110100000111 aaaaa
b100101010001 aaaab
b1001001101010100111000110111 aaaac

#267000
b1101001010111111 aaaaa
b1001011111101110 aaaab
b1111101000100101001011010010010 aaaac

#268000
b1110001110 aaaaa
b1110011110011 aaaab
b11001101110011111001010 aaaac

#269000
b1110010100110100 aaaaa
b1000010001101101 aaaab
b1110110100100000110011100100100 aaaac

#270000
b101100010100000 aaaaa
b111010101010100 aaaab
b101000100111100011010010000000 aaaac

#271000
b1110101111011001 aaaaa
b111011010001001 aaaab
b1101101001101000011110100100001 aaaac

#272000
b1111101001000000 aaaaa
b1111111101100110 aaaab
b11111001101010010111010110000000 aaaac

#273000
b100110100001 aaaaa
b1001110100110111 aaaab
b101111010011100111010010111 aaaac

#274000
b11111111000001 aaaaa
b1100010101100101 aaaab
b110001001010001010110000100101 aaaac

#275000
b1000011111110 aaaaa
b1011001110010110 aaaab
b1011111010111000111011010100 aaaac

#276000
b1001010011110011 aaaaa
b100100010111010 aaaab
b101010010100001001000010001110 aaaac

#277000
b1101110101 aaaaa
b111100110101110 aaaab
b1101001001010011010000110 aaaac

#278000
b1010010100101000 aaaaa
b11110100011111 aaaab
b100111011011101000011111011000 aaaac

#279000
b1110100011001111 aaaaa
b1110010000100000 aaaab
b11001111011101010111010111100000 aaaac

#280000
b110111000111010 aaaaa
b10010010010100 aaaab
b1111101111111110000110001000 aaaac

#281000
b1000100110100010 aaaaa
b1101011011101100 aaaab
b1110011100011000100110101011000 aaaac

#282000
b11010111100100 aaaaa
b1101000001111101 aaaab
b101011111000111001000001010100 aaaac

#283000
b1001101011100011 aaaaa
b100111111010101 aaaab
b110000010011001110101111011111 aaaac

#284000
b101110111000101 aaaaa
b1111111010011100 aaaab
b1011101010000101001101000001100 aaaac

#285000
b1110100010011000 aaaaa
b11010010000111 aaaab
b101111101110011000100000101000 aaaac

#286000
b11110111011001 aaaaa
b1001000001010101 aaaab
b100010110111101001100100001101 aaaac

#287000
b100010010001101 aaaaa
b1000000101100 aaaab
b100010101001001100000111100 aaaac

#288000
b1011000000101001 aaaaa
b101101100001010 aaaab
b111110101001010111010010011010 aaaac

#289000
b110001001000000 aaaaa
b100101011010100 aaaab
b11100101101111101110100000000 aaaac

#290000
b110001010100001 aaaaa
b1100000001011100 aaaab
b1001010000111000011000111011100 aaaac

#291000
b1011110110000000 aaaaa
b1000011110000111 aaaab
b1100100010100100110111010000000 aaaac

#292000
b11110111110001 aaaaa
b1001001101111000 aaaab
b100011101011100110101111111000 aaaac

#293000
b1111001000011110 aaaaa
b110110000110001 aaaab
b1100110010100101111111110111110 aaaac

#294000
b1001100001111 aaaaa
b1000010000010101 aaaab
b1001110101010100110000111011 aaaac

#295000
b110000111111100 aaaaa
b10000110000001 aaaab
b1100110100101101101111111100 aaaac

#296000
b1100011100100 aaaaa
b1100101111100100 aaaab
b10011110100101111011100010000 aaaac

#297000
b1101000111000101 aaaaa
b100010111 aaaab
b111001001001110110110011 aaaac

#298000
b1111011111011110 aaaaa
b1101000001100001 aaaab
b11001001110000100100101100011110 aaaac

#299000
b101001110110110 aaaaa
b1010100001100001 aaaab
b110111000011110010011111110110 aaaac

#300000
b101101010011100 aaaaa
b110011000101011 aaaab
b100100001010010110000000110100 aaaac

#301000
b110000100001001 aaaaa
b1101111000101011 aaaab
b1010100001101100001101010000011 aaaac

#302000
b1111011101000100 aaaaa
b1011110010011001 aaaab
b10110110001010011011011110100100 aaaac

#303000
b1100000001000100 aaaaa
b1110011110010100 aaaab
b10101101111011001000001101010000 aaaac

#304000
b100000101111101 aaaaa
b1110010111010111 aaaab
b111010110010111101000011111011 aaaac

#305000
b1110010010001 aaaaa
b1010111010000 aaaab
b10011011110001101011010000 aaaac

#306000
b1110110100000001 aaaaa
b1000110001110010 aaaab
b10000010000001100001011001110010 aaaac

#307000
b111111101100011 aaaaa
b1100110001001010 aaaab
b1100101101001111011011010011110 aaaac

#308000
b1110110111001000 aaaaa
b10001000010001 aaaab
b11111101001000101101001001000 aaaac

#309000
b10101011001000 aaaaa
b1111111010000 aaaab
b101010100001111101010000000 aaaac

#310000
b1000111111000111 aaaaa
b1010101010111 aaaab
b1011111111000010111110100001 aaaac

#311000
b1000100001000001 aaaaa
b1001011110100110 aaaab
b1010000101101101011000100100110 aaaac

#312000
b10010000011 aaaaa
b1100001010110000 aaaab
b11011011100110000000010000 aaaac

