Tutorials_New/7-1_Vitis-HLS_basic_loops/emulation/sc_basic_loops_tb.vcd
$date
     Sep 03, 2025       10:43:12
$end

$version
 SystemC 3.0.2-Accellera --- Aug  9 2025 08:00:31
$end

$timescale
     100 ps
$end

$scope module SystemC $end
$var wire    1  aaaaa  ap_clk       $end
$var wire    1  aaaab  ap_rst       $end
$var wire    1  aaaac  ap_start       $end
$var wire    1  aaaad  ap_done       $end
$var wire    1  aaaae  ap_idle       $end
$var wire    1  aaaaf  ap_ready       $end
$var wire    4  aaaag  A_address0 [3:0]  $end
$var wire    1  aaaah  A_ce0       $end
$var wire    8  aaaai  A_q0 [7:0]  $end
$var wire   13  aaaaj  ap_return [12:0]  $end
$upscope $end
$enddefinitions  $end

$comment
All initial values are dumped below at time 0 sec = 0 timescale units.
$end

$dumpvars
0aaaaa
1aaaab
0aaaac
0aaaad
1aaaae
0aaaaf
b0 aaaag
0aaaah
b0 aaaai
b0 aaaaj
$end

#500
1aaaaa

#1000
0aaaaa

#1500
1aaaaa

#2000
0aaaaa

#2500
1aaaaa

#3000
0aaaaa

#3500
1aaaaa
0aaaab

#4000
0aaaaa

#4500
1aaaaa
1aaaac

#5000
0aaaaa
0aaaae
1aaaah

#5500
1aaaaa
b1 aaaag
b1100111 aaaai

#6000
0aaaaa
b1100111 aaaaj

#6500
1aaaaa
b10 aaaag
b11000110 aaaai
b11001110 aaaaj

#7000
0aaaaa
b101101 aaaaj

#7500
1aaaaa
b11 aaaag
b1101001 aaaai
b1111111110011 aaaaj

#8000
0aaaaa
b10010110 aaaaj

#8500
1aaaaa
b100 aaaag
b1110011 aaaai
b11111111 aaaaj

#9000
0aaaaa
b100001001 aaaaj

#9500
1aaaaa
b101 aaaag
b1010001 aaaai
b101111100 aaaaj

#10000
0aaaaa
b101011010 aaaaj

#10500
1aaaaa
b110 aaaag
b11111111 aaaai
b110101011 aaaaj

#11000
0aaaaa
b101011001 aaaaj

#11500
1aaaaa
b111 aaaag
b1001010 aaaai
b101011000 aaaaj

#12000
0aaaaa
b110100011 aaaaj

#12500
1aaaaa
b1000 aaaag
b11101100 aaaai
b111101101 aaaaj

#13000
0aaaaa
b110001111 aaaaj

#13500
1aaaaa
1aaaaf
b1001 aaaag
b101001 aaaai
b101111011 aaaaj

#14000
0aaaaa
b110111000 aaaaj

#14500
1aaaaa
0aaaac
1aaaad
0aaaaf
b0 aaaag
b11001101 aaaai
b111100001 aaaaj

#15000
0aaaaa
b1010 aaaag
0aaaah
b110000101 aaaaj

#15500
1aaaaa

#16000
0aaaaa
0aaaad
1aaaae
b101010010 aaaaj

#16500
1aaaaa
1aaaac

#17000
0aaaaa
0aaaae
b0 aaaag
1aaaah

#17500
1aaaaa
b1 aaaag
b10111010 aaaai
b1111111001101 aaaaj

#18000
0aaaaa
b1111110111010 aaaaj

#18500
1aaaaa
b10 aaaag
b10101011 aaaai
b1111101110100 aaaaj

#19000
0aaaaa
b1111101100101 aaaaj

#19500
1aaaaa
b11 aaaag
b11110010 aaaai
b1111100010000 aaaaj

#20000
0aaaaa
b1111101010111 aaaaj

#20500
1aaaaa
b100 aaaag
b11111011 aaaai
b1111101001001 aaaaj

#21000
0aaaaa
b1111101010010 aaaaj

#21500
1aaaaa
b101 aaaag
b11100011 aaaai
b1111101001101 aaaaj

#22000
0aaaaa
b1111100110101 aaaaj

#22500
1aaaaa
b110 aaaag
b1000110 aaaai
b1111100011000 aaaaj

#23000
0aaaaa
b1111101111011 aaaaj

#23500
1aaaaa
b111 aaaag
b1111100 aaaai
b1111111000001 aaaaj

#24000
0aaaaa
b1111111110111 aaaaj

#24500
1aaaaa
b1000 aaaag
b11000010 aaaai
b1110011 aaaaj

#25000
0aaaaa
b1111110111001 aaaaj

#25500
1aaaaa
1aaaaf
b1001 aaaag
b1010100 aaaai
b1111101111011 aaaaj

#26000
0aaaaa
b1101 aaaaj

#26500
1aaaaa
0aaaac
1aaaad
0aaaaf
b0 aaaag
b11111000 aaaai
b1100001 aaaaj

#27000
0aaaaa
b1010 aaaag
0aaaah
b101 aaaaj

#27500
1aaaaa

#28000
0aaaaa
0aaaad
1aaaae
b1111111111101 aaaaj

#28500
1aaaaa
1aaaac

#29000
0aaaaa
0aaaae
b0 aaaag
1aaaah

#29500
1aaaaa
b1 aaaag
b11011 aaaai
b1111111111000 aaaaj

#30000
0aaaaa
b11011 aaaaj

#30500
1aaaaa
b10 aaaag
b11101000 aaaai
b110110 aaaaj

#31000
0aaaaa
b11 aaaaj

#31500
1aaaaa
b11 aaaag
b11100111 aaaai
b1111111101011 aaaaj

#32000
0aaaaa
b1111111101010 aaaaj

#32500
1aaaaa
b100 aaaag
b10001101 aaaai
b1111111010001 aaaaj

#33000
0aaaaa
b1111101110111 aaaaj

#33500
1aaaaa
b101 aaaag
b1110110 aaaai
b1111100000100 aaaaj

#34000
0aaaaa
b1111111101101 aaaaj

#34500
1aaaaa
b110 aaaag
b1011010 aaaai
b1100011 aaaaj

#35000
0aaaaa
b1000111 aaaaj

#35500
1aaaaa
b111 aaaag
b101110 aaaai
b10100001 aaaaj

#36000
0aaaaa
b1110101 aaaaj

#36500
1aaaaa
b1000 aaaag
b1100011 aaaai
b10100011 aaaaj

#37000
0aaaaa
b11011000 aaaaj

#37500
1aaaaa
1aaaaf
b1001 aaaag
b110011 aaaai
b100111011 aaaaj

#38000
0aaaaa
b100001011 aaaaj

#38500
1aaaaa
0aaaac
1aaaad
0aaaaf
b0 aaaag
b10011111 aaaai
b100111110 aaaaj

#39000
0aaaaa
b1010 aaaag
0aaaah
b10101010 aaaaj

#39500
1aaaaa

#40000
0aaaaa
0aaaad
1aaaae
b1001001 aaaaj

#40500
1aaaaa
1aaaac

#41000
0aaaaa
0aaaae
b0 aaaag
1aaaah

#41500
1aaaaa
b1 aaaag
b11001001 aaaai
b1111110011111 aaaaj

#42000
0aaaaa
b1111111001001 aaaaj

#42500
1aaaaa
b10 aaaag
b10011010 aaaai
b1111110010010 aaaaj

#43000
0aaaaa
b1111101100011 aaaaj

#43500
1aaaaa
b11 aaaag
b1100110 aaaai
b1111011111101 aaaaj

#44000
0aaaaa
b1111111001001 aaaaj

#44500
1aaaaa
b100 aaaag
b110010 aaaai
b101111 aaaaj

#45000
0aaaaa
b1111111111011 aaaaj

#45500
1aaaaa
b101 aaaag
b1101 aaaai
b101101 aaaaj

#46000
0aaaaa
b1000 aaaaj

#46500
1aaaaa
b110 aaaag
b10110111 aaaai
b10101 aaaaj

#47000
0aaaaa
b1111110111111 aaaaj

#47500
1aaaaa
b111 aaaag
b110001 aaaai
b1111101110110 aaaaj

#48000
0aaaaa
b1111111110000 aaaaj

#48500
1aaaaa
b1000 aaaag
b1011000 aaaai
b100001 aaaaj

#49000
0aaaaa
b1001000 aaaaj

#49500
1aaaaa
1aaaaf
b1001 aaaag
b10100011 aaaai
b10100000 aaaaj

#50000
0aaaaa
b1111111101011 aaaaj

#50500
1aaaaa
0aaaac
1aaaad
0aaaaf
b0 aaaag
b1011010 aaaai
b1111110001110 aaaaj

#51000
0aaaaa
b1010 aaaag
0aaaah
b1000101 aaaaj

#51500
1aaaaa

#52000
0aaaaa
0aaaad
1aaaae
b10011111 aaaaj

#52500
1aaaaa
1aaaac

#53000
0aaaaa
0aaaae
b0 aaaag
1aaaah

#53500
1aaaaa
b1 aaaag
b100101 aaaai
b1011010 aaaaj

#54000
0aaaaa
b100101 aaaaj

#54500
1aaaaa
b10 aaaag
b1011101 aaaai
b1001010 aaaaj

#55000
0aaaaa
b10000010 aaaaj

#55500
1aaaaa
b11 aaaag
b101 aaaai
b11011111 aaaaj

#56000
0aaaaa
b10000111 aaaaj

#56500
1aaaaa
b100 aaaag
b10111 aaaai
b10001100 aaaaj

#57000
0aaaaa
b10011110 aaaaj

#57500
1aaaaa
b101 aaaag
b1011000 aaaai
b10110101 aaaaj

#58000
0aaaaa
b11110110 aaaaj

#58500
1aaaaa
b110 aaaag
b11101001 aaaai
b101001110 aaaaj

#59000
0aaaaa
b11011111 aaaaj

#59500
1aaaaa
b111 aaaag
b1011110 aaaai
b11001000 aaaaj

#60000
0aaaaa
b100111101 aaaaj

#60500
1aaaaa
b1000 aaaag
b11010100 aaaai
b110011011 aaaaj

#61000
0aaaaa
b100010001 aaaaj

#61500
1aaaaa
1aaaaf
b1001 aaaag
b10101011 aaaai
b11100101 aaaaj

#62000
0aaaaa
b10111100 aaaaj

#62500
1aaaaa
0aaaac
1aaaad
0aaaaf
b0 aaaag
b10110010 aaaai
b1100111 aaaaj

#63000
0aaaaa
b1010 aaaag
0aaaah
b1101110 aaaaj

#63500
1aaaaa

#64000
0aaaaa
0aaaad
1aaaae
b100000 aaaaj

#64500
1aaaaa
1aaaac

#65000
0aaaaa
0aaaae
b0 aaaag
1aaaah

#65500
1aaaaa
b1 aaaag
b11001101 aaaai
b1111110110010 aaaaj

#66000
0aaaaa
b1111111001101 aaaaj

#66500
1aaaaa
b10 aaaag
b11000110 aaaai
b1111110011010 aaaaj

#67000
0aaaaa
b1111110010011 aaaaj

#67500
1aaaaa
b11 aaaag
b10011011 aaaai
b1111101011001 aaaaj

#68000
0aaaaa
b1111100101110 aaaaj

#68500
1aaaaa
b100 aaaag
b10110100 aaaai
b1111011001001 aaaaj

#69000
0aaaaa
b1111011100010 aaaaj

#69500
1aaaaa
b101 aaaag
b1010100 aaaai
b1111010010110 aaaaj

#70000
0aaaaa
b1111100110110 aaaaj

#70500
1aaaaa
b110 aaaag
b10001 aaaai
b1111110001010 aaaaj

#71000
0aaaaa
b1111101000111 aaaaj

#71500
1aaaaa
b111 aaaag
b1110 aaaai
b1111101011000 aaaaj

#72000
0aaaaa
b1111101010101 aaaaj

#72500
1aaaaa
b1000 aaaag
b10000010 aaaai
b1111101100011 aaaaj

#73000
0aaaaa
b1111011010111 aaaaj

#73500
1aaaaa
1aaaaf
b1001 aaaag
b1110100 aaaai
b1111001011001 aaaaj

#74000
0aaaaa
b1111101001011 aaaaj

#74500
1aaaaa
0aaaac
1aaaad
0aaaaf
b0 aaaag
b1000001 aaaai
b1111110111111 aaaaj

#75000
0aaaaa
b1010 aaaag
0aaaah
b1111110001100 aaaaj

#75500
1aaaaa

#76000
0aaaaa
0aaaad
1aaaae
b1111111001101 aaaaj

#76500
1aaaaa
1aaaac

#77000
0aaaaa
0aaaae
b0 aaaag
1aaaah

#77500
1aaaaa
b1 aaaag
b100001 aaaai
b1000001 aaaaj

#78000
0aaaaa
b100001 aaaaj

#78500
1aaaaa
b10 aaaag
b111101 aaaai
b1000010 aaaaj

#79000
0aaaaa
b1011110 aaaaj

#79500
1aaaaa
b11 aaaag
b11011100 aaaai
b10011011 aaaaj

#80000
0aaaaa
b111010 aaaaj

#80500
1aaaaa
b100 aaaag
b10000111 aaaai
b10110 aaaaj

#81000
0aaaaa
b1111111000001 aaaaj

#81500
1aaaaa
b101 aaaag
b1110000 aaaai
b1111101001000 aaaaj

#82000
0aaaaa
b110001 aaaaj

#82500
1aaaaa
b110 aaaag
b11101001 aaaai
b10100001 aaaaj

#83000
0aaaaa
b11010 aaaaj

#83500
1aaaaa
b111 aaaag
b111110 aaaai
b11 aaaaj

#84000
0aaaaa
b1011000 aaaaj

#84500
1aaaaa
b1000 aaaag
b10100001 aaaai
b10010110 aaaaj

#85000
0aaaaa
b1111111111001 aaaaj

#85500
1aaaaa
1aaaaf
b1001 aaaag
b1000001 aaaai
b1111110011010 aaaaj

#86000
0aaaaa
b111010 aaaaj

#86500
1aaaaa
0aaaac
1aaaad
0aaaaf
b0 aaaag
b11100001 aaaai
b1111011 aaaaj

#87000
0aaaaa
b1010 aaaag
0aaaah
b11011 aaaaj

#87500
1aaaaa

#88000
0aaaaa
0aaaad
1aaaae
b1111111111100 aaaaj

#88500
1aaaaa
1aaaac

#89000
0aaaaa
0aaaae
b0 aaaag
1aaaah

#89500
1aaaaa
b1 aaaag
b11111100 aaaai
b1111111100001 aaaaj

#90000
0aaaaa
b1111111111100 aaaaj

#90500
1aaaaa
b10 aaaag
b1100111 aaaai
b1111111111000 aaaaj

#91000
0aaaaa
b1100011 aaaaj

#91500
1aaaaa
b11 aaaag
b111110 aaaai
b11001010 aaaaj

#92000
0aaaaa
b10100001 aaaaj

#92500
1aaaaa
b100 aaaag
b1 aaaai
b11011111 aaaaj

#93000
0aaaaa
b10100010 aaaaj

#93500
1aaaaa
b101 aaaag
b1111110 aaaai
b10100011 aaaaj

#94000
0aaaaa
b100100000 aaaaj

#94500
1aaaaa
b110 aaaag
b10010111 aaaai
b110011110 aaaaj

#95000
0aaaaa
b10110111 aaaaj

#95500
1aaaaa
b111 aaaag
b11101010 aaaai
b1001110 aaaaj

#96000
0aaaaa
b10100001 aaaaj

#96500
1aaaaa
b1000 aaaag
b11011100 aaaai
b10001011 aaaaj

#97000
0aaaaa
b1111101 aaaaj

#97500
1aaaaa
1aaaaf
b1001 aaaag
b1101011 aaaai
b1011001 aaaaj

#98000
0aaaaa
b11101000 aaaaj

#98500
1aaaaa
0aaaac
1aaaad
0aaaaf
b0 aaaag
b10010110 aaaai
b101010011 aaaaj

#99000
0aaaaa
b1010 aaaag
0aaaah
b1111110 aaaaj

#99500
1aaaaa

#100000
0aaaaa
0aaaad
1aaaae
b10100 aaaaj

#100500
1aaaaa
1aaaac

#101000
0aaaaa
0aaaae
b0 aaaag
1aaaah

#101500
1aaaaa
b1 aaaag
b10001111 aaaai
b1111110010110 aaaaj

#102000
0aaaaa
b1111110001111 aaaaj

#102500
1aaaaa
b10 aaaag
b111000 aaaai
b1111100011110 aaaaj

#103000
0aaaaa
b1111111000111 aaaaj

#103500
1aaaaa
b11 aaaag
b1011100 aaaai
b1111111111111 aaaaj

#104000
0aaaaa
b100011 aaaaj

#104500
1aaaaa
b100 aaaag
b101010 aaaai
b1111111 aaaaj

#105000
0aaaaa
b1001101 aaaaj

#105500
1aaaaa
b101 aaaag
b11101100 aaaai
b1110111 aaaaj

#106000
0aaaaa
b111001 aaaaj

#106500
1aaaaa
b110 aaaag
b10110000 aaaai
b100101 aaaaj

#107000
0aaaaa
b1111111101001 aaaaj

#107500
1aaaaa
b111 aaaag
b111011 aaaai
b1111110011001 aaaaj

#108000
0aaaaa
b100100 aaaaj

#108500
1aaaaa
b1000 aaaag
b11111011 aaaai
b1011111 aaaaj

#109000
0aaaaa
b11111 aaaaj

#109500
1aaaaa
1aaaaf
b1001 aaaag
b110010 aaaai
b11010 aaaaj

#110000
0aaaaa
b1010001 aaaaj

#110500
1aaaaa
0aaaac
1aaaad
0aaaaf
b0 aaaag
b10101111 aaaai
b10000011 aaaaj

#111000
0aaaaa
b1010 aaaag
0aaaah
b0 aaaaj

#111500
1aaaaa

#112000
0aaaaa
0aaaad
1aaaae
b1111110101111 aaaaj

#112500
1aaaaa
1aaaac

#113000
0aaaaa
0aaaae
b0 aaaag
1aaaah

#113500
1aaaaa
b1 aaaag
b111100 aaaai

#114000
0aaaaa
b111100 aaaaj

#114500
1aaaaa
b10 aaaag
b1010100 aaaai
b1111000 aaaaj

#115000
0aaaaa
b10010000 aaaaj

#115500
1aaaaa
b11 aaaag
b11101100 aaaai
b11100100 aaaaj

#116000
0aaaaa
b1111100 aaaaj

#116500
1aaaaa
b100 aaaag
b11000 aaaai
b1101000 aaaaj

#117000
0aaaaa
b10010100 aaaaj

#117500
1aaaaa
b101 aaaag
b11011011 aaaai
b10101100 aaaaj

#118000
0aaaaa
b1101111 aaaaj

#118500
1aaaaa
b110 aaaag
b1011100 aaaai
b1001010 aaaaj

#119000
0aaaaa
b11001011 aaaaj

#119500
1aaaaa
b111 aaaag
b10 aaaai
b100100111 aaaaj

#120000
0aaaaa
b11001101 aaaaj

#120500
1aaaaa
b1000 aaaag
b11010 aaaai
b11001111 aaaaj

#121000
0aaaaa
b11100111 aaaaj

#121500
1aaaaa
1aaaaf
b1001 aaaag
b11111110 aaaai
b100000001 aaaaj

#122000
0aaaaa
b11100101 aaaaj

#122500
1aaaaa
0aaaac
1aaaad
0aaaaf
b0 aaaag
b1000011 aaaai
b11100011 aaaaj

#123000
0aaaaa
b1010 aaaag
0aaaah
b100101000 aaaaj

#123500
1aaaaa

#124000
0aaaaa
0aaaad
1aaaae
b101101011 aaaaj

#124500
1aaaaa
1aaaac

#125000
0aaaaa
0aaaae
b0 aaaag
1aaaah

#125500
1aaaaa
b1 aaaag
b11111011 aaaai
b1000011 aaaaj

#126000
0aaaaa
b1111111111011 aaaaj

#126500
1aaaaa
b10 aaaag
b11111010 aaaai
b1111111110110 aaaaj

#127000
0aaaaa
b1111111110101 aaaaj

#127500
1aaaaa
b11 aaaag
b10101010 aaaai
b1111111101111 aaaaj

#128000
0aaaaa
b1111110011111 aaaaj

#128500
1aaaaa
b100 aaaag
b111010 aaaai
b1111101001001 aaaaj

#129000
0aaaaa
b1111111011001 aaaaj

#129500
1aaaaa
b101 aaaag
b11111011 aaaai
b10011 aaaaj

#130000
0aaaaa
b1111111010100 aaaaj

#130500
1aaaaa
b110 aaaag
b101001 aaaai
b1111111001111 aaaaj

#131000
0aaaaa
b1111111111101 aaaaj

#131500
1aaaaa
b111 aaaag
b11010001 aaaai
b100110 aaaaj

#132000
0aaaaa
b1111111001110 aaaaj

#132500
1aaaaa
b1000 aaaag
b11100110 aaaai
b1111110011111 aaaaj

#133000
0aaaaa
b1111110110100 aaaaj

#133500
1aaaaa
1aaaaf
b1001 aaaag
b101 aaaai
b1111110011010 aaaaj

#134000
0aaaaa
b1111110111001 aaaaj

#134500
1aaaaa
0aaaac
1aaaad
0aaaaf
b0 aaaag
b111100 aaaai
b1111110111110 aaaaj

#135000
0aaaaa
b1010 aaaag
0aaaah
b1111111110101 aaaaj

#135500
1aaaaa

#136000
0aaaaa
0aaaad
1aaaae
b110001 aaaaj

#136500
1aaaaa
1aaaac

#137000
0aaaaa
0aaaae
b0 aaaag
1aaaah

#137500
1aaaaa
b1 aaaag
b1111100 aaaai
b111100 aaaaj

#138000
0aaaaa
b1111100 aaaaj

#138500
1aaaaa
b10 aaaag
b10010100 aaaai
b11111000 aaaaj

#139000
0aaaaa
b10000 aaaaj

#139500
1aaaaa
b11 aaaag
b1110101 aaaai
b1111110100100 aaaaj

#140000
0aaaaa
b10000101 aaaaj

#140500
1aaaaa
b100 aaaag
b11011000 aaaai
b11111010 aaaaj

#141000
0aaaaa
b1011101 aaaaj

#141500
1aaaaa
b101 aaaag
b10111110 aaaai
b110101 aaaaj

#142000
0aaaaa
b11011 aaaaj

#142500
1aaaaa
b110 aaaag
b1100001 aaaai
b1111111011001 aaaaj

#143000
0aaaaa
b1111100 aaaaj

#143500
1aaaaa
b111 aaaag
b10001001 aaaai
b11011101 aaaaj

#144000
0aaaaa
b101 aaaaj

#144500
1aaaaa
b1000 aaaag
b11111001 aaaai
b1111110001110 aaaaj

#145000
0aaaaa
b1111111111110 aaaaj

#145500
1aaaaa
1aaaaf
b1001 aaaag
b1011100 aaaai
b1111111110111 aaaaj

#146000
0aaaaa
b1011010 aaaaj

#146500
1aaaaa
0aaaac
1aaaad
0aaaaf
b0 aaaag
b10111011 aaaai
b10110110 aaaaj

#147000
0aaaaa
b1010 aaaag
0aaaah
b10101 aaaaj

#147500
1aaaaa

#148000
0aaaaa
0aaaad
1aaaae
b1111111010000 aaaaj

#148500
1aaaaa
1aaaac

#149000
0aaaaa
0aaaae
b0 aaaag
1aaaah

#149500
1aaaaa
b1 aaaag
b10101000 aaaai
b1111110111011 aaaaj

#150000
0aaaaa
b1111110101000 aaaaj

#150500
1aaaaa
b10 aaaag
b10011001 aaaai
b1111101010000 aaaaj

#151000
0aaaaa
b1111101000001 aaaaj

#151500
1aaaaa
b11 aaaag
b1111 aaaai
b1111011011010 aaaaj

#152000
0aaaaa
b1111101010000 aaaaj

#152500
1aaaaa
b100 aaaag
b10010101 aaaai
b1111101011111 aaaaj

#153000
0aaaaa
b1111011100101 aaaaj

#153500
1aaaaa
b101 aaaag
b10110001 aaaai
b1111001111010 aaaaj

#154000
0aaaaa
b1111010010110 aaaaj

#154500
1aaaaa
b110 aaaag
b11101011 aaaai
b1111001000111 aaaaj

#155000
0aaaaa
b1111010000001 aaaaj

#155500
1aaaaa
b111 aaaag
b11110001 aaaai
b1111001101100 aaaaj

#156000
0aaaaa
b1111001110010 aaaaj

#156500
1aaaaa
b1000 aaaag
b10110011 aaaai
b1111001100011 aaaaj

#157000
0aaaaa
b1111000100101 aaaaj

#157500
1aaaaa
1aaaaf
b1001 aaaag
b101 aaaai
b1110111011000 aaaaj

#158000
0aaaaa
b1111000101010 aaaaj

#158500
1aaaaa
0aaaac
1aaaad
0aaaaf
b0 aaaag
b11101111 aaaai
b1111000101111 aaaaj

#159000
0aaaaa
b1010 aaaag
0aaaah
b1111000011001 aaaaj

#159500
1aaaaa

#160000
0aaaaa
0aaaad
1aaaae
b1111000001000 aaaaj

#160500
1aaaaa
1aaaac

#161000
0aaaaa
0aaaae
b0 aaaag
1aaaah

#161500
1aaaaa
b1 aaaag
b11110111 aaaai
b1111111101111 aaaaj

#162000
0aaaaa
b1111111110111 aaaaj

#162500
1aaaaa
b10 aaaag
b0 aaaai
b1111111101110 aaaaj

#163000
0aaaaa
b1111111110111 aaaaj

#163500
1aaaaa
b11 aaaag
b11101001 aaaai

#164000
0aaaaa
b1111111100000 aaaaj

#164500
1aaaaa
b100 aaaag
b10100001 aaaai
b1111111001001 aaaaj

#165000
0aaaaa
b1111110000001 aaaaj

#165500
1aaaaa
b101 aaaag
b111010 aaaai
b1111100100010 aaaaj

#166000
0aaaaa
b1111110111011 aaaaj

#166500
1aaaaa
b110 aaaag
b11100101 aaaai
b1111111110101 aaaaj

#167000
0aaaaa
b1111110100000 aaaaj

#167500
1aaaaa
b111 aaaag
b11001010 aaaai
b1111110000101 aaaaj

#168000
0aaaaa
b1111101101010 aaaaj

#168500
1aaaaa
b1000 aaaag
b1011 aaaai
b1111100110100 aaaaj

#169000
0aaaaa
b1111101110101 aaaaj

#169500
1aaaaa
1aaaaf
b1001 aaaag
b11001011 aaaai
b1111110000000 aaaaj

#170000
0aaaaa
b1111101000000 aaaaj

#170500
1aaaaa
0aaaac
1aaaad
0aaaaf
b0 aaaag
b11010000 aaaai
b1111100001011 aaaaj

#171000
0aaaaa
b1010 aaaag
0aaaah
b1111100010000 aaaaj

#171500
1aaaaa

#172000
0aaaaa
0aaaad
1aaaae
b1111011100000 aaaaj

#172500
1aaaaa
1aaaac

#173000
0aaaaa
0aaaae
b0 aaaag
1aaaah

#173500
1aaaaa
b1 aaaag
b1001000 aaaai
b1111111010000 aaaaj

#174000
0aaaaa
b1001000 aaaaj

#174500
1aaaaa
b10 aaaag
b1000111 aaaai
b10010000 aaaaj

#175000
0aaaaa
b10001111 aaaaj

#175500
1aaaaa
b11 aaaag
b1100100 aaaai
b11010110 aaaaj

#176000
0aaaaa
b11110011 aaaaj

#176500
1aaaaa
b100 aaaag
b10111101 aaaai
b101010111 aaaaj

#177000
0aaaaa
b10110000 aaaaj

#177500
1aaaaa
b101 aaaag
b11111 aaaai
b1101101 aaaaj

#178000
0aaaaa
b11001111 aaaaj

#178500
1aaaaa
b110 aaaag
b100011 aaaai
b11101110 aaaaj

#179000
0aaaaa
b11110010 aaaaj

#179500
1aaaaa
b111 aaaag
b11110 aaaai
b100010101 aaaaj

#180000
0aaaaa
b100010000 aaaaj

#180500
1aaaaa
b1000 aaaag
b10101000 aaaai
b100101110 aaaaj

#181000
0aaaaa
b10111000 aaaaj

#181500
1aaaaa
1aaaaf
b1001 aaaag
b11100 aaaai
b1100000 aaaaj

#182000
0aaaaa
b11010100 aaaaj

#182500
1aaaaa
0aaaac
1aaaad
0aaaaf
b0 aaaag
b1111011 aaaai
b11110000 aaaaj

#183000
0aaaaa
b1010 aaaag
0aaaah
b101001111 aaaaj

#183500
1aaaaa

#184000
0aaaaa
0aaaad
1aaaae
b111001010 aaaaj

#184500
1aaaaa
1aaaac

#185000
0aaaaa
0aaaae
b0 aaaag
1aaaah

#185500
1aaaaa
b1 aaaag
b1100100 aaaai
b1111011 aaaaj

#186000
0aaaaa
b1100100 aaaaj

#186500
1aaaaa
b10 aaaag
b11000101 aaaai
b11001000 aaaaj

#187000
0aaaaa
b101001 aaaaj

#187500
1aaaaa
b11 aaaag
b10100 aaaai
b1111111101110 aaaaj

#188000
0aaaaa
b111101 aaaaj

#188500
1aaaaa
b100 aaaag
b1110011 aaaai
b1010001 aaaaj

#189000
0aaaaa
b10110000 aaaaj

#189500
1aaaaa
b101 aaaag
b1011010 aaaai
b100100011 aaaaj

#190000
0aaaaa
b100001010 aaaaj

#190500
1aaaaa
b110 aaaag
b11000101 aaaai
b101100100 aaaaj

#191000
0aaaaa
b11001111 aaaaj

#191500
1aaaaa
b111 aaaag
b1011110 aaaai
b10010100 aaaaj

#192000
0aaaaa
b100101101 aaaaj

#192500
1aaaaa
b1000 aaaag
b1001011 aaaai
b110001011 aaaaj

#193000
0aaaaa
b101111000 aaaaj

#193500
1aaaaa
1aaaaf
b1001 aaaag
b1111001 aaaai
b111000011 aaaaj

#194000
0aaaaa
b111110001 aaaaj

#194500
1aaaaa
0aaaac
1aaaad
0aaaaf
b0 aaaag
b1100011 aaaai
b1001101010 aaaaj

#195000
0aaaaa
b1010 aaaag
0aaaah
b1001010100 aaaaj

#195500
1aaaaa

#196000
0aaaaa
0aaaad
1aaaae
b1010110111 aaaaj

#196500
1aaaaa
1aaaac

#197000
0aaaaa
0aaaae
b0 aaaag
1aaaah

#197500
1aaaaa
b1 aaaag
b111011 aaaai
b1100011 aaaaj

#198000
0aaaaa
b111011 aaaaj

#198500
1aaaaa
b10 aaaag
b1110000 aaaai
b1110110 aaaaj

#199000
0aaaaa
b10101011 aaaaj

#199500
1aaaaa
b11 aaaag
b1100100 aaaai
b100011011 aaaaj

#200000
0aaaaa
b100001111 aaaaj

#200500
1aaaaa
b100 aaaag
b100100 aaaai
b101110011 aaaaj

#201000
0aaaaa
b100110011 aaaaj

#201500
1aaaaa
b101 aaaag
b10001 aaaai
b101010111 aaaaj

#202000
0aaaaa
b101000100 aaaaj

#202500
1aaaaa
b110 aaaag
b10011110 aaaai
b101010101 aaaaj

#203000
0aaaaa
b11100010 aaaaj

#203500
1aaaaa
b111 aaaag
b1001 aaaai
b10000000 aaaaj

#204000
0aaaaa
b11101011 aaaaj

#204500
1aaaaa
b1000 aaaag
b11011100 aaaai
b11110100 aaaaj

#205000
0aaaaa
b11000111 aaaaj

#205500
1aaaaa
1aaaaf
b1001 aaaag
b10101010 aaaai
b10100011 aaaaj

#206000
0aaaaa
b1110001 aaaaj

#206500
1aaaaa
0aaaac
1aaaad
0aaaaf
b0 aaaag
b11010100 aaaai
b11011 aaaaj

#207000
0aaaaa
b1010 aaaag
0aaaah
b1000101 aaaaj

#207500
1aaaaa

#208000
0aaaaa
0aaaad
1aaaae
b11001 aaaaj

#208500
1aaaaa
1aaaac

#209000
0aaaaa
0aaaae
b0 aaaag
1aaaah

#209500
1aaaaa
b1 aaaag
b10101100 aaaai
b1111111010100 aaaaj

#210000
0aaaaa
b1111110101100 aaaaj

#210500
1aaaaa
b10 aaaag
b11110010 aaaai
b1111101011000 aaaaj

#211000
0aaaaa
b1111110011110 aaaaj

#211500
1aaaaa
b11 aaaag
b11011 aaaai
b1111110010000 aaaaj

#212000
0aaaaa
b1111110111001 aaaaj

#212500
1aaaaa
b100 aaaag
b10000 aaaai
b1111111010100 aaaaj

#213000
0aaaaa
b1111111001001 aaaaj

#213500
1aaaaa
b101 aaaag
b10101111 aaaai
b1111111011001 aaaaj

#214000
0aaaaa
b1111101111000 aaaaj

#214500
1aaaaa
b110 aaaag
b111011 aaaai
b1111100100111 aaaaj

#215000
0aaaaa
b1111110110011 aaaaj

#215500
1aaaaa
b111 aaaag
b110011 aaaai
b1111111101110 aaaaj

#216000
0aaaaa
b1111111100110 aaaaj

#216500
1aaaaa
b1000 aaaag
b11001101 aaaai
b11001 aaaaj

#217000
0aaaaa
b1111110110011 aaaaj

#217500
1aaaaa
1aaaaf
b1001 aaaag
b11100011 aaaai
b1111110000000 aaaaj

#218000
0aaaaa
b1111110010110 aaaaj

#218500
1aaaaa
0aaaac
1aaaad
0aaaaf
b0 aaaag
b1010000 aaaai
b1111101111001 aaaaj

#219000
0aaaaa
b1010 aaaag
0aaaah
b1111111100110 aaaaj

#219500
1aaaaa

#220000
0aaaaa
0aaaad
1aaaae
b110110 aaaaj

#220500
1aaaaa
1aaaac

#221000
0aaaaa
0aaaae
b0 aaaag
1aaaah

#221500
1aaaaa
b1 aaaag
b1001000 aaaai
b1010000 aaaaj

#222000
0aaaaa
b1001000 aaaaj

#222500
1aaaaa
b10 aaaag
b1000111 aaaai
b10010000 aaaaj

#223000
0aaaaa
b10001111 aaaaj

#223500
1aaaaa
b11 aaaag
b10101 aaaai
b11010110 aaaaj

#224000
0aaaaa
b10100100 aaaaj

#224500
1aaaaa
b100 aaaag
b1011100 aaaai
b10111001 aaaaj

#225000
0aaaaa
b100000000 aaaaj

#225500
1aaaaa
b101 aaaag
b10111011 aaaai
b101011100 aaaaj

#226000
0aaaaa
b10111011 aaaaj

#226500
1aaaaa
b110 aaaag
b1101111 aaaai
b1110110 aaaaj

#227000
0aaaaa
b100101010 aaaaj

#227500
1aaaaa
b111 aaaag
b100010 aaaai
b110011001 aaaaj

#228000
0aaaaa
b101001100 aaaaj

#228500
1aaaaa
b1000 aaaag
b11001 aaaai
b101101110 aaaaj

#229000
0aaaaa
b101100101 aaaaj

#229500
1aaaaa
1aaaaf
b1001 aaaag
b10111010 aaaai
b101111110 aaaaj

#230000
0aaaaa
b100011111 aaaaj

