Projects/HLS/FIR8/emulation/EFIR8.vcd
$date
     Oct 18, 2025       20:56:45
$end

$version
 SystemC 3.0.2-Accellera --- Jun 13 2025 17:49:45
$end

$timescale
     100 ps
$end

$scope module SystemC $end
$var wire   16  aaaaa  y [15:0]  $end
$var wire    1  aaaab  y_ap_vld       $end
$var wire    1  aaaac  ap_ready       $end
$var wire    1  aaaad  ap_idle       $end
$var wire    1  aaaae  ap_done       $end
$var wire    8  aaaaf  x [7:0]  $end
$var wire    1  aaaag  ap_start       $end
$var wire    1  aaaah  ap_rst       $end
$var wire    1  aaaai  ap_clk       $end
$upscope $end
$enddefinitions  $end

$comment
All initial values are dumped below at time 0 sec = 0 timescale units.
$end

$dumpvars
b0 aaaaa
0aaaab
0aaaac
0aaaad
0aaaae
b0 aaaaf
0aaaag
1aaaah
0aaaai
$end

#500
b11100001101110 aaaaa
1aaaai

#1000
0aaaai

#1500
1aaaad
1aaaai

#2000
0aaaai

#2500
1aaaai

#3000
0aaaai

#3500
0aaaah
1aaaai

#4000
0aaaai

#4500
1aaaag
1aaaai

#5000
0aaaai

#5500
1aaaai

#6000
0aaaai

#6500
0aaaad
1aaaai

#7000
0aaaai

#7500
1aaaai

#8000
0aaaai

#8500
1aaaai

#9000
0aaaai

#9500
1aaaai

#10000
0aaaai

#10500
1aaaai

#11000
0aaaai

#11500
1aaaai

#12000
0aaaai

#12500
1aaaai

#13000
0aaaai

#13500
1aaaai

#14000
0aaaai

#14500
1aaaai

#15000
0aaaai

#15500
1aaaai

#16000
0aaaai

#16500
1aaaai

#17000
0aaaai

#17500
1aaaai

#18000
0aaaai

#18500
b0 aaaaa
1aaaai

#19000
0aaaai

#19500
1aaaai

#20000
0aaaai

#20500
1aaaai

#21000
0aaaai

#21500
1aaaai

#22000
0aaaai

#22500
1aaaai

#23000
0aaaai

#23500
b1010010100 aaaaa
1aaaai

#24000
0aaaai

#24500
b1001000000010 aaaaa
1aaaai

#25000
0aaaai

#25500
b1101000111110 aaaaa
1aaaai

#26000
0aaaai

#26500
b10011000010000 aaaaa
1aaaai

#27000
0aaaai

#27500
b11000101111101 aaaaa
1aaaai

#28000
0aaaai

#28500
b11001111101101 aaaaa
1aaaai

#29000
0aaaai

#29500
b11011011100001 aaaaa
1aaaab
1aaaac
1aaaae
1aaaai

#30000
0aaaai

#30500
0aaaab
0aaaac
0aaaae
b10100101 aaaaf
1aaaai

#31000
0aaaai

#31500
b10101101001000 aaaaa
1aaaai

#32000
0aaaai

#32500
b11000011000100 aaaaa
1aaaai

#33000
0aaaai

#33500
b11000110010100 aaaaa
1aaaab
1aaaac
1aaaae
1aaaai

#34000
0aaaai

#34500
0aaaab
0aaaac
0aaaae
b110101 aaaaf
1aaaai

#35000
0aaaai

#35500
b10010011101100 aaaaa
1aaaai

#36000
0aaaai

#36500
b10100100011000 aaaaa
1aaaai

#37000
0aaaai

#37500
b10101011101100 aaaaa
1aaaab
1aaaac
1aaaae
1aaaai

#38000
0aaaai

#38500
0aaaab
0aaaac
0aaaae
b10011110 aaaaf
1aaaai

#39000
0aaaai

#39500
b1111101001100 aaaaa
1aaaai

#40000
0aaaai

#40500
b10001000110100 aaaaa
1aaaai

#41000
0aaaai

#41500
b10001110011000 aaaaa
1aaaab
1aaaac
1aaaae
1aaaai

#42000
0aaaai

#42500
0aaaab
0aaaac
0aaaae
b1101100 aaaaf
1aaaai

#43000
0aaaai

#43500
b1101001110000 aaaaa
1aaaai

#44000
0aaaai

#44500
b10000111011000 aaaaa
1aaaai

#45000
0aaaai

#45500
b10001011010000 aaaaa
1aaaab
1aaaac
1aaaae
1aaaai

#46000
0aaaai

#46500
0aaaab
0aaaac
0aaaae
b1011111 aaaaf
1aaaai

#47000
0aaaai

#47500
b10010000101111 aaaaa
1aaaai

#48000
0aaaai

#48500
b10011011000011 aaaaa
1aaaai

#49000
0aaaai

#49500
b10100100111011 aaaaa
1aaaab
1aaaac
1aaaae
1aaaai

#50000
0aaaai

#50500
0aaaab
0aaaac
0aaaae
b1100000 aaaaf
1aaaai

#51000
0aaaai

#51500
b11001011101110 aaaaa
1aaaai

#52000
0aaaai

#52500
1aaaai

#53000
0aaaai

#53500
b11001111001010 aaaaa
1aaaab
1aaaac
1aaaae
1aaaai

#54000
0aaaai

#54500
0aaaab
0aaaac
0aaaae
b111001 aaaaf
1aaaai

#55000
0aaaai

#55500
b11110010100011 aaaaa
1aaaai

#56000
0aaaai

#56500
1aaaai

#57000
0aaaai

#57500
1aaaab
1aaaac
1aaaae
1aaaai

#58000
0aaaai

#58500
0aaaab
0aaaac
0aaaae
b1101101 aaaaf
1aaaai

#59000
0aaaai

#59500
b11011100101100 aaaaa
1aaaai

#60000
0aaaai

#60500
b11111011101000 aaaaa
1aaaai

#61000
0aaaai

#61500
1aaaab
1aaaac
1aaaae
1aaaai

#62000
0aaaai

#62500
0aaaab
0aaaac
0aaaae
b1101011 aaaaf
1aaaai

#63000
0aaaai

#63500
b11100000100100 aaaaa
1aaaai

#64000
0aaaai

#64500
b11101010100000 aaaaa
1aaaai

#65000
0aaaai

#65500
b11110100110100 aaaaa
1aaaab
1aaaac
1aaaae
1aaaai

#66000
0aaaai

#66500
0aaaab
0aaaac
0aaaae
b1011101 aaaaf
1aaaai

#67000
0aaaai

#67500
b11000001000011 aaaaa
1aaaai

#68000
0aaaai

#68500
b11011110101011 aaaaa
1aaaai

#69000
0aaaai

#69500
b11100001111111 aaaaa
1aaaab
1aaaac
1aaaae
1aaaai

#70000
0aaaai

#70500
0aaaab
0aaaac
0aaaae
b1001111 aaaaf
1aaaai

#71000
0aaaai

#71500
b10111010110110 aaaaa
1aaaai

#72000
0aaaai

#72500
b11001111000110 aaaaa
1aaaai

#73000
0aaaai

#73500
b11011000111110 aaaaa
1aaaab
1aaaac
1aaaae
1aaaai

#74000
0aaaai

#74500
0aaaab
0aaaac
0aaaae
b1110110 aaaaf
1aaaai

#75000
0aaaai

#75500
b10111101110111 aaaaa
1aaaai

#76000
0aaaai

#76500
b11001111101011 aaaaa
1aaaai

#77000
0aaaai

#77500
b11010110011011 aaaaa
1aaaab
1aaaac
1aaaae
1aaaai

#78000
0aaaai

#78500
0aaaab
0aaaac
0aaaae
b110010 aaaaf
1aaaai

#79000
0aaaai

#79500
b11000011100010 aaaaa
1aaaai

#80000
0aaaai

#80500
b11010101100010 aaaaa
1aaaai

#81000
0aaaai

#81500
b11011011011110 aaaaa
1aaaab
1aaaac
1aaaae
1aaaai

#82000
0aaaai

#82500
0aaaab
0aaaac
0aaaae
b10001001 aaaaf
1aaaai

#83000
0aaaai

#83500
b11001100111100 aaaaa
1aaaai

#84000
0aaaai

#84500
b11010111101000 aaaaa
1aaaai

#85000
0aaaai

#85500
b11011101101000 aaaaa
1aaaab
1aaaac
1aaaae
1aaaai

#86000
0aaaai

#86500
0aaaab
0aaaac
0aaaae
b1000001 aaaaf
1aaaai

#87000
0aaaai

#87500
b11000101001101 aaaaa
1aaaai

#88000
0aaaai

#88500
b11011001101001 aaaaa
1aaaai

#89000
0aaaai

#89500
b11011101001101 aaaaa
1aaaab
1aaaac
1aaaae
1aaaai

#90000
0aaaai

#90500
0aaaab
0aaaac
0aaaae
b10001100 aaaaf
1aaaai

#91000
0aaaai

#91500
b10111110010001 aaaaa
1aaaai

#92000
0aaaai

#92500
b11010010010101 aaaaa
1aaaai

#93000
0aaaai

#93500
b11011001001001 aaaaa
1aaaab
1aaaac
1aaaae
1aaaai

#94000
0aaaai

#94500
0aaaab
0aaaac
0aaaae
b10010110 aaaaf
1aaaai

#95000
0aaaai

#95500
b11000010100100 aaaaa
1aaaai

#96000
0aaaai

#96500
b11010100000000 aaaaa
1aaaai

#97000
0aaaai

#97500
b11011010101100 aaaaa
1aaaab
1aaaac
1aaaae
1aaaai

#98000
0aaaai

#98500
0aaaab
0aaaac
0aaaae
b1001110 aaaaf
1aaaai

#99000
0aaaai

#99500
b11001110011101 aaaaa
1aaaai

#100000
0aaaai

#100500
b11011101010001 aaaaa
1aaaai

#101000
0aaaai

#101500
b11100011000101 aaaaa
1aaaab
1aaaac
1aaaae
1aaaai

#102000
0aaaai

#102500
0aaaab
0aaaac
0aaaae
b10101101 aaaaf
1aaaai

#103000
0aaaai

#103500
b11010110100010 aaaaa
1aaaai

#104000
0aaaai

#104500
b11101100101010 aaaaa
1aaaai

#105000
0aaaai

#105500
b11110001100110 aaaaa
1aaaab
1aaaac
1aaaae
1aaaai

#106000
0aaaai

#106500
0aaaab
0aaaac
0aaaae
b101010 aaaaf
1aaaai

#107000
0aaaai

#107500
b11110110011101 aaaaa
1aaaai

#108000
0aaaai

#108500
b11111111110101 aaaaa
1aaaai

#109000
0aaaai

#109500
b100000111001101 aaaaa
1aaaab
1aaaac
1aaaae
1aaaai

#110000
0aaaai

#110500
0aaaab
0aaaac
0aaaae
b10001100 aaaaf
1aaaai

#111000
0aaaai

#111500
b11110100111111 aaaaa
1aaaai

#112000
0aaaai

#112500
b100001110101011 aaaaa
1aaaai

#113000
0aaaai

#113500
b100010001110011 aaaaa
1aaaab
1aaaac
1aaaae
1aaaai

#114000
0aaaai

#114500
0aaaab
0aaaac
0aaaae
b1101100 aaaaf
1aaaai

#115000
0aaaai

#115500
b100000100000001 aaaaa
1aaaai

#116000
0aaaai

#116500
b100010000001101 aaaaa
1aaaai

#117000
0aaaai

#117500
b100011000110001 aaaaa
1aaaab
1aaaac
1aaaae
1aaaai

#118000
0aaaai

#118500
0aaaab
0aaaac
0aaaae
b1100111 aaaaf
1aaaai

#119000
0aaaai

#119500
b11110001010110 aaaaa
1aaaai

#120000
0aaaai

#120500
b100001011100110 aaaaa
1aaaai

#121000
0aaaai

#121500
b100001111101010 aaaaa
1aaaab
1aaaac
1aaaae
1aaaai

#122000
0aaaai

#122500
0aaaab
0aaaac
0aaaae
b10001011 aaaaf
1aaaai

#123000
0aaaai

#123500
b11100010000100 aaaaa
1aaaai

#124000
0aaaai

#124500
b11111110001100 aaaaa
1aaaai

#125000
0aaaai

#125500
b100000110111100 aaaaa
1aaaab
1aaaac
1aaaae
1aaaai

#126000
0aaaai

#126500
0aaaab
0aaaac
0aaaae
b111101 aaaaf
1aaaai

#127000
0aaaai

#127500
b11101010011101 aaaaa
1aaaai

#128000
0aaaai

#128500
b11111001000101 aaaaa
1aaaai

#129000
0aaaai

#129500
b100000010011101 aaaaa
1aaaab
1aaaac
1aaaae
1aaaai

#130000
0aaaai

#130500
0aaaab
0aaaac
0aaaae
b10011010 aaaaf
1aaaai

#131000
0aaaai

#131500
b11011010010001 aaaaa
1aaaai

#132000
0aaaai

#132500
b11111010101101 aaaaa
1aaaai

#133000
0aaaai

#133500
b11111111100101 aaaaa
1aaaab
1aaaac
1aaaae
1aaaai

#134000
0aaaai

#134500
0aaaab
0aaaac
0aaaae
b1001011 aaaaf
1aaaai

#135000
0aaaai

#135500
b11110010001001 aaaaa
1aaaai

#136000
0aaaai

#136500
b11111010000001 aaaaa
1aaaai

#137000
0aaaai

#137500
b100000100110101 aaaaa
1aaaab
1aaaac
1aaaae
1aaaai

#138000
0aaaai

#138500
0aaaab
0aaaac
0aaaae
b10000100 aaaaf
1aaaai

#139000
0aaaai

#139500
b11100100001001 aaaaa
1aaaai

#140000
0aaaai

#140500
b11111110011001 aaaaa
1aaaai

#141000
0aaaai

#141500
b100000001000001 aaaaa
1aaaab
1aaaac
1aaaae
1aaaai

#142000
0aaaai

#142500
0aaaab
0aaaac
0aaaae
b1111111 aaaaf
1aaaai

#143000
0aaaai

#143500
b11100100111101 aaaaa
1aaaai

#144000
0aaaai

#144500
b11111001001101 aaaaa
1aaaai

#145000
0aaaai

#145500
b100000001111101 aaaaa
1aaaab
1aaaac
1aaaae
1aaaai

#146000
0aaaai

#146500
0aaaab
0aaaac
0aaaae
b1101101 aaaaf
1aaaai

#147000
0aaaai

#147500
b11100110100000 aaaaa
1aaaai

#148000
0aaaai

#148500
b11111001110100 aaaaa
1aaaai

#149000
0aaaai

#149500
b100000000100100 aaaaa
1aaaab
1aaaac
1aaaae
1aaaai

#150000
0aaaai

#150500
0aaaab
0aaaac
0aaaae
b10001101 aaaaf
1aaaai

#151000
0aaaai

#151500
b11100011101011 aaaaa
1aaaai

#152000
0aaaai

#152500
b11111101101111 aaaaa
1aaaai

#153000
0aaaai

#153500
b100000100001011 aaaaa
1aaaab
1aaaac
1aaaae
1aaaai

#154000
0aaaai

#154500
0aaaab
0aaaac
0aaaae
b1100010 aaaaf
1aaaai

#155000
0aaaai

#155500
b11111000111111 aaaaa
1aaaai

#156000
0aaaai

#156500
b100000100011011 aaaaa
1aaaai

#157000
0aaaai

#157500
b100001101000111 aaaaa
1aaaab
1aaaac
1aaaae
1aaaai

#158000
0aaaai

#158500
0aaaab
0aaaac
0aaaae
b1100110 aaaaf
1aaaai

#159000
0aaaai

#159500
b11110010000010 aaaaa
1aaaai

#160000
0aaaai

#160500
b100001110111010 aaaaa
1aaaai

#161000
0aaaai

#161500
b100010010101110 aaaaa
1aaaab
1aaaac
1aaaae
1aaaai

#162000
0aaaai

#162500
0aaaab
0aaaac
0aaaae
b1101010 aaaaf
1aaaai

#163000
0aaaai

#163500
b100000000110001 aaaaa
1aaaai

#164000
0aaaai

#164500
b100001110110101 aaaaa
1aaaai

#165000
0aaaai

#165500
b100011000011101 aaaaa
1aaaab
1aaaac
1aaaae
1aaaai

#166000
0aaaai

#166500
0aaaab
0aaaac
0aaaae
b1100100 aaaaf
1aaaai

#167000
0aaaai

#167500
b11110110011101 aaaaa
1aaaai

#168000
0aaaai

#168500
b100001111001101 aaaaa
1aaaai

#169000
0aaaai

#169500
b100010011111001 aaaaa
1aaaab
1aaaac
1aaaae
1aaaai

#170000
0aaaai

#170500
0aaaab
0aaaac
0aaaae
b1100011 aaaaf
1aaaai

#171000
0aaaai

#171500
b11101011100001 aaaaa
1aaaai

#172000
0aaaai

#172500
b100000011010101 aaaaa
1aaaai

#173000
0aaaai

#173500
b100001011100101 aaaaa
1aaaab
1aaaac
1aaaae
1aaaai

#174000
0aaaai

#174500
0aaaab
0aaaac
0aaaae
b10001000 aaaaf
1aaaai

#175000
0aaaai

#175500
b11100011101011 aaaaa
1aaaai

#176000
0aaaai

#176500
b11111000000111 aaaaa
1aaaai

#177000
0aaaai

#177500
b100000000000011 aaaaa
1aaaab
1aaaac
1aaaae
1aaaai

#178000
0aaaai

#178500
0aaaab
0aaaac
0aaaae
b1000101 aaaaf
1aaaai

#179000
0aaaai

#179500
b11010110111010 aaaaa
1aaaai

#180000
0aaaai

#180500
b11110001010110 aaaaa
1aaaai

#181000
0aaaai

#181500
b11111000001010 aaaaa
1aaaab
1aaaac
1aaaae
1aaaai

#182000
0aaaai

#182500
0aaaab
0aaaac
0aaaae
b10011100 aaaaf
1aaaai

#183000
0aaaai

#183500
b11011001110001 aaaaa
1aaaai

#184000
0aaaai

#184500
b11101100001001 aaaaa
1aaaai

#185000
0aaaai

#185500
b11110100111101 aaaaa
1aaaab
1aaaac
1aaaae
1aaaai

#186000
0aaaai

#186500
0aaaab
0aaaac
0aaaae
b1001010 aaaaf
1aaaai

#187000
0aaaai

#187500
b11011110111100 aaaaa
1aaaai

#188000
0aaaai

#188500
b11110010000100 aaaaa
1aaaai

#189000
0aaaai

#189500
b11111000001100 aaaaa
1aaaab
1aaaac
1aaaae
1aaaai

#190000
0aaaai

#190500
0aaaab
0aaaac
0aaaae
b1010011 aaaaf
1aaaai

#191000
0aaaai

#191500
b11100000101111 aaaaa
1aaaai

#192000
0aaaai

#192500
b11110100100111 aaaaa
1aaaai

#193000
0aaaai

#193500
b11111010111111 aaaaa
1aaaab
1aaaac
1aaaae
1aaaai

#194000
0aaaai

#194500
0aaaab
0aaaac
0aaaae
b10101100 aaaaf
1aaaai

#195000
0aaaai

#195500
b11100011100101 aaaaa
1aaaai

#196000
0aaaai

#196500
b11110110010101 aaaaa
1aaaai

#197000
0aaaai

#197500
b11111100111101 aaaaa
1aaaab
1aaaac
1aaaae
1aaaai

#198000
0aaaai

#198500
0aaaab
0aaaac
0aaaae
b101110 aaaaf
1aaaai

#199000
0aaaai

#199500
b11100011111000 aaaaa
1aaaai

#200000
0aaaai

#200500
b11110110011100 aaaaa
1aaaai

#201000
0aaaai

#201500
b11111100101100 aaaaa
1aaaab
1aaaac
1aaaae
1aaaai

#202000
0aaaai

#202500
0aaaab
0aaaac
0aaaae
b11000010 aaaaf
1aaaai

#203000
0aaaai

#203500
b11011000101100 aaaaa
1aaaai

#204000
0aaaai

#204500
b11110010001100 aaaaa
1aaaai

#205000
0aaaai

#205500
b11111000011000 aaaaa
1aaaab
1aaaac
1aaaae
1aaaai

#206000
0aaaai

#206500
0aaaab
0aaaac
0aaaae
b1001010 aaaaf
1aaaai

#207000
0aaaai

#207500
b11101000010010 aaaaa
1aaaai

#208000
0aaaai

#208500
b11110101001110 aaaaa
1aaaai

#209000
0aaaai

#209500
b11111101101110 aaaaa
1aaaab
1aaaac
1aaaae
1aaaai

#210000
0aaaai

#210500
0aaaab
0aaaac
0aaaae
b1101111 aaaaf
1aaaai

#211000
0aaaai

#211500
b11011111010110 aaaaa
1aaaai

#212000
0aaaai

#212500
b11111100100110 aaaaa
1aaaai

#213000
0aaaai

#213500
b100000000111010 aaaaa
1aaaab
1aaaac
1aaaae
1aaaai

#214000
0aaaai

#214500
0aaaab
0aaaac
0aaaae
b1100110 aaaaf
1aaaai

#215000
0aaaai

#215500
b11110100110101 aaaaa
1aaaai

#216000
0aaaai

#216500
b100000010101101 aaaaa
1aaaai

#217000
0aaaai

#217500
b100001100011101 aaaaa
1aaaab
1aaaac
1aaaae
1aaaai

#218000
0aaaai

#218500
0aaaab
0aaaac
0aaaae
b1000001 aaaaf
1aaaai

#219000
0aaaai

#219500
b11111010110010 aaaaa
1aaaai

#220000
0aaaai

#220500
b100001010010110 aaaaa
1aaaai

#221000
0aaaai

#221500
b100001110111110 aaaaa
1aaaab
1aaaac
1aaaae
1aaaai

#222000
0aaaai

#222500
0aaaab
0aaaac
0aaaae
b10001000 aaaaf
1aaaai

#223000
0aaaai

#223500
b11100010111001 aaaaa
1aaaai

#224000
0aaaai

#224500
b100000011001001 aaaaa
1aaaai

#225000
0aaaai

#225500
b100001000010101 aaaaa
1aaaab
1aaaac
1aaaae
1aaaai

#226000
0aaaai

#226500
0aaaab
0aaaac
0aaaae
b1000111 aaaaf
1aaaai

#227000
0aaaai

#227500
b11101010100110 aaaaa
1aaaai

#228000
0aaaai

#228500
b11110011001110 aaaaa
1aaaai

#229000
0aaaai

#229500
b11111101111110 aaaaa
1aaaab
1aaaac
1aaaae
1aaaai

#230000
0aaaai

#230500
0aaaab
0aaaac
0aaaae
b10001001 aaaaf
1aaaai

#231000
0aaaai

#231500
b11000101011001 aaaaa
1aaaai

#232000
0aaaai

#232500
b11101001110001 aaaaa
1aaaai

#233000
0aaaai

#233500
b11101100101001 aaaaa
1aaaab
1aaaac
1aaaae
1aaaai

#234000
0aaaai

#234500
0aaaab
0aaaac
0aaaae
b1100010 aaaaf
1aaaai

#235000
0aaaai

#235500
b11001111000101 aaaaa
1aaaai

#236000
0aaaai

#236500
b11011100111101 aaaaa
1aaaai

#237000
0aaaai

#237500
b11101001000101 aaaaa
1aaaab
1aaaac
1aaaae
1aaaai

#238000
0aaaai

#238500
0aaaab
0aaaac
0aaaae
b1001010 aaaaf
1aaaai

#239000
0aaaai

#239500
b11001110001011 aaaaa
1aaaai

#240000
0aaaai

#240500
b11100010111111 aaaaa
1aaaai

#241000
0aaaai

#241500
b11100111100111 aaaaa
1aaaab
1aaaac
1aaaae
1aaaai

#242000
0aaaai

#242500
0aaaab
0aaaac
0aaaae
b1101111 aaaaf
1aaaai

#243000
0aaaai

#243500
b11010011111000 aaaaa
1aaaai

#244000
0aaaai

#244500
b11100111000000 aaaaa
1aaaai

#245000
0aaaai

#245500
b11101101111100 aaaaa
1aaaab
1aaaac
1aaaae
1aaaai

#246000
0aaaai

#246500
0aaaab
0aaaac
0aaaae
b1011011 aaaaf
1aaaai

#247000
0aaaai

#247500
b11011110101110 aaaaa
1aaaai

#248000
0aaaai

#248500
b11101010111010 aaaaa
1aaaai

#249000
0aaaai

#249500
b11110001010010 aaaaa
1aaaab
1aaaac
1aaaae
1aaaai

#250000
0aaaai

#250500
0aaaab
0aaaac
0aaaae
b1111010 aaaaf
1aaaai

#251000
0aaaai

#251500
b11001111111111 aaaaa
1aaaai

#252000
0aaaai

#252500
b11101001011111 aaaaa
1aaaai

#253000
0aaaai

#253500
b11101101100011 aaaaa
1aaaab
1aaaac
1aaaae
1aaaai

#254000
0aaaai

#254500
0aaaab
0aaaac
0aaaae
b1110110 aaaaf
1aaaai

#255000
0aaaai

#255500
b11010100111100 aaaaa
1aaaai

#256000
0aaaai

#256500
b11100010010000 aaaaa
1aaaai

#257000
0aaaai

#257500
b11101010110000 aaaaa
1aaaab
1aaaac
1aaaae
1aaaai

#258000
0aaaai

#258500
0aaaab
0aaaac
0aaaae
b1101000 aaaaf
1aaaai

#259000
0aaaai

#259500
b11001010010111 aaaaa
1aaaai

#260000
0aaaai

#260500
b11100100000011 aaaaa
1aaaai

#261000
0aaaai

#261500
b11101000011111 aaaaa
1aaaab
1aaaac
1aaaae
1aaaai

#262000
0aaaai

#262500
0aaaab
0aaaac
0aaaae
b1100111 aaaaf
1aaaai

#263000
0aaaai

#263500
b11010100100000 aaaaa
1aaaai

#264000
0aaaai

#264500
b11100110111000 aaaaa
1aaaai

#265000
0aaaai

#265500
b11101111011100 aaaaa
1aaaab
1aaaac
1aaaae
1aaaai

#266000
0aaaai

#266500
0aaaab
0aaaac
0aaaae
b10000100 aaaaf
1aaaai

#267000
0aaaai

#267500
b11100100100011 aaaaa
1aaaai

#268000
0aaaai

#268500
b11110010011011 aaaaa
1aaaai

#269000
0aaaai

#269500
b11111000100011 aaaaa
1aaaab
1aaaac
1aaaae
1aaaai

#270000
0aaaai

#270500
0aaaab
0aaaac
0aaaae
b1000101 aaaaf
1aaaai

#271000
0aaaai

#271500
b11100111001111 aaaaa
1aaaai

#272000
0aaaai

#272500
b11111100000011 aaaaa
1aaaai

#273000
0aaaai

#273500
b100000000101011 aaaaa
1aaaab
1aaaac
1aaaae
1aaaai

#274000
0aaaai

#274500
0aaaab
0aaaac
0aaaae
b1111001 aaaaf
1aaaai

#275000
0aaaai

#275500
b11101010111001 aaaaa
1aaaai

#276000
0aaaai

#276500
b11111011111101 aaaaa
1aaaai

#277000
0aaaai

#277500
b100000010111001 aaaaa
1aaaab
1aaaac
1aaaae
1aaaai

#278000
0aaaai

#278500
0aaaab
0aaaac
0aaaae
b1000110 aaaaf
1aaaai

#279000
0aaaai

#279500
b11100100001000 aaaaa
1aaaai

#280000
0aaaai

#280500
b11111011000000 aaaaa
1aaaai

#281000
0aaaai

#281500
b100000000101100 aaaaa
1aaaab
1aaaac
1aaaae
1aaaai

#282000
0aaaai

#282500
0aaaab
0aaaac
0aaaae
b1111110 aaaaf
1aaaai

#283000
0aaaai

#283500
b11011011011111 aaaaa
1aaaai

#284000
0aaaai

#284500
b11110001100111 aaaaa
1aaaai

#285000
0aaaai

#285500
b11111001001111 aaaaa
1aaaab
1aaaac
1aaaae
1aaaai

#286000
0aaaai

#286500
0aaaab
0aaaac
0aaaae
b10001100 aaaaf
1aaaai

#287000
0aaaai

#287500
b11010111010010 aaaaa
1aaaai

#288000
0aaaai

#288500
b11101010110010 aaaaa
1aaaai

#289000
0aaaai

#289500
b11110010001010 aaaaa
1aaaab
1aaaac
1aaaae
1aaaai

#290000
0aaaai

#290500
0aaaab
0aaaac
0aaaae
b1000010 aaaaf
1aaaai

#291000
0aaaai

#291500
b11010100001110 aaaaa
1aaaai

#292000
0aaaai

#292500
b11100111100010 aaaaa
1aaaai

#293000
0aaaai

#293500
b11101110000010 aaaaa
1aaaab
1aaaac
1aaaae
1aaaai

#294000
0aaaai

#294500
0aaaab
0aaaac
0aaaae
b10011110 aaaaf
1aaaai

#295000
0aaaai

#295500
b11010000000001 aaaaa
1aaaai

#296000
0aaaai

#296500
b11101000110001 aaaaa
1aaaai

#297000
0aaaai

#297500
b11101111001101 aaaaa
1aaaab
1aaaac
1aaaae
1aaaai

#298000
0aaaai

#298500
0aaaab
0aaaac
0aaaae
b110000 aaaaf
1aaaai

#299000
0aaaai

#299500
b11100100010101 aaaaa
1aaaai

#300000
0aaaai

#300500
b11110001010001 aaaaa
1aaaai

#301000
0aaaai

#301500
b11111001100001 aaaaa
1aaaab
1aaaac
1aaaae
1aaaai

#302000
0aaaai

#302500
0aaaab
0aaaac
0aaaae
b10011011 aaaaf
1aaaai

#303000
0aaaai

#303500
b11100011000100 aaaaa
1aaaai

#304000
0aaaai

#304500
b11111001110000 aaaaa
1aaaai

#305000
0aaaai

#305500
b11111110000100 aaaaa
1aaaab
1aaaac
1aaaae
1aaaai

#306000
0aaaai

#306500
0aaaab
0aaaac
0aaaae
b1100010 aaaaf
1aaaai

#307000
0aaaai

#307500
b11101111000100 aaaaa
1aaaai

#308000
0aaaai

#308500
b11111100001100 aaaaa
1aaaai

#309000
0aaaai

#309500
b100000011110000 aaaaa
1aaaab
1aaaac
1aaaae
1aaaai

#310000
0aaaai

#310500
0aaaab
0aaaac
0aaaae
b1011000 aaaaf
1aaaai

#311000
0aaaai

#311500
b11100011101000 aaaaa
1aaaai

#312000
0aaaai

#312500
b11111011010000 aaaaa
1aaaai

#313000
0aaaai

#313500
b11111111101000 aaaaa
1aaaab
1aaaac
1aaaae
1aaaai

#314000
0aaaai

#314500
0aaaab
0aaaac
0aaaae
b10000011 aaaaf
1aaaai

#315000
0aaaai

#315500
b11011011101001 aaaaa
1aaaai

#316000
0aaaai

#316500
b11110101111001 aaaaa
1aaaai

#317000
0aaaai

#317500
b11111101110001 aaaaa
1aaaab
1aaaac
1aaaae
1aaaai

#318000
0aaaai

#318500
0aaaab
0aaaac
0aaaae
b111000 aaaaf
1aaaai

#319000
0aaaai

#319500
b11101000100010 aaaaa
1aaaai

#320000
0aaaai

#320500
b11110100111010 aaaaa
1aaaai

#321000
0aaaai

#321500
b11111101101010 aaaaa
1aaaab
1aaaac
1aaaae
1aaaai

#322000
0aaaai

#322500
0aaaab
0aaaac
0aaaae
b1111000 aaaaf
1aaaai

#323000
0aaaai

#323500
b11010111100110 aaaaa
1aaaai

#324000
0aaaai

#324500
b11110101001110 aaaaa
1aaaai

#325000
0aaaai

#325500
b11111001010110 aaaaa
1aaaab
1aaaac
1aaaae
1aaaai

#326000
0aaaai

#326500
0aaaab
0aaaac
0aaaae
b1001100 aaaaf
1aaaai

#327000
0aaaai

#327500
b11100100100010 aaaaa
1aaaai

#328000
0aaaai

#328500
b11101101100010 aaaaa
1aaaai

#329000
0aaaai

#329500
b11110111011010 aaaaa
1aaaab
1aaaac
1aaaae
1aaaai

#330000
0aaaai

#330500
0aaaab
0aaaac
0aaaae
b1011001 aaaaf
1aaaai

#331000
0aaaai

#331500
b11001011110000 aaaaa
1aaaai

#332000
0aaaai

#332500
b11101000110100 aaaaa
1aaaai

#333000
0aaaai

#333500
b11101011110100 aaaaa
1aaaab
1aaaac
1aaaae
1aaaai

#334000
0aaaai

#334500
0aaaab
0aaaac
0aaaae
b1110100 aaaaf
1aaaai

#335000
0aaaai

#335500
b11001000011010 aaaaa
1aaaai

#336000
0aaaai

#336500
b11011010110010 aaaaa
1aaaai

#337000
0aaaai

#337500
b11100100011110 aaaaa
1aaaab
1aaaac
1aaaae
1aaaai

#338000
0aaaai

#338500
0aaaab
0aaaac
0aaaae
b1011000 aaaaf
1aaaai

#339000
0aaaai

#339500
b11000110010011 aaaaa
1aaaai

#340000
0aaaai

#340500
b11010110110011 aaaaa
1aaaai

#341000
0aaaai

#341500
b11011100111011 aaaaa
1aaaab
1aaaac
1aaaae
1aaaai

#342000
0aaaai

#342500
0aaaab
0aaaac
0aaaae
b1111111 aaaaf
1aaaai

#343000
0aaaai

#343500
b10111100000001 aaaaa
1aaaai

#344000
0aaaai

#344500
b11010100100101 aaaaa
1aaaai

#345000
0aaaai

#345500
b11011010000101 aaaaa
1aaaab
1aaaac
1aaaae
1aaaai

#346000
0aaaai

#346500
0aaaab
0aaaac
0aaaae
b1011011 aaaaf
1aaaai

#347000
0aaaai

#347500
b11001100010010 aaaaa
1aaaai

#348000
0aaaai

#348500
b11010110110010 aaaaa
1aaaai

#349000
0aaaai

#349500
b11011110111110 aaaaa
1aaaab
1aaaac
1aaaae
1aaaai

#350000
0aaaai

#350500
0aaaab
0aaaac
0aaaae
b1010101 aaaaf
1aaaai

#351000
0aaaai

#351500
b11001010011110 aaaaa
1aaaai

#352000
0aaaai

#352500
b11100000111110 aaaaa
1aaaai

#353000
0aaaai

#353500
b11100100011110 aaaaa
1aaaab
1aaaac
1aaaae
1aaaai

#354000
0aaaai

#354500
0aaaab
0aaaac
0aaaae
b1101011 aaaaf
1aaaai

#355000
0aaaai

#355500
b11010111001000 aaaaa
1aaaai

#356000
0aaaai

#356500
b11100101011000 aaaaa
1aaaai

#357000
0aaaai

#357500
b11101100111000 aaaaa
1aaaab
1aaaac
1aaaae
1aaaai

#358000
0aaaai

#358500
0aaaab
0aaaac
0aaaae
b1111001 aaaaf
1aaaai

#359000
0aaaai

#359500
b11011001101101 aaaaa
1aaaai

#360000
0aaaai

#360500
b11101010011001 aaaaa
1aaaai

#361000
0aaaai

#361500
b11101111001001 aaaaa
1aaaab
1aaaac
1aaaae
1aaaai

#362000
0aaaai

#362500
0aaaab
0aaaac
0aaaae
b1100011 aaaaf
1aaaai

#363000
0aaaai

#363500
b11010011000001 aaaaa
1aaaai

#364000
0aaaai

