Projects/HLS/FIR8/emulation/sc_FIR8_TB.vcd
$date
     Oct 18, 2025       20:56:45
$end

$version
 SystemC 3.0.2-Accellera --- Jun 13 2025 17:49:45
$end

$timescale
     100 ps
$end

$scope module SystemC $end
$var wire    1  aaaaa  ap_clk       $end
$var wire    1  aaaab  ap_rst       $end
$var wire    1  aaaac  ap_start       $end
$var wire    1  aaaad  ap_done       $end
$var wire    1  aaaae  ap_idle       $end
$var wire    1  aaaaf  ap_ready       $end
$var wire    1  aaaag  y_ap_vld       $end
$var wire    8  aaaah  x [7:0]  $end
$var wire   16  aaaai  y [15:0]  $end
$upscope $end
$enddefinitions  $end

$comment
All initial values are dumped below at time 0 sec = 0 timescale units.
$end

$dumpvars
0aaaaa
1aaaab
0aaaac
0aaaad
0aaaae
0aaaaf
0aaaag
b0 aaaah
b0 aaaai
$end

#500
1aaaaa
b11100001101110 aaaai

#1000
0aaaaa

#1500
1aaaaa
1aaaae

#2000
0aaaaa

#2500
1aaaaa

#3000
0aaaaa

#3500
1aaaaa
0aaaab

#4000
0aaaaa

#4500
1aaaaa
1aaaac

#5000
0aaaaa

#5500
1aaaaa

#6000
0aaaaa

#6500
1aaaaa
0aaaae

#7000
0aaaaa

#7500
1aaaaa

#8000
0aaaaa

#8500
1aaaaa

#9000
0aaaaa

#9500
1aaaaa

#10000
0aaaaa

#10500
1aaaaa

#11000
0aaaaa

#11500
1aaaaa

#12000
0aaaaa

#12500
1aaaaa

#13000
0aaaaa

#13500
1aaaaa

#14000
0aaaaa

#14500
1aaaaa

#15000
0aaaaa

#15500
1aaaaa

#16000
0aaaaa

#16500
1aaaaa

#17000
0aaaaa

#17500
1aaaaa

#18000
0aaaaa

#18500
1aaaaa
b0 aaaai

#19000
0aaaaa

#19500
1aaaaa

#20000
0aaaaa

#20500
1aaaaa

#21000
0aaaaa

#21500
1aaaaa

#22000
0aaaaa

#22500
1aaaaa

#23000
0aaaaa

#23500
1aaaaa
b1010010100 aaaai

#24000
0aaaaa

#24500
1aaaaa
b1001000000010 aaaai

#25000
0aaaaa

#25500
1aaaaa
b1101000111110 aaaai

#26000
0aaaaa

#26500
1aaaaa
b10011000010000 aaaai

#27000
0aaaaa

#27500
1aaaaa
b11000101111101 aaaai

#28000
0aaaaa

#28500
1aaaaa
b11001111101101 aaaai

#29000
0aaaaa

#29500
1aaaaa
1aaaad
1aaaaf
1aaaag
b11011011100001 aaaai

#30000
0aaaaa

#30500
1aaaaa
0aaaad
0aaaaf
0aaaag
b10100101 aaaah

#31000
0aaaaa

#31500
1aaaaa
b10101101001000 aaaai

#32000
0aaaaa

#32500
1aaaaa
b11000011000100 aaaai

#33000
0aaaaa

#33500
1aaaaa
1aaaad
1aaaaf
1aaaag
b11000110010100 aaaai

#34000
0aaaaa

#34500
1aaaaa
0aaaad
0aaaaf
0aaaag
b110101 aaaah

#35000
0aaaaa

#35500
1aaaaa
b10010011101100 aaaai

#36000
0aaaaa

#36500
1aaaaa
b10100100011000 aaaai

#37000
0aaaaa

#37500
1aaaaa
1aaaad
1aaaaf
1aaaag
b10101011101100 aaaai

#38000
0aaaaa

#38500
1aaaaa
0aaaad
0aaaaf
0aaaag
b10011110 aaaah

#39000
0aaaaa

#39500
1aaaaa
b1111101001100 aaaai

#40000
0aaaaa

#40500
1aaaaa
b10001000110100 aaaai

#41000
0aaaaa

#41500
1aaaaa
1aaaad
1aaaaf
1aaaag
b10001110011000 aaaai

#42000
0aaaaa

#42500
1aaaaa
0aaaad
0aaaaf
0aaaag
b1101100 aaaah

#43000
0aaaaa

#43500
1aaaaa
b1101001110000 aaaai

#44000
0aaaaa

#44500
1aaaaa
b10000111011000 aaaai

#45000
0aaaaa

#45500
1aaaaa
1aaaad
1aaaaf
1aaaag
b10001011010000 aaaai

#46000
0aaaaa

#46500
1aaaaa
0aaaad
0aaaaf
0aaaag
b1011111 aaaah

#47000
0aaaaa

#47500
1aaaaa
b10010000101111 aaaai

#48000
0aaaaa

#48500
1aaaaa
b10011011000011 aaaai

#49000
0aaaaa

#49500
1aaaaa
1aaaad
1aaaaf
1aaaag
b10100100111011 aaaai

#50000
0aaaaa

#50500
1aaaaa
0aaaad
0aaaaf
0aaaag
b1100000 aaaah

#51000
0aaaaa

#51500
1aaaaa
b11001011101110 aaaai

#52000
0aaaaa

#52500
1aaaaa

#53000
0aaaaa

#53500
1aaaaa
1aaaad
1aaaaf
1aaaag
b11001111001010 aaaai

#54000
0aaaaa

#54500
1aaaaa
0aaaad
0aaaaf
0aaaag
b111001 aaaah

#55000
0aaaaa

#55500
1aaaaa
b11110010100011 aaaai

#56000
0aaaaa

#56500
1aaaaa

#57000
0aaaaa

#57500
1aaaaa
1aaaad
1aaaaf
1aaaag

#58000
0aaaaa

#58500
1aaaaa
0aaaad
0aaaaf
0aaaag
b1101101 aaaah

#59000
0aaaaa

#59500
1aaaaa
b11011100101100 aaaai

#60000
0aaaaa

#60500
1aaaaa
b11111011101000 aaaai

#61000
0aaaaa

#61500
1aaaaa
1aaaad
1aaaaf
1aaaag

#62000
0aaaaa

#62500
1aaaaa
0aaaad
0aaaaf
0aaaag
b1101011 aaaah

#63000
0aaaaa

#63500
1aaaaa
b11100000100100 aaaai

#64000
0aaaaa

#64500
1aaaaa
b11101010100000 aaaai

#65000
0aaaaa

#65500
1aaaaa
1aaaad
1aaaaf
1aaaag
b11110100110100 aaaai

#66000
0aaaaa

#66500
1aaaaa
0aaaad
0aaaaf
0aaaag
b1011101 aaaah

#67000
0aaaaa

#67500
1aaaaa
b11000001000011 aaaai

#68000
0aaaaa

#68500
1aaaaa
b11011110101011 aaaai

#69000
0aaaaa

#69500
1aaaaa
1aaaad
1aaaaf
1aaaag
b11100001111111 aaaai

#70000
0aaaaa

#70500
1aaaaa
0aaaad
0aaaaf
0aaaag
b1001111 aaaah

#71000
0aaaaa

#71500
1aaaaa
b10111010110110 aaaai

#72000
0aaaaa

#72500
1aaaaa
b11001111000110 aaaai

#73000
0aaaaa

#73500
1aaaaa
1aaaad
1aaaaf
1aaaag
b11011000111110 aaaai

#74000
0aaaaa

#74500
1aaaaa
0aaaad
0aaaaf
0aaaag
b1110110 aaaah

#75000
0aaaaa

#75500
1aaaaa
b10111101110111 aaaai

#76000
0aaaaa

#76500
1aaaaa
b11001111101011 aaaai

#77000
0aaaaa

#77500
1aaaaa
1aaaad
1aaaaf
1aaaag
b11010110011011 aaaai

#78000
0aaaaa

#78500
1aaaaa
0aaaad
0aaaaf
0aaaag
b110010 aaaah

#79000
0aaaaa

#79500
1aaaaa
b11000011100010 aaaai

#80000
0aaaaa

#80500
1aaaaa
b11010101100010 aaaai

#81000
0aaaaa

#81500
1aaaaa
1aaaad
1aaaaf
1aaaag
b11011011011110 aaaai

#82000
0aaaaa

#82500
1aaaaa
0aaaad
0aaaaf
0aaaag
b10001001 aaaah

#83000
0aaaaa

#83500
1aaaaa
b11001100111100 aaaai

#84000
0aaaaa

#84500
1aaaaa
b11010111101000 aaaai

#85000
0aaaaa

#85500
1aaaaa
1aaaad
1aaaaf
1aaaag
b11011101101000 aaaai

#86000
0aaaaa

#86500
1aaaaa
0aaaad
0aaaaf
0aaaag
b1000001 aaaah

#87000
0aaaaa

#87500
1aaaaa
b11000101001101 aaaai

#88000
0aaaaa

#88500
1aaaaa
b11011001101001 aaaai

#89000
0aaaaa

#89500
1aaaaa
1aaaad
1aaaaf
1aaaag
b11011101001101 aaaai

#90000
0aaaaa

#90500
1aaaaa
0aaaad
0aaaaf
0aaaag
b10001100 aaaah

#91000
0aaaaa

#91500
1aaaaa
b10111110010001 aaaai

#92000
0aaaaa

#92500
1aaaaa
b11010010010101 aaaai

#93000
0aaaaa

#93500
1aaaaa
1aaaad
1aaaaf
1aaaag
b11011001001001 aaaai

#94000
0aaaaa

#94500
1aaaaa
0aaaad
0aaaaf
0aaaag
b10010110 aaaah

#95000
0aaaaa

#95500
1aaaaa
b11000010100100 aaaai

#96000
0aaaaa

#96500
1aaaaa
b11010100000000 aaaai

#97000
0aaaaa

#97500
1aaaaa
1aaaad
1aaaaf
1aaaag
b11011010101100 aaaai

#98000
0aaaaa

#98500
1aaaaa
0aaaad
0aaaaf
0aaaag
b1001110 aaaah

#99000
0aaaaa

#99500
1aaaaa
b11001110011101 aaaai

#100000
0aaaaa

#100500
1aaaaa
b11011101010001 aaaai

#101000
0aaaaa

#101500
1aaaaa
1aaaad
1aaaaf
1aaaag
b11100011000101 aaaai

#102000
0aaaaa

#102500
1aaaaa
0aaaad
0aaaaf
0aaaag
b10101101 aaaah

#103000
0aaaaa

#103500
1aaaaa
b11010110100010 aaaai

#104000
0aaaaa

#104500
1aaaaa
b11101100101010 aaaai

#105000
0aaaaa

#105500
1aaaaa
1aaaad
1aaaaf
1aaaag
b11110001100110 aaaai

#106000
0aaaaa

#106500
1aaaaa
0aaaad
0aaaaf
0aaaag
b101010 aaaah

#107000
0aaaaa

#107500
1aaaaa
b11110110011101 aaaai

#108000
0aaaaa

#108500
1aaaaa
b11111111110101 aaaai

#109000
0aaaaa

#109500
1aaaaa
1aaaad
1aaaaf
1aaaag
b100000111001101 aaaai

#110000
0aaaaa

#110500
1aaaaa
0aaaad
0aaaaf
0aaaag
b10001100 aaaah

#111000
0aaaaa

#111500
1aaaaa
b11110100111111 aaaai

#112000
0aaaaa

#112500
1aaaaa
b100001110101011 aaaai

#113000
0aaaaa

#113500
1aaaaa
1aaaad
1aaaaf
1aaaag
b100010001110011 aaaai

#114000
0aaaaa

#114500
1aaaaa
0aaaad
0aaaaf
0aaaag
b1101100 aaaah

#115000
0aaaaa

#115500
1aaaaa
b100000100000001 aaaai

#116000
0aaaaa

#116500
1aaaaa
b100010000001101 aaaai

#117000
0aaaaa

#117500
1aaaaa
1aaaad
1aaaaf
1aaaag
b100011000110001 aaaai

#118000
0aaaaa

#118500
1aaaaa
0aaaad
0aaaaf
0aaaag
b1100111 aaaah

#119000
0aaaaa

#119500
1aaaaa
b11110001010110 aaaai

#120000
0aaaaa

#120500
1aaaaa
b100001011100110 aaaai

#121000
0aaaaa

#121500
1aaaaa
1aaaad
1aaaaf
1aaaag
b100001111101010 aaaai

#122000
0aaaaa

#122500
1aaaaa
0aaaad
0aaaaf
0aaaag
b10001011 aaaah

#123000
0aaaaa

#123500
1aaaaa
b11100010000100 aaaai

#124000
0aaaaa

#124500
1aaaaa
b11111110001100 aaaai

#125000
0aaaaa

#125500
1aaaaa
1aaaad
1aaaaf
1aaaag
b100000110111100 aaaai

#126000
0aaaaa

#126500
1aaaaa
0aaaad
0aaaaf
0aaaag
b111101 aaaah

#127000
0aaaaa

#127500
1aaaaa
b11101010011101 aaaai

#128000
0aaaaa

#128500
1aaaaa
b11111001000101 aaaai

#129000
0aaaaa

#129500
1aaaaa
1aaaad
1aaaaf
1aaaag
b100000010011101 aaaai

#130000
0aaaaa

#130500
1aaaaa
0aaaad
0aaaaf
0aaaag
b10011010 aaaah

#131000
0aaaaa

#131500
1aaaaa
b11011010010001 aaaai

#132000
0aaaaa

#132500
1aaaaa
b11111010101101 aaaai

#133000
0aaaaa

#133500
1aaaaa
1aaaad
1aaaaf
1aaaag
b11111111100101 aaaai

#134000
0aaaaa

#134500
1aaaaa
0aaaad
0aaaaf
0aaaag
b1001011 aaaah

#135000
0aaaaa

#135500
1aaaaa
b11110010001001 aaaai

#136000
0aaaaa

#136500
1aaaaa
b11111010000001 aaaai

#137000
0aaaaa

#137500
1aaaaa
1aaaad
1aaaaf
1aaaag
b100000100110101 aaaai

#138000
0aaaaa

#138500
1aaaaa
0aaaad
0aaaaf
0aaaag
b10000100 aaaah

#139000
0aaaaa

#139500
1aaaaa
b11100100001001 aaaai

#140000
0aaaaa

#140500
1aaaaa
b11111110011001 aaaai

#141000
0aaaaa

#141500
1aaaaa
1aaaad
1aaaaf
1aaaag
b100000001000001 aaaai

#142000
0aaaaa

#142500
1aaaaa
0aaaad
0aaaaf
0aaaag
b1111111 aaaah

#143000
0aaaaa

#143500
1aaaaa
b11100100111101 aaaai

#144000
0aaaaa

#144500
1aaaaa
b11111001001101 aaaai

#145000
0aaaaa

#145500
1aaaaa
1aaaad
1aaaaf
1aaaag
b100000001111101 aaaai

#146000
0aaaaa

#146500
1aaaaa
0aaaad
0aaaaf
0aaaag
b1101101 aaaah

#147000
0aaaaa

#147500
1aaaaa
b11100110100000 aaaai

#148000
0aaaaa

#148500
1aaaaa
b11111001110100 aaaai

#149000
0aaaaa

#149500
1aaaaa
1aaaad
1aaaaf
1aaaag
b100000000100100 aaaai

#150000
0aaaaa

#150500
1aaaaa
0aaaad
0aaaaf
0aaaag
b10001101 aaaah

#151000
0aaaaa

#151500
1aaaaa
b11100011101011 aaaai

#152000
0aaaaa

#152500
1aaaaa
b11111101101111 aaaai

#153000
0aaaaa

#153500
1aaaaa
1aaaad
1aaaaf
1aaaag
b100000100001011 aaaai

#154000
0aaaaa

#154500
1aaaaa
0aaaad
0aaaaf
0aaaag
b1100010 aaaah

#155000
0aaaaa

#155500
1aaaaa
b11111000111111 aaaai

#156000
0aaaaa

#156500
1aaaaa
b100000100011011 aaaai

#157000
0aaaaa

#157500
1aaaaa
1aaaad
1aaaaf
1aaaag
b100001101000111 aaaai

#158000
0aaaaa

#158500
1aaaaa
0aaaad
0aaaaf
0aaaag
b1100110 aaaah

#159000
0aaaaa

#159500
1aaaaa
b11110010000010 aaaai

#160000
0aaaaa

#160500
1aaaaa
b100001110111010 aaaai

#161000
0aaaaa

#161500
1aaaaa
1aaaad
1aaaaf
1aaaag
b100010010101110 aaaai

#162000
0aaaaa

#162500
1aaaaa
0aaaad
0aaaaf
0aaaag
b1101010 aaaah

#163000
0aaaaa

#163500
1aaaaa
b100000000110001 aaaai

#164000
0aaaaa

#164500
1aaaaa
b100001110110101 aaaai

#165000
0aaaaa

#165500
1aaaaa
1aaaad
1aaaaf
1aaaag
b100011000011101 aaaai

#166000
0aaaaa

#166500
1aaaaa
0aaaad
0aaaaf
0aaaag
b1100100 aaaah

#167000
0aaaaa

#167500
1aaaaa
b11110110011101 aaaai

#168000
0aaaaa

#168500
1aaaaa
b100001111001101 aaaai

#169000
0aaaaa

#169500
1aaaaa
1aaaad
1aaaaf
1aaaag
b100010011111001 aaaai

#170000
0aaaaa

#170500
1aaaaa
0aaaad
0aaaaf
0aaaag
b1100011 aaaah

#171000
0aaaaa

#171500
1aaaaa
b11101011100001 aaaai

#172000
0aaaaa

#172500
1aaaaa
b100000011010101 aaaai

#173000
0aaaaa

#173500
1aaaaa
1aaaad
1aaaaf
1aaaag
b100001011100101 aaaai

#174000
0aaaaa

#174500
1aaaaa
0aaaad
0aaaaf
0aaaag
b10001000 aaaah

#175000
0aaaaa

#175500
1aaaaa
b11100011101011 aaaai

#176000
0aaaaa

#176500
1aaaaa
b11111000000111 aaaai

#177000
0aaaaa

#177500
1aaaaa
1aaaad
1aaaaf
1aaaag
b100000000000011 aaaai

#178000
0aaaaa

#178500
1aaaaa
0aaaad
0aaaaf
0aaaag
b1000101 aaaah

#179000
0aaaaa

#179500
1aaaaa
b11010110111010 aaaai

#180000
0aaaaa

#180500
1aaaaa
b11110001010110 aaaai

#181000
0aaaaa

#181500
1aaaaa
1aaaad
1aaaaf
1aaaag
b11111000001010 aaaai

#182000
0aaaaa

#182500
1aaaaa
0aaaad
0aaaaf
0aaaag
b10011100 aaaah

#183000
0aaaaa

#183500
1aaaaa
b11011001110001 aaaai

#184000
0aaaaa

#184500
1aaaaa
b11101100001001 aaaai

#185000
0aaaaa

#185500
1aaaaa
1aaaad
1aaaaf
1aaaag
b11110100111101 aaaai

#186000
0aaaaa

#186500
1aaaaa
0aaaad
0aaaaf
0aaaag
b1001010 aaaah

#187000
0aaaaa

#187500
1aaaaa
b11011110111100 aaaai

#188000
0aaaaa

#188500
1aaaaa
b11110010000100 aaaai

#189000
0aaaaa

#189500
1aaaaa
1aaaad
1aaaaf
1aaaag
b11111000001100 aaaai

#190000
0aaaaa

#190500
1aaaaa
0aaaad
0aaaaf
0aaaag
b1010011 aaaah

#191000
0aaaaa

#191500
1aaaaa
b11100000101111 aaaai

#192000
0aaaaa

#192500
1aaaaa
b11110100100111 aaaai

#193000
0aaaaa

#193500
1aaaaa
1aaaad
1aaaaf
1aaaag
b11111010111111 aaaai

#194000
0aaaaa

#194500
1aaaaa
0aaaad
0aaaaf
0aaaag
b10101100 aaaah

#195000
0aaaaa

#195500
1aaaaa
b11100011100101 aaaai

#196000
0aaaaa

#196500
1aaaaa
b11110110010101 aaaai

#197000
0aaaaa

#197500
1aaaaa
1aaaad
1aaaaf
1aaaag
b11111100111101 aaaai

#198000
0aaaaa

#198500
1aaaaa
0aaaad
0aaaaf
0aaaag
b101110 aaaah

#199000
0aaaaa

#199500
1aaaaa
b11100011111000 aaaai

#200000
0aaaaa

#200500
1aaaaa
b11110110011100 aaaai

#201000
0aaaaa

#201500
1aaaaa
1aaaad
1aaaaf
1aaaag
b11111100101100 aaaai

#202000
0aaaaa

#202500
1aaaaa
0aaaad
0aaaaf
0aaaag
b11000010 aaaah

#203000
0aaaaa

#203500
1aaaaa
b11011000101100 aaaai

#204000
0aaaaa

#204500
1aaaaa
b11110010001100 aaaai

#205000
0aaaaa

#205500
1aaaaa
1aaaad
1aaaaf
1aaaag
b11111000011000 aaaai

#206000
0aaaaa

#206500
1aaaaa
0aaaad
0aaaaf
0aaaag
b1001010 aaaah

#207000
0aaaaa

#207500
1aaaaa
b11101000010010 aaaai

#208000
0aaaaa

#208500
1aaaaa
b11110101001110 aaaai

#209000
0aaaaa

#209500
1aaaaa
1aaaad
1aaaaf
1aaaag
b11111101101110 aaaai

#210000
0aaaaa

#210500
1aaaaa
0aaaad
0aaaaf
0aaaag
b1101111 aaaah

#211000
0aaaaa

#211500
1aaaaa
b11011111010110 aaaai

#212000
0aaaaa

#212500
1aaaaa
b11111100100110 aaaai

#213000
0aaaaa

#213500
1aaaaa
1aaaad
1aaaaf
1aaaag
b100000000111010 aaaai

#214000
0aaaaa

#214500
1aaaaa
0aaaad
0aaaaf
0aaaag
b1100110 aaaah

#215000
0aaaaa

#215500
1aaaaa
b11110100110101 aaaai

#216000
0aaaaa

#216500
1aaaaa
b100000010101101 aaaai

#217000
0aaaaa

#217500
1aaaaa
1aaaad
1aaaaf
1aaaag
b100001100011101 aaaai

#218000
0aaaaa

#218500
1aaaaa
0aaaad
0aaaaf
0aaaag
b1000001 aaaah

#219000
0aaaaa

#219500
1aaaaa
b11111010110010 aaaai

#220000
0aaaaa

#220500
1aaaaa
b100001010010110 aaaai

#221000
0aaaaa

#221500
1aaaaa
1aaaad
1aaaaf
1aaaag
b100001110111110 aaaai

#222000
0aaaaa

#222500
1aaaaa
0aaaad
0aaaaf
0aaaag
b10001000 aaaah

#223000
0aaaaa

#223500
1aaaaa
b11100010111001 aaaai

#224000
0aaaaa

#224500
1aaaaa
b100000011001001 aaaai

#225000
0aaaaa

#225500
1aaaaa
1aaaad
1aaaaf
1aaaag
b100001000010101 aaaai

#226000
0aaaaa

#226500
1aaaaa
0aaaad
0aaaaf
0aaaag
b1000111 aaaah

#227000
0aaaaa

#227500
1aaaaa
b11101010100110 aaaai

#228000
0aaaaa

#228500
1aaaaa
b11110011001110 aaaai

#229000
0aaaaa

#229500
1aaaaa
1aaaad
1aaaaf
1aaaag
b11111101111110 aaaai

#230000
0aaaaa

#230500
1aaaaa
0aaaad
0aaaaf
0aaaag
b10001001 aaaah

#231000
0aaaaa

#231500
1aaaaa
b11000101011001 aaaai

#232000
0aaaaa

#232500
1aaaaa
b11101001110001 aaaai

#233000
0aaaaa

#233500
1aaaaa
1aaaad
1aaaaf
1aaaag
b11101100101001 aaaai

#234000
0aaaaa

#234500
1aaaaa
0aaaad
0aaaaf
0aaaag
b1100010 aaaah

#235000
0aaaaa

#235500
1aaaaa
b11001111000101 aaaai

#236000
0aaaaa

#236500
1aaaaa
b11011100111101 aaaai

#237000
0aaaaa

#237500
1aaaaa
1aaaad
1aaaaf
1aaaag
b11101001000101 aaaai

#238000
0aaaaa

#238500
1aaaaa
0aaaad
0aaaaf
0aaaag
b1001010 aaaah

#239000
0aaaaa

#239500
1aaaaa
b11001110001011 aaaai

#240000
0aaaaa

#240500
1aaaaa
b11100010111111 aaaai

#241000
0aaaaa

#241500
1aaaaa
1aaaad
1aaaaf
1aaaag
b11100111100111 aaaai

#242000
0aaaaa

#242500
1aaaaa
0aaaad
0aaaaf
0aaaag
b1101111 aaaah

#243000
0aaaaa

#243500
1aaaaa
b11010011111000 aaaai

#244000
0aaaaa

#244500
1aaaaa
b11100111000000 aaaai

#245000
0aaaaa

#245500
1aaaaa
1aaaad
1aaaaf
1aaaag
b11101101111100 aaaai

#246000
0aaaaa

#246500
1aaaaa
0aaaad
0aaaaf
0aaaag
b1011011 aaaah

#247000
0aaaaa

#247500
1aaaaa
b11011110101110 aaaai

#248000
0aaaaa

#248500
1aaaaa
b11101010111010 aaaai

#249000
0aaaaa

#249500
1aaaaa
1aaaad
1aaaaf
1aaaag
b11110001010010 aaaai

#250000
0aaaaa

#250500
1aaaaa
0aaaad
0aaaaf
0aaaag
b1111010 aaaah

#251000
0aaaaa

#251500
1aaaaa
b11001111111111 aaaai

#252000
0aaaaa

#252500
1aaaaa
b11101001011111 aaaai

#253000
0aaaaa

#253500
1aaaaa
1aaaad
1aaaaf
1aaaag
b11101101100011 aaaai

#254000
0aaaaa

#254500
1aaaaa
0aaaad
0aaaaf
0aaaag
b1110110 aaaah

#255000
0aaaaa

#255500
1aaaaa
b11010100111100 aaaai

#256000
0aaaaa

#256500
1aaaaa
b11100010010000 aaaai

#257000
0aaaaa

#257500
1aaaaa
1aaaad
1aaaaf
1aaaag
b11101010110000 aaaai

#258000
0aaaaa

#258500
1aaaaa
0aaaad
0aaaaf
0aaaag
b1101000 aaaah

#259000
0aaaaa

#259500
1aaaaa
b11001010010111 aaaai

#260000
0aaaaa

#260500
1aaaaa
b11100100000011 aaaai

#261000
0aaaaa

#261500
1aaaaa
1aaaad
1aaaaf
1aaaag
b11101000011111 aaaai

#262000
0aaaaa

#262500
1aaaaa
0aaaad
0aaaaf
0aaaag
b1100111 aaaah

#263000
0aaaaa

#263500
1aaaaa
b11010100100000 aaaai

#264000
0aaaaa

#264500
1aaaaa
b11100110111000 aaaai

#265000
0aaaaa

#265500
1aaaaa
1aaaad
1aaaaf
1aaaag
b11101111011100 aaaai

#266000
0aaaaa

#266500
1aaaaa
0aaaad
0aaaaf
0aaaag
b10000100 aaaah

#267000
0aaaaa

#267500
1aaaaa
b11100100100011 aaaai

#268000
0aaaaa

#268500
1aaaaa
b11110010011011 aaaai

#269000
0aaaaa

#269500
1aaaaa
1aaaad
1aaaaf
1aaaag
b11111000100011 aaaai

#270000
0aaaaa

#270500
1aaaaa
0aaaad
0aaaaf
0aaaag
b1000101 aaaah

#271000
0aaaaa

#271500
1aaaaa
b11100111001111 aaaai

#272000
0aaaaa

#272500
1aaaaa
b11111100000011 aaaai

#273000
0aaaaa

#273500
1aaaaa
1aaaad
1aaaaf
1aaaag
b100000000101011 aaaai

#274000
0aaaaa

#274500
1aaaaa
0aaaad
0aaaaf
0aaaag
b1111001 aaaah

#275000
0aaaaa

#275500
1aaaaa
b11101010111001 aaaai

#276000
0aaaaa

#276500
1aaaaa
b11111011111101 aaaai

#277000
0aaaaa

#277500
1aaaaa
1aaaad
1aaaaf
1aaaag
b100000010111001 aaaai

#278000
0aaaaa

#278500
1aaaaa
0aaaad
0aaaaf
0aaaag
b1000110 aaaah

#279000
0aaaaa

#279500
1aaaaa
b11100100001000 aaaai

#280000
0aaaaa

#280500
1aaaaa
b11111011000000 aaaai

#281000
0aaaaa

#281500
1aaaaa
1aaaad
1aaaaf
1aaaag
b100000000101100 aaaai

#282000
0aaaaa

#282500
1aaaaa
0aaaad
0aaaaf
0aaaag
b1111110 aaaah

#283000
0aaaaa

#283500
1aaaaa
b11011011011111 aaaai

#284000
0aaaaa

#284500
1aaaaa
b11110001100111 aaaai

#285000
0aaaaa

#285500
1aaaaa
1aaaad
1aaaaf
1aaaag
b11111001001111 aaaai

#286000
0aaaaa

#286500
1aaaaa
0aaaad
0aaaaf
0aaaag
b10001100 aaaah

#287000
0aaaaa

#287500
1aaaaa
b11010111010010 aaaai

#288000
0aaaaa

#288500
1aaaaa
b11101010110010 aaaai

#289000
0aaaaa

#289500
1aaaaa
1aaaad
1aaaaf
1aaaag
b11110010001010 aaaai

#290000
0aaaaa

#290500
1aaaaa
0aaaad
0aaaaf
0aaaag
b1000010 aaaah

#291000
0aaaaa

#291500
1aaaaa
b11010100001110 aaaai

#292000
0aaaaa

#292500
1aaaaa
b11100111100010 aaaai

#293000
0aaaaa

#293500
1aaaaa
1aaaad
1aaaaf
1aaaag
b11101110000010 aaaai

#294000
0aaaaa

#294500
1aaaaa
0aaaad
0aaaaf
0aaaag
b10011110 aaaah

#295000
0aaaaa

#295500
1aaaaa
b11010000000001 aaaai

#296000
0aaaaa

#296500
1aaaaa
b11101000110001 aaaai

#297000
0aaaaa

#297500
1aaaaa
1aaaad
1aaaaf
1aaaag
b11101111001101 aaaai

#298000
0aaaaa

#298500
1aaaaa
0aaaad
0aaaaf
0aaaag
b110000 aaaah

#299000
0aaaaa

#299500
1aaaaa
b11100100010101 aaaai

#300000
0aaaaa

#300500
1aaaaa
b11110001010001 aaaai

#301000
0aaaaa

#301500
1aaaaa
1aaaad
1aaaaf
1aaaag
b11111001100001 aaaai

#302000
0aaaaa

#302500
1aaaaa
0aaaad
0aaaaf
0aaaag
b10011011 aaaah

#303000
0aaaaa

#303500
1aaaaa
b11100011000100 aaaai

#304000
0aaaaa

#304500
1aaaaa
b11111001110000 aaaai

#305000
0aaaaa

#305500
1aaaaa
1aaaad
1aaaaf
1aaaag
b11111110000100 aaaai

#306000
0aaaaa

#306500
1aaaaa
0aaaad
0aaaaf
0aaaag
b1100010 aaaah

#307000
0aaaaa

#307500
1aaaaa
b11101111000100 aaaai

#308000
0aaaaa

#308500
1aaaaa
b11111100001100 aaaai

#309000
0aaaaa

#309500
1aaaaa
1aaaad
1aaaaf
1aaaag
b100000011110000 aaaai

#310000
0aaaaa

#310500
1aaaaa
0aaaad
0aaaaf
0aaaag
b1011000 aaaah

#311000
0aaaaa

#311500
1aaaaa
b11100011101000 aaaai

#312000
0aaaaa

#312500
1aaaaa
b11111011010000 aaaai

#313000
0aaaaa

#313500
1aaaaa
1aaaad
1aaaaf
1aaaag
b11111111101000 aaaai

#314000
0aaaaa

#314500
1aaaaa
0aaaad
0aaaaf
0aaaag
b10000011 aaaah

#315000
0aaaaa

#315500
1aaaaa
b11011011101001 aaaai

#316000
0aaaaa

#316500
1aaaaa
b11110101111001 aaaai

#317000
0aaaaa

#317500
1aaaaa
1aaaad
1aaaaf
1aaaag
b11111101110001 aaaai

#318000
0aaaaa

#318500
1aaaaa
0aaaad
0aaaaf
0aaaag
b111000 aaaah

#319000
0aaaaa

#319500
1aaaaa
b11101000100010 aaaai

#320000
0aaaaa

#320500
1aaaaa
b11110100111010 aaaai

#321000
0aaaaa

#321500
1aaaaa
1aaaad
1aaaaf
1aaaag
b11111101101010 aaaai

#322000
0aaaaa

#322500
1aaaaa
0aaaad
0aaaaf
0aaaag
b1111000 aaaah

#323000
0aaaaa

#323500
1aaaaa
b11010111100110 aaaai

#324000
0aaaaa

#324500
1aaaaa
b11110101001110 aaaai

#325000
0aaaaa

#325500
1aaaaa
1aaaad
1aaaaf
1aaaag
b11111001010110 aaaai

#326000
0aaaaa

#326500
1aaaaa
0aaaad
0aaaaf
0aaaag
b1001100 aaaah

#327000
0aaaaa

#327500
1aaaaa
b11100100100010 aaaai

#328000
0aaaaa

#328500
1aaaaa
b11101101100010 aaaai

#329000
0aaaaa

#329500
1aaaaa
1aaaad
1aaaaf
1aaaag
b11110111011010 aaaai

#330000
0aaaaa

#330500
1aaaaa
0aaaad
0aaaaf
0aaaag
b1011001 aaaah

#331000
0aaaaa

#331500
1aaaaa
b11001011110000 aaaai

#332000
0aaaaa

#332500
1aaaaa
b11101000110100 aaaai

#333000
0aaaaa

#333500
1aaaaa
1aaaad
1aaaaf
1aaaag
b11101011110100 aaaai

#334000
0aaaaa

#334500
1aaaaa
0aaaad
0aaaaf
0aaaag
b1110100 aaaah

#335000
0aaaaa

#335500
1aaaaa
b11001000011010 aaaai

#336000
0aaaaa

#336500
1aaaaa
b11011010110010 aaaai

#337000
0aaaaa

#337500
1aaaaa
1aaaad
1aaaaf
1aaaag
b11100100011110 aaaai

#338000
0aaaaa

#338500
1aaaaa
0aaaad
0aaaaf
0aaaag
b1011000 aaaah

#339000
0aaaaa

#339500
1aaaaa
b11000110010011 aaaai

#340000
0aaaaa

#340500
1aaaaa
b11010110110011 aaaai

#341000
0aaaaa

#341500
1aaaaa
1aaaad
1aaaaf
1aaaag
b11011100111011 aaaai

#342000
0aaaaa

#342500
1aaaaa
0aaaad
0aaaaf
0aaaag
b1111111 aaaah

#343000
0aaaaa

#343500
1aaaaa
b10111100000001 aaaai

#344000
0aaaaa

#344500
1aaaaa
b11010100100101 aaaai

#345000
0aaaaa

#345500
1aaaaa
1aaaad
1aaaaf
1aaaag
b11011010000101 aaaai

#346000
0aaaaa

#346500
1aaaaa
0aaaad
0aaaaf
0aaaag
b1011011 aaaah

#347000
0aaaaa

#347500
1aaaaa
b11001100010010 aaaai

#348000
0aaaaa

#348500
1aaaaa
b11010110110010 aaaai

#349000
0aaaaa

#349500
1aaaaa
1aaaad
1aaaaf
1aaaag
b11011110111110 aaaai

#350000
0aaaaa

#350500
1aaaaa
0aaaad
0aaaaf
0aaaag
b1010101 aaaah

#351000
0aaaaa

