scripts/RTL_Project/emulation/ETOP_MODULE.vcd
$date
     Sep 24, 2025       14:50:34
$end

$version
 SystemC 3.0.2-Accellera --- Jun 13 2025 17:49:45
$end

$timescale
     100 ps
$end

$scope module SystemC $end
$var wire    4  aaaaa  Yout [3:0]  $end
$var wire    4  aaaab  Yin [3:0]  $end
$var wire    4  aaaac  Xout [3:0]  $end
$var wire    4  aaaad  Xin [3:0]  $end
$var wire    1  aaaae  Vld       $end
$var wire    1  aaaaf  Rdy       $end
$var wire    1  aaaag  clk       $end
$upscope $end
$enddefinitions  $end

$comment
All initial values are dumped below at time 0 sec = 0 timescale units.
$end

$dumpvars
b0 aaaaa
b0 aaaab
b0 aaaac
b0 aaaad
0aaaae
0aaaaf
0aaaag
$end

#500
1aaaag

#1000
0aaaag

#1500
1aaaag

#2000
0aaaag

#2500
1aaaag

#3000
0aaaag

#3500
1aaaag

#4000
0aaaag

#4500
1aaaag

#5000
0aaaag

#5500
1aaaag

#6000
0aaaag

#6500
1aaaag

#7000
0aaaag

#7500
1aaaag

#8000
0aaaag

#8500
1aaaag

#9000
0aaaag

#9500
1aaaag

#10000
0aaaag

#10500
1aaaag

#11000
0aaaag

#11500
1aaaag

#12000
0aaaag

#12500
1aaaag

#13000
0aaaag

#13500
1aaaag

#14000
0aaaag

#14500
1aaaag

#15000
0aaaag

#15500
1aaaag

#16000
0aaaag

#16500
1aaaag

#17000
0aaaag

#17500
1aaaag

#18000
0aaaag

#18500
1aaaag

#19000
0aaaag

#19500
1aaaag

#20000
0aaaag

#20500
1aaaag

#21000
0aaaag

#21500
1aaaag

#22000
0aaaag

#22500
1aaaag

#23000
0aaaag

#23500
1aaaag

#24000
0aaaag

#24500
1aaaag

#25000
0aaaag

#25500
1aaaag

#26000
0aaaag

#26500
1aaaag

#27000
0aaaag

#27500
1aaaag

#28000
0aaaag

#28500
1aaaag

#29000
0aaaag

#29500
1aaaag

#30000
0aaaag

#30500
1aaaag

#31000
0aaaag

#31500
1aaaag

#32000
0aaaag

#32500
1aaaag

#33000
0aaaag

#33500
1aaaag

#34000
0aaaag

#34500
1aaaag

#35000
0aaaag

#35500
1aaaaf
1aaaag

#36000
0aaaag

#36500
b110 aaaad
0aaaaf
1aaaag

#37000
0aaaag

#37500
b1001 aaaad
1aaaag

#38000
0aaaag

#38500
b1001 aaaac
b0 aaaad
1aaaag

#39000
0aaaag

#39500
1aaaag

#40000
0aaaag

#40500
1aaaae
1aaaaf
1aaaag

#41000
0aaaag

#41500
b1000 aaaab
b110 aaaac
b1 aaaad
0aaaae
0aaaaf
1aaaag

#42000
0aaaag

#42500
b0 aaaab
b1001 aaaac
b100 aaaad
1aaaag

#43000
0aaaag

#43500
b111 aaaab
b100 aaaac
b0 aaaad
1aaaag

#44000
0aaaag

#44500
b0 aaaab
1aaaag

#45000
0aaaag

#45500
1aaaae
1aaaaf
1aaaag

#46000
0aaaag

#46500
b1000 aaaaa
b10 aaaab
b1 aaaac
b1100 aaaad
0aaaae
0aaaaf
1aaaag

#47000
0aaaag

#47500
b101 aaaaa
b1011 aaaab
b100 aaaac
b1001 aaaad
1aaaag

#48000
0aaaag

#48500
b10 aaaaa
b1 aaaab
b1001 aaaac
b0 aaaad
1aaaag

#49000
0aaaag

#49500
1aaaag

#50000
b0 aaaaa
0aaaag

#50500
b0 aaaab
1aaaae
1aaaaf
1aaaag

#51000
0aaaag

#51500
b1100 aaaaa
b101 aaaab
b1100 aaaac
b101 aaaad
0aaaae
0aaaaf
1aaaag

#52000
0aaaag

#52500
b0 aaaaa
b1001 aaaab
b1001 aaaac
b1011 aaaad
1aaaag

#53000
0aaaag

#53500
b1000 aaaaa
b1 aaaab
b1011 aaaac
b0 aaaad
1aaaag

#54000
0aaaag

#54500
b0 aaaaa
b10 aaaab
1aaaag

#55000
0aaaag

#55500
b0 aaaab
1aaaae
1aaaaf
1aaaag

#56000
0aaaag

#56500
b10 aaaaa
b110 aaaab
b101 aaaac
0aaaae
0aaaaf
1aaaag

#57000
0aaaag

#57500
b100 aaaab
b1011 aaaac
b1000 aaaad
1aaaag

#58000
0aaaag

#58500
b100 aaaaa
b1000 aaaac
b0 aaaad
1aaaag

#59000
0aaaag

#59500
b1 aaaaa
b11 aaaab
1aaaag

#60000
0aaaag

#60500
b0 aaaab
1aaaae
1aaaaf
1aaaag

#61000
0aaaag

#61500
b1001 aaaaa
b1101 aaaab
b0 aaaac
b101 aaaad
0aaaae
0aaaaf
1aaaag

#62000
0aaaag

#62500
b110 aaaaa
b1010 aaaab
b1000 aaaac
1aaaag

#63000
0aaaag

#63500
b100 aaaaa
b11 aaaab
b101 aaaac
b0 aaaad
1aaaag

#64000
0aaaag

#64500
b10 aaaaa
b100 aaaab
1aaaag

#65000
0aaaag

#65500
b0 aaaab
1aaaae
1aaaaf
1aaaag

#66000
0aaaag

#66500
b110 aaaaa
b1111 aaaab
b1100 aaaad
0aaaae
0aaaaf
1aaaag

#67000
0aaaag

#67500
b100 aaaaa
b1001 aaaab
b100 aaaad
1aaaag

#68000
0aaaag

#68500
b110 aaaaa
b1010 aaaab
b100 aaaac
b0 aaaad
1aaaag

#69000
0aaaag

#69500
b11 aaaaa
b100 aaaab
1aaaag

#70000
0aaaag

#70500
b0 aaaab
1aaaae
1aaaaf
1aaaag

#71000
0aaaag

#71500
b1 aaaaa
b111 aaaab
b1100 aaaac
b101 aaaad
0aaaae
0aaaaf
1aaaag

#72000
0aaaag

#72500
b0 aaaaa
b1000 aaaab
b100 aaaac
b1101 aaaad
1aaaag

#73000
0aaaag

#73500
b101 aaaaa
b1001 aaaab
b1101 aaaac
b0 aaaad
1aaaag

#74000
0aaaag

#74500
b100 aaaaa
b100 aaaab
1aaaag

#75000
0aaaag

#75500
b0 aaaab
1aaaae
1aaaaf
1aaaag

#76000
0aaaag

#76500
b1111 aaaaa
b11 aaaab
b101 aaaac
b100 aaaad
0aaaae
0aaaaf
1aaaag

#77000
0aaaag

#77500
b1100 aaaaa
b1011 aaaab
b1101 aaaac
b111 aaaad
1aaaag

#78000
0aaaag

#78500
b1011 aaaaa
b111 aaaab
b111 aaaac
b0 aaaad
1aaaag

#79000
0aaaag

#79500
b100 aaaaa
b100 aaaab
1aaaag

#80000
0aaaag

#80500
b0 aaaab
1aaaae
1aaaaf
1aaaag

#81000
0aaaag

#81500
b1011 aaaaa
b1011 aaaab
b100 aaaac
b1101 aaaad
0aaaae
0aaaaf
1aaaag

#82000
0aaaag

#82500
b1101 aaaaa
b0 aaaab
b111 aaaac
b111 aaaad
1aaaag

#83000
0aaaag

#83500
b1100 aaaaa
b111 aaaab
b0 aaaad
1aaaag

#84000
0aaaag

#84500
b100 aaaaa
b100 aaaab
1aaaag

#85000
0aaaag

#85500
b0 aaaab
1aaaae
1aaaaf
1aaaag

#86000
0aaaag

#86500
b11 aaaaa
b11 aaaab
b1101 aaaac
b1011 aaaad
0aaaae
0aaaaf
1aaaag

#87000
0aaaag

#87500
b1000 aaaaa
b1011 aaaab
b111 aaaac
1aaaag

#88000
0aaaag

#88500
b1001 aaaaa
b1000 aaaab
b1011 aaaac
b0 aaaad
1aaaag

#89000
0aaaag

#89500
b100 aaaaa
b100 aaaab
1aaaag

#90000
0aaaag

#90500
b0 aaaab
1aaaae
1aaaaf
1aaaag

#91000
0aaaag

#91500
b1111 aaaaa
b11 aaaab
b1000 aaaad
0aaaae
0aaaaf
1aaaag

#92000
0aaaag

#92500
b1 aaaab
b100 aaaad
1aaaag

#93000
0aaaag

#93500
b1000 aaaaa
b1110 aaaab
b100 aaaac
b0 aaaad
1aaaag

#94000
0aaaag

#94500
b100 aaaaa
b100 aaaab
1aaaag

#95000
0aaaag

#95500
b0 aaaab
1aaaae
1aaaaf
1aaaag

#96000
0aaaag

#96500
b1111 aaaaa
b110 aaaab
b1000 aaaac
b101 aaaad
0aaaae
0aaaaf
1aaaag

#97000
0aaaag

#97500
b1001 aaaaa
b101 aaaab
b100 aaaac
b111 aaaad
1aaaag

#98000
0aaaag

#98500
b1011 aaaaa
b1111 aaaab
b111 aaaac
b0 aaaad
1aaaag

#99000
0aaaag

#99500
b100 aaaaa
b100 aaaab
1aaaag

#100000
0aaaag

#100500
b0 aaaab
1aaaae
1aaaaf
1aaaag

#101000
0aaaag

#101500
b11 aaaaa
b100 aaaab
b101 aaaac
b101 aaaad
0aaaae
0aaaaf
1aaaag

#102000
0aaaag

#102500
b111 aaaab
b111 aaaac
b1011 aaaad
1aaaag

#103000
0aaaag

#103500
b1111 aaaaa
b1100 aaaab
b1011 aaaac
b0 aaaad
1aaaag

#104000
0aaaag

#104500
b100 aaaaa
b100 aaaab
1aaaag

#105000
0aaaag

#105500
b0 aaaab
1aaaae
1aaaaf
1aaaag

#106000
0aaaag

#106500
b1010 aaaaa
b1000 aaaab
b101 aaaac
b1111 aaaad
0aaaae
0aaaaf
1aaaag

#107000
0aaaag

#107500
b10 aaaaa
b100 aaaab
b1011 aaaac
b1010 aaaad
1aaaag

#108000
0aaaag

#108500
b1 aaaaa
b1011 aaaab
b1010 aaaac
b0 aaaad
1aaaag

#109000
0aaaag

#109500
b101 aaaaa
b100 aaaab
1aaaag

#110000
0aaaag

#110500
b0 aaaab
1aaaae
1aaaaf
1aaaag

#111000
0aaaag

#111500
b1000 aaaaa
b1010 aaaab
b1111 aaaac
b1 aaaad
0aaaae
0aaaaf
1aaaag

#112000
0aaaag

#112500
b100 aaaaa
b1110 aaaab
b1010 aaaac
b1011 aaaad
1aaaag

#113000
0aaaag

#113500
b1111 aaaaa
b1100 aaaab
b1011 aaaac
b0 aaaad
1aaaag

#114000
0aaaag

#114500
b100 aaaaa
b100 aaaab
1aaaag

#115000
0aaaag

#115500
b0 aaaab
1aaaae
1aaaaf
1aaaag

#116000
0aaaag

#116500
b111 aaaab
b1 aaaac
b100 aaaad
0aaaae
0aaaaf
1aaaag

#117000
0aaaag

#117500
b0 aaaaa
b1011 aaaab
b1011 aaaac
b1010 aaaad
1aaaag

#118000
0aaaag

#118500
b1110 aaaaa
b10 aaaab
b1010 aaaac
b0 aaaad
1aaaag

#119000
0aaaag

#119500
b100 aaaaa
b101 aaaab
1aaaag

#120000
0aaaag

#120500
b0 aaaab
1aaaae
1aaaaf
1aaaag

#121000
0aaaag

#121500
b1110 aaaaa
b1010 aaaab
b100 aaaac
b10 aaaad
0aaaae
0aaaaf
1aaaag

#122000
0aaaag

#122500
b1010 aaaaa
b1111 aaaab
b1010 aaaac
b1001 aaaad
1aaaag

#123000
0aaaag

#123500
b1111 aaaaa
b1001 aaaab
b1001 aaaac
b0 aaaad
1aaaag

#124000
0aaaag

#124500
b100 aaaaa
b101 aaaab
1aaaag

#125000
0aaaag

#125500
b0 aaaab
1aaaae
1aaaaf
1aaaag

#126000
0aaaag

#126500
b111 aaaaa
b101 aaaab
b10 aaaac
b1000 aaaad
0aaaae
0aaaaf
1aaaag

#127000
0aaaag

#127500
b100 aaaaa
b1110 aaaab
b1001 aaaac
b101 aaaad
1aaaag

#128000
0aaaag

#128500
b101 aaaaa
b1101 aaaab
b101 aaaac
b0 aaaad
1aaaag

#129000
0aaaag

#129500
b101 aaaab
1aaaag

#130000
0aaaag

#130500
b0 aaaab
1aaaae
1aaaaf
1aaaag

#131000
0aaaag

#131500
b10 aaaaa
b11 aaaab
b1000 aaaac
b110 aaaad
0aaaae
0aaaaf
1aaaag

#132000
0aaaag

#132500
b100 aaaaa
b1 aaaab
b101 aaaac
1aaaag

#133000
0aaaag

#133500
b1100 aaaaa
b1011 aaaab
b110 aaaac
b0 aaaad
1aaaag

#134000
0aaaag

#134500
b101 aaaaa
b101 aaaab
1aaaag

#135000
0aaaag

#135500
b0 aaaab
1aaaae
1aaaaf
1aaaag

#136000
0aaaag

#136500
b1101 aaaab
b10 aaaad
0aaaae
0aaaaf
1aaaag

#137000
0aaaag

#137500
b100 aaaaa
b1100 aaaad
1aaaag

#138000
0aaaag

#138500
b1111 aaaaa
b10 aaaab
b1100 aaaac
b0 aaaad
1aaaag

#139000
0aaaag

#139500
b101 aaaaa
b101 aaaab
1aaaag

#140000
0aaaag

#140500
b0 aaaab
1aaaae
1aaaaf
1aaaag

#141000
0aaaag

#141500
b1011 aaaaa
b1110 aaaab
b10 aaaac
b110 aaaad
0aaaae
0aaaaf
1aaaag

#142000
0aaaag

#142500
b1010 aaaaa
b10 aaaab
b1100 aaaac
b101 aaaad
1aaaag

#143000
0aaaag

#143500
b1100 aaaaa
b1101 aaaab
b101 aaaac
b0 aaaad
1aaaag

#144000
0aaaag

#144500
b101 aaaaa
b100 aaaab
1aaaag

#145000
0aaaag

#145500
b0 aaaab
1aaaae
1aaaaf
1aaaag

#146000
0aaaag

#146500
b1100 aaaab
b110 aaaac
b1000 aaaad
0aaaae
0aaaaf
1aaaag

#147000
0aaaag

#147500
b1110 aaaaa
b1110 aaaab
b101 aaaac
b101 aaaad
1aaaag

#148000
0aaaag

#148500
b101 aaaaa
b1000 aaaab
b0 aaaad
1aaaag

#149000
0aaaag

#149500
b100 aaaab
1aaaag

#150000
0aaaag

#150500
b0 aaaab
1aaaae
1aaaaf
1aaaag

#151000
0aaaag

#151500
b110 aaaaa
b110 aaaab
b1000 aaaac
b1011 aaaad
0aaaae
0aaaaf
1aaaag

#152000
0aaaag

#152500
b1000 aaaaa
b1101 aaaab
b101 aaaac
b1000 aaaad
1aaaag

#153000
0aaaag

#153500
b1110 aaaaa
b101 aaaab
b1000 aaaac
b0 aaaad
1aaaag

#154000
0aaaag

#154500
b100 aaaaa
b100 aaaab
1aaaag

#155000
0aaaag

#155500
b0 aaaab
1aaaae
1aaaaf
1aaaag

#156000
0aaaag

#156500
b1100 aaaaa
b1010 aaaab
b1011 aaaac
b1110 aaaad
0aaaae
0aaaaf
1aaaag

#157000
0aaaag

#157500
b100 aaaaa
b1000 aaaac
b1000 aaaad
1aaaag

#158000
0aaaag

#158500
b1010 aaaaa
b100 aaaab
b0 aaaad
1aaaag

#159000
0aaaag

#159500
1aaaag

#160000
b100 aaaaa
0aaaag

#160500
b0 aaaab
1aaaae
1aaaaf
1aaaag

#161000
0aaaag

#161500
b10 aaaaa
b1 aaaab
b1110 aaaac
b1 aaaad
0aaaae
0aaaaf
1aaaag

#162000
0aaaag

#162500
b0 aaaaa
b111 aaaab
b1000 aaaac
b1001 aaaad
1aaaag

#163000
0aaaag

#163500
b1000 aaaaa
b100 aaaab
b1001 aaaac
b0 aaaad
1aaaag

#164000
0aaaag

#164500
1aaaag

#165000
b100 aaaaa
0aaaag

#165500
b0 aaaab
1aaaae
1aaaaf
1aaaag

#166000
0aaaag

#166500
b10 aaaaa
b110 aaaab
b1 aaaac
b1100 aaaad
0aaaae
0aaaaf
1aaaag

#167000
0aaaag

#167500
b1110 aaaaa
b1110 aaaab
b1001 aaaac
b11 aaaad
1aaaag

#168000
0aaaag

#168500
b110 aaaaa
b101 aaaab
b11 aaaac
b0 aaaad
1aaaag

#169000
0aaaag

#169500
b100 aaaaa
b100 aaaab
1aaaag

#170000
0aaaag

#170500
b0 aaaab
1aaaae
1aaaaf
1aaaag

#171000
0aaaag

#171500
b101 aaaaa
b11 aaaab
b1100 aaaac
b1 aaaad
0aaaae
0aaaaf
1aaaag

#172000
0aaaag

#172500
b1011 aaaaa
b1111 aaaab
b11 aaaac
b1100 aaaad
1aaaag

#173000
0aaaag

#173500
b110 aaaaa
b101 aaaab
b1100 aaaac
b0 aaaad
1aaaag

#174000
0aaaag

#174500
b100 aaaaa
b100 aaaab
1aaaag

#175000
0aaaag

#175500
b0 aaaab
1aaaae
1aaaaf
1aaaag

#176000
0aaaag

#176500
b110 aaaaa
b1 aaaab
b1 aaaac
b11 aaaad
0aaaae
0aaaaf
1aaaag

#177000
0aaaag

#177500
b1101 aaaaa
b1100 aaaac
b1010 aaaad
1aaaag

#178000
0aaaag

#178500
b110 aaaaa
b1000 aaaab
b1010 aaaac
b0 aaaad
1aaaag

#179000
0aaaag

#179500
b100 aaaaa
b100 aaaab
1aaaag

#180000
0aaaag

#180500
b0 aaaab
1aaaae
1aaaaf
1aaaag

#181000
0aaaag

#181500
b111 aaaaa
b1001 aaaab
b11 aaaac
b1010 aaaad
0aaaae
0aaaaf
1aaaag

#182000
0aaaag

#182500
b1111 aaaaa
b111 aaaab
b1010 aaaac
b111 aaaad
1aaaag

#183000
0aaaag

#183500
b1000 aaaaa
b1011 aaaab
b111 aaaac
b0 aaaad
1aaaag

#184000
0aaaag

#184500
b100 aaaaa
b100 aaaab
1aaaag

#185000
0aaaag

#185500
b0 aaaab
1aaaae
1aaaaf
1aaaag

#186000
0aaaag

#186500
b1101 aaaaa
b1010 aaaab
b1010 aaaac
b1011 aaaad
0aaaae
0aaaaf
1aaaag

#187000
0aaaag

#187500
b1001 aaaaa
b11 aaaab
b111 aaaac
b110 aaaad
1aaaag

#188000
0aaaag

#188500
b1010 aaaaa
b1110 aaaab
b110 aaaac
b0 aaaad
1aaaag

#189000
0aaaag

#189500
b100 aaaaa
b100 aaaab
1aaaag

#190000
0aaaag

#190500
b0 aaaab
1aaaae
1aaaaf
1aaaag

#191000
0aaaag

#191500
b1 aaaaa
b110 aaaab
b1011 aaaac
b1111 aaaad
0aaaae
0aaaaf
1aaaag

#192000
0aaaag

#192500
b110 aaaaa
b1 aaaab
b110 aaaac
b1001 aaaad
1aaaag

#193000
0aaaag

#193500
b1101 aaaaa
b1111 aaaab
b1001 aaaac
b0 aaaad
1aaaag

#194000
0aaaag

#194500
b100 aaaaa
b100 aaaab
1aaaag

#195000
0aaaag

#195500
b0 aaaab
1aaaae
1aaaaf
1aaaag

#196000
0aaaag

#196500
b110 aaaaa
b1110 aaaab
b1111 aaaac
b1001 aaaad
0aaaae
0aaaaf
1aaaag

#197000
0aaaag

#197500
b1110 aaaaa
b1010 aaaab
b1001 aaaac
b1010 aaaad
1aaaag

#198000
0aaaag

#198500
b1111 aaaaa
b1111 aaaab
b1010 aaaac
b0 aaaad
1aaaag

#199000
0aaaag

#199500
b100 aaaaa
b100 aaaab
1aaaag

#200000
0aaaag

#200500
b0 aaaab
1aaaae
1aaaaf
1aaaag

#201000
0aaaag

#201500
b10 aaaaa
b100 aaaab
b1001 aaaac
b100 aaaad
0aaaae
0aaaaf
1aaaag

#202000
0aaaag

#202500
b1001 aaaaa
b1100 aaaab
b1010 aaaac
b1001 aaaad
1aaaag

#203000
0aaaag

#203500
b1 aaaaa
b1111 aaaab
b1001 aaaac
b0 aaaad
1aaaag

#204000
0aaaag

#204500
b101 aaaaa
b100 aaaab
1aaaag

#205000
0aaaag

#205500
b0 aaaab
1aaaae
1aaaaf
1aaaag

#206000
0aaaag

#206500
b10 aaaaa
b111 aaaab
b100 aaaac
b101 aaaad
0aaaae
0aaaaf
1aaaag

#207000
0aaaag

#207500
b101 aaaaa
b101 aaaab
b1001 aaaac
b1011 aaaad
1aaaag

#208000
0aaaag

#208500
b10 aaaaa
b1 aaaab
b1011 aaaac
b0 aaaad
1aaaag

#209000
0aaaag

#209500
b101 aaaaa
b101 aaaab
1aaaag

#210000
0aaaag

#210500
b0 aaaab
1aaaae
1aaaaf
1aaaag

#211000
0aaaag

#211500
b100 aaaaa
b111 aaaab
b101 aaaac
b1100 aaaad
0aaaae
0aaaaf
1aaaag

#212000
0aaaag

#212500
b1 aaaaa
b11 aaaab
b1011 aaaac
b110 aaaad
1aaaag

#213000
0aaaag

#213500
b10 aaaaa
b101 aaaab
b110 aaaac
b0 aaaad
1aaaag

#214000
0aaaag

#214500
1aaaag

#215000
b101 aaaaa
0aaaag

#215500
b0 aaaab
1aaaae
1aaaaf
1aaaag

#216000
0aaaag

#216500
b1011 aaaaa
b1010 aaaab
b1100 aaaac
b101 aaaad
0aaaae
0aaaaf
1aaaag

#217000
0aaaag

#217500
b10 aaaaa
b100 aaaab
b110 aaaac
b11 aaaad
1aaaag

#218000
0aaaag

#218500
b100 aaaaa
b111 aaaab
b11 aaaac
b0 aaaad
1aaaag

#219000
0aaaag

#219500
b101 aaaaa
b101 aaaab
1aaaag

#220000
0aaaag

#220500
b0 aaaab
1aaaae
1aaaaf
1aaaag

#221000
0aaaag

#221500
b111 aaaaa
b1011 aaaab
b101 aaaac
b11 aaaad
0aaaae
0aaaaf
1aaaag

#222000
0aaaag

#222500
b1110 aaaaa
b101 aaaab
b11 aaaac
b100 aaaad
1aaaag

#223000
0aaaag

#223500
b110 aaaaa
b10 aaaab
b100 aaaac
b0 aaaad
1aaaag

#224000
0aaaag

#224500
b101 aaaaa
b101 aaaab
1aaaag

#225000
0aaaag

#225500
b0 aaaab
1aaaae
1aaaaf
1aaaag

#226000
0aaaag

#226500
b1110 aaaaa
b1111 aaaab
b11 aaaac
b1000 aaaad
0aaaae
0aaaaf
1aaaag

#227000
0aaaag

#227500
b1 aaaaa
b1000 aaaab
b100 aaaac
b110 aaaad
1aaaag

#228000
0aaaag

#228500
b1000 aaaaa
b111 aaaab
b110 aaaac
b0 aaaad
1aaaag

#229000
0aaaag

#229500
b101 aaaaa
b100 aaaab
1aaaag

#230000
0aaaag

#230500
b0 aaaab
1aaaae
1aaaaf
1aaaag

#231000
0aaaag

#231500
b111 aaaaa
b1110 aaaab
b1000 aaaac
0aaaae
0aaaaf
1aaaag

#232000
0aaaag

#232500
b110 aaaaa
b0 aaaab
b110 aaaac
b111 aaaad
1aaaag

#233000
0aaaag

#233500
b11 aaaaa
b1100 aaaab
b111 aaaac
b0 aaaad
1aaaag

#234000
0aaaag

#234500
b101 aaaaa
b11 aaaab
1aaaag

#235000
0aaaag

#235500
b0 aaaab
1aaaae
1aaaaf
1aaaag

#236000
0aaaag

#236500
b1111 aaaaa
b0 aaaac
b1001 aaaad
0aaaae
0aaaaf
1aaaag

#237000
0aaaag

#237500
b10 aaaaa
b1011 aaaab
b111 aaaac
b111 aaaad
1aaaag

#238000
0aaaag

#238500
b1001 aaaaa
b100 aaaab
b0 aaaad
1aaaag

#239000
0aaaag

#239500
b100 aaaaa
b11 aaaab
1aaaag

#240000
0aaaag

#240500
b0 aaaab
1aaaae
1aaaaf
1aaaag

#241000
0aaaag

#241500
b1110 aaaaa
b11 aaaab
b1001 aaaac
b10 aaaad
0aaaae
0aaaaf
1aaaag

#242000
0aaaag

#242500
b1100 aaaaa
b110 aaaab
b111 aaaac
b111 aaaad
1aaaag

#243000
0aaaag

#243500
b1101 aaaaa
b100 aaaab
b0 aaaad
1aaaag

#244000
0aaaag

#244500
b11 aaaaa
b11 aaaab
1aaaag

#245000
0aaaag

#245500
b0 aaaab
1aaaae
1aaaaf
1aaaag

#246000
0aaaag

#246500
b100 aaaaa
b10 aaaac
b1011 aaaad
0aaaae
0aaaaf
1aaaag

#247000
0aaaag

#247500
b1001 aaaaa
b1001 aaaab
b111 aaaac
b110 aaaad
1aaaag

#248000
0aaaag

#248500
b110 aaaaa
b1000 aaaab
b110 aaaac
b0 aaaad
1aaaag

#249000
0aaaag

#249500
b11 aaaaa
b11 aaaab
1aaaag

#250000
0aaaag

#250500
b0 aaaab
1aaaae
1aaaaf
1aaaag

#251000
0aaaag

#251500
b1011 aaaaa
b1000 aaaab
b1011 aaaac
0aaaae
0aaaaf
1aaaag

#252000
0aaaag

#252500
b10 aaaaa
b11 aaaab
b110 aaaac
b1011 aaaad
1aaaag

#253000
0aaaag

#253500
b110 aaaaa
b1101 aaaab
b1011 aaaac
b0 aaaad
1aaaag

#254000
0aaaag

#254500
b11 aaaaa
b11 aaaab
1aaaag

#255000
0aaaag

#255500
b0 aaaab
1aaaae
1aaaaf
1aaaag

#256000
0aaaag

#256500
b1100 aaaaa
b101 aaaab
b0 aaaac
b1010 aaaad
0aaaae
0aaaaf
1aaaag

#257000
0aaaag

#257500
b11 aaaaa
b1100 aaaab
b1011 aaaac
b10 aaaad
1aaaag

#258000
0aaaag

#258500
b1010 aaaaa
b10 aaaab
b10 aaaac
b0 aaaad
1aaaag

#259000
0aaaag

#259500
b11 aaaaa
b100 aaaab
1aaaag

#260000
0aaaag

#260500
b0 aaaab
1aaaae
1aaaaf
1aaaag

#261000
0aaaag

#261500
b1000 aaaaa
b11 aaaab
b1010 aaaac
b1110 aaaad
0aaaae
0aaaaf
1aaaag

#262000
0aaaag

#262500
b1111 aaaaa
b10 aaaac
b1000 aaaad
1aaaag

#263000
0aaaag

#263500
b1000 aaaac
b0 aaaad
1aaaag

#264000
0aaaag

#264500
b11 aaaaa
b100 aaaab
1aaaag

#265000
0aaaag

#265500
b0 aaaab
1aaaae
1aaaaf
1aaaag

#266000
0aaaag

#266500
b1101 aaaaa
b110 aaaab
b1110 aaaac
b1001 aaaad
0aaaae
0aaaaf
1aaaag

#267000
0aaaag

#267500
b110 aaaaa
b1110 aaaab
b1000 aaaac
b1010 aaaad
1aaaag

#268000
0aaaag

#268500
b11 aaaaa
b10 aaaab
b1010 aaaac
b0 aaaad
1aaaag

#269000
0aaaag

#269500
b100 aaaaa
b100 aaaab
1aaaag

#270000
0aaaag

#270500
b0 aaaab
1aaaae
1aaaaf
1aaaag

#271000
0aaaag

#271500
b1011 aaaaa
b1101 aaaab
b1001 aaaac
b10 aaaad
0aaaae
0aaaaf
1aaaag

#272000
0aaaag

#272500
b110 aaaaa
b110 aaaab
b1010 aaaac
b1011 aaaad
1aaaag

#273000
0aaaag

#273500
b101 aaaaa
b100 aaaab
b1011 aaaac
b0 aaaad
1aaaag

#274000
0aaaag

#274500
1aaaag

#275000
b100 aaaaa
0aaaag

#275500
b0 aaaab
1aaaae
1aaaaf
1aaaag

#276000
0aaaag

#276500
b1010 aaaaa
b101 aaaab
b10 aaaac
b10 aaaad
0aaaae
0aaaaf
1aaaag

#277000
0aaaag

#277500
b1000 aaaaa
b100 aaaab
b1011 aaaac
b1000 aaaad
1aaaag

#278000
0aaaag

#278500
b101 aaaaa
b1001 aaaab
b1000 aaaac
b0 aaaad
1aaaag

#279000
0aaaag

#279500
b100 aaaaa
b100 aaaab
1aaaag

#280000
0aaaag

#280500
b0 aaaab
1aaaae
1aaaaf
1aaaag

#281000
0aaaag

#281500
b101 aaaaa
b1110 aaaab
b10 aaaac
b1101 aaaad
0aaaae
0aaaaf
1aaaag

#282000
0aaaag

#282500
b11 aaaaa
b1100 aaaab
b1000 aaaac
b1000 aaaad
1aaaag

#283000
0aaaag

#283500
b111 aaaaa
b1110 aaaab
b0 aaaad
1aaaag

#284000
0aaaag

#284500
b100 aaaaa
b100 aaaab
1aaaag

#285000
0aaaag

#285500
b0 aaaab
1aaaae
1aaaaf
1aaaag

#286000
0aaaag

#286500
b1101 aaaaa
b1010 aaaab
b1101 aaaac
b1010 aaaad
0aaaae
0aaaaf
1aaaag

#287000
0aaaag

#287500
b100 aaaaa
b1111 aaaab
b1000 aaaac
b111 aaaad
1aaaag

#288000
0aaaag

#288500
b1011 aaaaa
b11 aaaab
b111 aaaac
b0 aaaad
1aaaag

#289000
0aaaag

#289500
b100 aaaaa
b101 aaaab
1aaaag

#290000
0aaaag

#290500
b0 aaaab
1aaaae
1aaaaf
1aaaag

#291000
0aaaag

#291500
b10 aaaaa
b110 aaaab
b1010 aaaac
0aaaae
0aaaaf
1aaaag

#292000
0aaaag

#292500
b0 aaaaa
b11 aaaab
b111 aaaac
b1010 aaaad
1aaaag

#293000
0aaaag

#293500
b1 aaaaa
b100 aaaab
b1010 aaaac
b0 aaaad
1aaaag

#294000
0aaaag

#294500
b101 aaaaa
b101 aaaab
1aaaag

#295000
0aaaag

#295500
b0 aaaab
1aaaae
1aaaaf
1aaaag

#296000
0aaaag

#296500
b10 aaaaa
b1110 aaaab
b0 aaaac
b101 aaaad
0aaaae
0aaaaf
1aaaag

#297000
0aaaag

#297500
b1110 aaaaa
b1010 aaaac
b100 aaaad
1aaaag

#298000
0aaaag

#298500
b101 aaaaa
b10 aaaab
b100 aaaac
b0 aaaad
1aaaag

#299000
0aaaag

#299500
b101 aaaab
1aaaag

#300000
0aaaag

#300500
b0 aaaab
1aaaae
1aaaaf
1aaaag

#301000
0aaaag

#301500
b110 aaaaa
b1000 aaaab
b101 aaaac
b100 aaaad
0aaaae
0aaaaf
1aaaag

#302000
0aaaag

#302500
b1011 aaaaa
b111 aaaab
b100 aaaac
b1001 aaaad
1aaaag

#303000
0aaaag

#303500
b110 aaaaa
b1101 aaaab
b1001 aaaac
b0 aaaad
1aaaag

#304000
0aaaag

#304500
b101 aaaaa
b100 aaaab
1aaaag

#305000
0aaaag

#305500
b0 aaaab
1aaaae
1aaaaf
1aaaag

#306000
0aaaag

#306500
b10 aaaaa
b110 aaaab
b100 aaaac
b110 aaaad
0aaaae
0aaaaf
1aaaag

#307000
0aaaag

#307500
b0 aaaaa
b1100 aaaab
b1001 aaaac
b111 aaaad
1aaaag

#308000
0aaaag

#308500
b100 aaaaa
b1001 aaaab
b111 aaaac
b0 aaaad
1aaaag

#309000
0aaaag

#309500
b101 aaaaa
b100 aaaab
1aaaag

#310000
0aaaag

#310500
b0 aaaab
1aaaae
1aaaaf
1aaaag

#311000
0aaaag

#311500
b1000 aaaaa
b100 aaaab
b110 aaaac
b1111 aaaad
0aaaae
0aaaaf
1aaaag

#312000
0aaaag

#312500
b1100 aaaaa
b1111 aaaab
b111 aaaac
b110 aaaad
1aaaag

#313000
0aaaag

#313500
b1111 aaaaa
b110 aaaab
b110 aaaac
b0 aaaad
1aaaag

#314000
0aaaag

#314500
b100 aaaaa
b100 aaaab
1aaaag

#315000
0aaaag

#315500
b0 aaaab
1aaaae
1aaaaf
1aaaag

#316000
0aaaag

#316500
b1110 aaaaa
b1000 aaaab
b1111 aaaac
b101 aaaad
0aaaae
0aaaaf
1aaaag

#317000
0aaaag

#317500
b1001 aaaaa
b1 aaaab
b110 aaaac
1aaaag

