Tutorials/2-6_Lab4_FIR8_rtl_Emulation/emulation/sc_fir8_tb.vcd
$date
     May 06, 2025       15:02:50
$end

$version
 SystemC 3.0.2-Accellera --- Apr 19 2025 02:07:07
$end

$timescale
     100 ps
$end

$scope module SystemC $end
$var wire    1  aaaaa  clk       $end
$var wire    8  aaaab  Xin [7:0]  $end
$var wire    8  aaaac  Xout [7:0]  $end
$var wire   16  aaaad  Yin [15:0]  $end
$var wire   16  aaaae  Yout [15:0]  $end
$var wire    8  aaaaf  E_Xin [7:0]  $end
$var wire    8  aaaag  E_Xout [7:0]  $end
$var wire   16  aaaah  E_Yin [15:0]  $end
$var wire   16  aaaai  E_Yout [15:0]  $end
$upscope $end
$enddefinitions  $end

$comment
All initial values are dumped below at time 0 sec = 0 timescale units.
$end

$dumpvars
0aaaaa
b0 aaaab
b0 aaaac
b0 aaaad
b0 aaaae
b0 aaaaf
b0 aaaag
b0 aaaah
b0 aaaai
$end

#500
1aaaaa
b10111001 aaaab
b10111001 aaaaf

#1000
0aaaaa

#1500
1aaaaa
b101100 aaaab
b101100 aaaaf

#2000
0aaaaa

#2500
1aaaaa
b10101100 aaaab
b10101100 aaaaf

#3000
0aaaaa

#3500
1aaaaa
b1000100 aaaab
b1000100 aaaaf

#4000
0aaaaa

#4500
1aaaaa
b10011011 aaaab
b10011011 aaaaf

#5000
0aaaaa

#5500
1aaaaa
b1101101 aaaab
b1101101 aaaaf

#6000
0aaaaa

#6500
1aaaaa
b10010100 aaaab
b10010100 aaaaf

#7000
0aaaaa

#7500
1aaaaa
b10111111 aaaab
b10111111 aaaaf

#8000
0aaaaa

#8500
1aaaaa
b10001110 aaaab
b10111001 aaaac
b10001110 aaaaf

#9000
0aaaaa

#9500
1aaaaa
b10100000 aaaab
b101100 aaaac
b1011100100 aaaae
b10100000 aaaaf

#10000
0aaaaa

#10500
1aaaaa
b10111100 aaaab
b10101100 aaaac
b100101011100 aaaae
b10111100 aaaaf
b10111001 aaaag

#11000
0aaaaa

#11500
1aaaaa
b10101101 aaaab
b1000100 aaaac
b1011011010001 aaaae
b10101101 aaaaf
b101100 aaaag
b1011100100 aaaai

#12000
0aaaaa

#12500
1aaaaa
b10010100 aaaab
b10011011 aaaac
b10010111111110 aaaae
b10010100 aaaaf
b10101100 aaaag
b100101011100 aaaai

#13000
0aaaaa

#13500
1aaaaa
b10101101 aaaab
b1101101 aaaac
b11010011010010 aaaae
b10101101 aaaaf
b1000100 aaaag
b1011011010001 aaaai

#14000
0aaaaa

#14500
1aaaaa
b10011000 aaaab
b10010100 aaaac
b11111001011101 aaaae
b10011000 aaaaf
b10011011 aaaag
b10010111111110 aaaai

#15000
0aaaaa

#15500
1aaaaa
b10010000 aaaab
b10111111 aaaac
b100001101100111 aaaae
b10010000 aaaaf
b1101101 aaaag
b11010011010010 aaaai

#16000
0aaaaa

#16500
1aaaaa
b10001010 aaaab
b10001110 aaaac
b100011111101111 aaaae
b10001010 aaaaf
b10010100 aaaag
b11111001011101 aaaai

#17000
0aaaaa

#17500
1aaaaa
b10111011 aaaab
b10100000 aaaac
b100110000010100 aaaae
b10111011 aaaaf
b10111111 aaaag
b100001101100111 aaaai

#18000
0aaaaa

#18500
1aaaaa
b10011101 aaaab
b10111100 aaaac
b101001011110100 aaaae
b10011101 aaaaf
b10001110 aaaag
b100011111101111 aaaai

#19000
0aaaaa

#19500
1aaaaa
b1011110 aaaab
b10101101 aaaac
b101100001001101 aaaae
b1011110 aaaaf
b10100000 aaaag
b100110000010100 aaaai

#20000
0aaaaa

#20500
1aaaaa
b1111011 aaaab
b10010100 aaaac
b101110101011010 aaaae
b1111011 aaaaf
b10111100 aaaag
b101001011110100 aaaai

#21000
0aaaaa

#21500
1aaaaa
b1110111 aaaab
b10101101 aaaac
b110000000101111 aaaae
b1110111 aaaaf
b10101101 aaaag
b101100001001101 aaaai

#22000
0aaaaa

#22500
1aaaaa
b10100010 aaaab
b10011000 aaaac
b110000111100011 aaaae
b10100010 aaaaf
b10010100 aaaag
b101110101011010 aaaai

#23000
0aaaaa

#23500
1aaaaa
b10010111 aaaab
b10010000 aaaac
b110001000100110 aaaae
b10010111 aaaaf
b10101101 aaaag
b110000000101111 aaaai

#24000
0aaaaa

#24500
1aaaaa
b1010010 aaaab
b10001010 aaaac
b110000011111011 aaaae
b1010010 aaaaf
b10011000 aaaag
b110000111100011 aaaai

#25000
0aaaaa

#25500
1aaaaa
b1010000 aaaab
b10111011 aaaac
b101111010010111 aaaae
b1010000 aaaaf
b10010000 aaaag
b110001000100110 aaaai

#26000
0aaaaa

#26500
1aaaaa
b1000011 aaaab
b10011101 aaaac
b101110000011110 aaaae
b1000011 aaaaf
b10001010 aaaag
b110000011111011 aaaai

#27000
0aaaaa

#27500
1aaaaa
b11010010 aaaab
b1011110 aaaac
b101101010001011 aaaae
b11010010 aaaaf
b10111011 aaaag
b101111010010111 aaaai

#28000
0aaaaa

#28500
1aaaaa
b10001111 aaaab
b1111011 aaaac
b101100111001111 aaaae
b10001111 aaaaf
b10011101 aaaag
b101110000011110 aaaai

#29000
0aaaaa

#29500
1aaaaa
b1000110 aaaab
b1110111 aaaac
b101100010110111 aaaae
b1000110 aaaaf
b1011110 aaaag
b101101010001011 aaaai

#30000
0aaaaa

#30500
1aaaaa
b10001000 aaaab
b10100010 aaaac
b101010100011000 aaaae
b10001000 aaaaf
b1111011 aaaag
b101100111001111 aaaai

#31000
0aaaaa

#31500
1aaaaa
b110011 aaaab
b10010111 aaaac
b101000001110000 aaaae
b110011 aaaaf
b1110111 aaaag
b101100010110111 aaaai

#32000
0aaaaa

#32500
1aaaaa
b1010000 aaaab
b1010010 aaaac
b100110010100110 aaaae
b1010000 aaaaf
b10100010 aaaag
b101010100011000 aaaai

#33000
0aaaaa

#33500
1aaaaa
b1001011 aaaab
b1010000 aaaac
b100101111001000 aaaae
b1001011 aaaaf
b10010111 aaaag
b101000001110000 aaaai

#34000
0aaaaa

#34500
1aaaaa
b1100001 aaaab
b1000011 aaaac
b100110000001000 aaaae
b1100001 aaaaf
b1010010 aaaag
b100110010100110 aaaai

#35000
0aaaaa

#35500
1aaaaa
b10110110 aaaab
b11010010 aaaac
b100100100111011 aaaae
b10110110 aaaaf
b1010000 aaaag
b100101111001000 aaaai

#36000
0aaaaa

#36500
1aaaaa
b1111010 aaaab
b10001111 aaaac
b100010010000000 aaaae
b1111010 aaaaf
b1000011 aaaag
b100110000001000 aaaai

#37000
0aaaaa

#37500
1aaaaa
b10110000 aaaab
b1000110 aaaac
b100000001010110 aaaae
b10110000 aaaaf
b11010010 aaaag
b100100100111011 aaaai

#38000
0aaaaa

#38500
1aaaaa
b10100100 aaaab
b10001000 aaaac
b100000101110010 aaaae
b10100100 aaaaf
b10001111 aaaag
b100010010000000 aaaai

#39000
0aaaaa

#39500
1aaaaa
b1001111 aaaab
b110011 aaaac
b100011000101101 aaaae
b1001111 aaaaf
b1000110 aaaag
b100000001010110 aaaai

#40000
0aaaaa

#40500
1aaaaa
b10010111 aaaab
b1010000 aaaac
b100100001110111 aaaae
b10010111 aaaaf
b10001000 aaaag
b100000101110010 aaaai

#41000
0aaaaa

#41500
1aaaaa
b10001101 aaaab
b1001011 aaaac
b100011000011100 aaaae
b10001101 aaaaf
b110011 aaaag
b100011000101101 aaaai

#42000
0aaaaa

#42500
1aaaaa
b111010 aaaab
b1100001 aaaac
b11111000011110 aaaae
b111010 aaaaf
b1010000 aaaag
b100100001110111 aaaai

#43000
0aaaaa

#43500
1aaaaa
b1101011 aaaab
b10110110 aaaac
b11011010000000 aaaae
b1101011 aaaaf
b1001011 aaaag
b100011000011100 aaaai

#44000
0aaaaa

#44500
1aaaaa
b1001000 aaaab
b1111010 aaaac
b11001011101001 aaaae
b1001000 aaaaf
b1100001 aaaag
b11111000011110 aaaai

#45000
0aaaaa

#45500
1aaaaa
b10110000 aaaab
b10110000 aaaac
b11010011110010 aaaae
b10110000 aaaaf
b10110110 aaaag
b11011010000000 aaaai

#46000
0aaaaa

#46500
1aaaaa
b1000110 aaaab
b10100100 aaaac
b11110101101010 aaaae
b1000110 aaaaf
b1111010 aaaag
b11001011101001 aaaai

#47000
0aaaaa

#47500
1aaaaa
b111110 aaaab
b1001111 aaaac
b100011110100111 aaaae
b111110 aaaaf
b10110000 aaaag
b11010011110010 aaaai

#48000
0aaaaa

#48500
1aaaaa
b11011101 aaaab
b10010111 aaaac
b101000010111001 aaaae
b11011101 aaaaf
b10100100 aaaag
b11110101101010 aaaai

#49000
0aaaaa

#49500
1aaaaa
b1110010 aaaab
b10001101 aaaac
b101010100100110 aaaae
b1110010 aaaaf
b1001111 aaaag
b100011110100111 aaaai

#50000
0aaaaa

#50500
1aaaaa
b1111111 aaaab
b111010 aaaac
b101010000011101 aaaae
b1111111 aaaaf
b10010111 aaaag
b101000010111001 aaaai

#51000
0aaaaa

#51500
1aaaaa
b111010 aaaab
b1101011 aaaac
b101000001001001 aaaae
b111010 aaaaf
b10001101 aaaag
b101010100100110 aaaai

#52000
0aaaaa

#52500
1aaaaa
b1100111 aaaab
b1001000 aaaac
b100101011100001 aaaae
b1100111 aaaaf
b111010 aaaag
b101010000011101 aaaai

#53000
0aaaaa

#53500
1aaaaa
b1101000 aaaab
b10110000 aaaac
b100010010111101 aaaae
b1101000 aaaaf
b1101011 aaaag
b101000001001001 aaaai

#54000
0aaaaa

#54500
1aaaaa
b10011101 aaaab
b1000110 aaaac
b100000000000100 aaaae
b10011101 aaaaf
b1001000 aaaag
b100101011100001 aaaai

#55000
0aaaaa

#55500
1aaaaa
b10110011 aaaab
b111110 aaaac
b11110001011111 aaaae
b10110011 aaaaf
b10110000 aaaag
b100010010111101 aaaai

#56000
0aaaaa

#56500
1aaaaa
b1011001 aaaab
b11011101 aaaac
b11101111011000 aaaae
b1011001 aaaaf
b1000110 aaaag
b100000000000100 aaaai

#57000
0aaaaa

#57500
1aaaaa
b1001001 aaaab
b1110010 aaaac
b11110110000001 aaaae
b1001001 aaaaf
b111110 aaaag
b11110001011111 aaaai

#58000
0aaaaa

#58500
1aaaaa
b10011001 aaaab
b1111111 aaaac
b11111111010010 aaaae
b10011001 aaaaf
b11011101 aaaag
b11101111011000 aaaai

#59000
0aaaaa

#59500
1aaaaa
b10101001 aaaab
b111010 aaaac
b100010010101101 aaaae
b10101001 aaaaf
b1110010 aaaag
b11110110000001 aaaai

#60000
0aaaaa

#60500
1aaaaa
b1011100 aaaab
b1100111 aaaac
b100011111001010 aaaae
b1011100 aaaaf
b1111111 aaaag
b11111111010010 aaaai

#61000
0aaaaa

#61500
1aaaaa
b1010111 aaaab
b1101000 aaaac
b100100101001111 aaaae
b1010111 aaaaf
b111010 aaaag
b100010010101101 aaaai

#62000
0aaaaa

#62500
1aaaaa
b10110010 aaaab
b10011101 aaaac
b100010110110101 aaaae
b10110010 aaaaf
b1100111 aaaag
b100011111001010 aaaai

#63000
0aaaaa

#63500
1aaaaa
b10000010 aaaab
b10110011 aaaac
b100000001101011 aaaae
b10000010 aaaaf
b1101000 aaaag
b100100101001111 aaaai

#64000
0aaaaa

#64500
1aaaaa
b1010011 aaaab
b1011001 aaaac
b11111011100101 aaaae
b1010011 aaaaf
b10011101 aaaag
b100010110110101 aaaai

#65000
0aaaaa

#65500
1aaaaa
b1011001 aaaab
b1001001 aaaac
b100001000000001 aaaae
b1011001 aaaaf
b10110011 aaaag
b100000001101011 aaaai

#66000
0aaaaa

#66500
1aaaaa
b10001101 aaaab
b10011001 aaaac
b100100000111000 aaaae
b10001101 aaaaf
b1011001 aaaag
b11111011100101 aaaai

#67000
0aaaaa

#67500
1aaaaa
b10010110 aaaab
b10101001 aaaac
b100101100000101 aaaae
b10010110 aaaaf
b1001001 aaaag
b100001000000001 aaaai

#68000
0aaaaa

#68500
1aaaaa
b1110010 aaaab
b1011100 aaaac
b100101001011010 aaaae
b1110010 aaaaf
b10011001 aaaag
b100100000111000 aaaai

#69000
0aaaaa

#69500
1aaaaa
b1010010 aaaab
b1010111 aaaac
b100100001001000 aaaae
b1010010 aaaaf
b10101001 aaaag
b100101100000101 aaaai

#70000
0aaaaa

#70500
1aaaaa
b111110 aaaab
b10110010 aaaac
b100011110111010 aaaae
b111110 aaaaf
b1011100 aaaag
b100101001011010 aaaai

#71000
0aaaaa

#71500
1aaaaa
b10101010 aaaab
b10000010 aaaac
b100100010110101 aaaae
b10101010 aaaaf
b1010111 aaaag
b100100001001000 aaaai

#72000
0aaaaa

#72500
1aaaaa
b10000111 aaaab
b1010011 aaaac
b100100101001010 aaaae
b10000111 aaaaf
b10110010 aaaag
b100011110111010 aaaai

#73000
0aaaaa

#73500
1aaaaa
b10001100 aaaab
b1011001 aaaac
b100100101011101 aaaae
b10001100 aaaaf
b10000010 aaaag
b100100010110101 aaaai

#74000
0aaaaa

#74500
1aaaaa
b1000111 aaaab
b10001101 aaaac
b100100001111000 aaaae
b1000111 aaaaf
b1010011 aaaag
b100100101001010 aaaai

#75000
0aaaaa

#75500
1aaaaa
b10000000 aaaab
b10010110 aaaac
b100011011010110 aaaae
b10000000 aaaaf
b1011001 aaaag
b100100101011101 aaaai

#76000
0aaaaa

#76500
1aaaaa
b10000010 aaaab
b1110010 aaaac
b100010011010101 aaaae
b10000010 aaaaf
b10001101 aaaag
b100100001111000 aaaai

#77000
0aaaaa

#77500
1aaaaa
b1100001 aaaab
b1010010 aaaac
b100001111010011 aaaae
b1100001 aaaaf
b10010110 aaaag
b100011011010110 aaaai

#78000
0aaaaa

#78500
1aaaaa
b1101001 aaaab
b111110 aaaac
b100010011001101 aaaae
b1101001 aaaaf
b1110010 aaaag
b100010011010101 aaaai

#79000
0aaaaa

#79500
1aaaaa
b1010011 aaaab
b10101010 aaaac
b100010100110101 aaaae
b1010011 aaaaf
b1010010 aaaag
b100001111010011 aaaai

#80000
0aaaaa

#80500
1aaaaa
b1010100 aaaab
b10000111 aaaac
b100001111011111 aaaae
b1010100 aaaaf
b111110 aaaag
b100010011001101 aaaai

#81000
0aaaaa

#81500
1aaaaa
b10000000 aaaab
b10001100 aaaac
b100000011010000 aaaae
b10000000 aaaaf
b10101010 aaaag
b100010100110101 aaaai

#82000
0aaaaa

#82500
1aaaaa
b10001011 aaaab
b1000111 aaaac
b100000010011100 aaaae
b10001011 aaaaf
b10000111 aaaag
b100001111011111 aaaai

#83000
0aaaaa

#83500
1aaaaa
b10001100 aaaab
b10000000 aaaac
b100001101011101 aaaae
b10001100 aaaaf
b10001100 aaaag
b100000011010000 aaaai

#84000
0aaaaa

#84500
1aaaaa
b10101101 aaaab
b10000010 aaaac
b100011100110000 aaaae
b10101101 aaaaf
b1000111 aaaag
b100000010011100 aaaai

#85000
0aaaaa

#85500
1aaaaa
b1101110 aaaab
b1100001 aaaac
b100100001000111 aaaae
b1101110 aaaaf
b10000000 aaaag
b100001101011101 aaaai

#86000
0aaaaa

#86500
1aaaaa
b1111101 aaaab
b1101001 aaaac
b100011001000001 aaaae
b1111101 aaaaf
b10000010 aaaag
b100011100110000 aaaai

#87000
0aaaaa

#87500
1aaaaa
b1011010 aaaab
b1010011 aaaac
b100001111111000 aaaae
b1011010 aaaaf
b1100001 aaaag
b100100001000111 aaaai

#88000
0aaaaa

#88500
1aaaaa
b10000010 aaaab
b1010100 aaaac
b100000110010000 aaaae
b10000010 aaaaf
b1101001 aaaag
b100011001000001 aaaai

#89000
0aaaaa

#89500
1aaaaa
b1100110 aaaab
b10000000 aaaac
b11111110011111 aaaae
b1100110 aaaaf
b1010011 aaaag
b100001111111000 aaaai

#90000
0aaaaa

#90500
1aaaaa
b111110 aaaab
b10001011 aaaac
b11110010101101 aaaae
b111110 aaaaf
b1010100 aaaag
b100000110010000 aaaai

#91000
0aaaaa

#91500
1aaaaa
b10011100 aaaab
b10001100 aaaac
b11101011101001 aaaae
b10011100 aaaaf
b10000000 aaaag
b11111110011111 aaaai

#92000
0aaaaa

#92500
1aaaaa
b1000110 aaaab
b10101101 aaaac
b11110000110111 aaaae
b1000110 aaaaf
b10001011 aaaag
b11110010101101 aaaai

#93000
0aaaaa

#93500
1aaaaa
b1101000 aaaab
b1101110 aaaac
b100000110001010 aaaae
b1101000 aaaaf
b10001100 aaaag
b11101011101001 aaaai

#94000
0aaaaa

#94500
1aaaaa
b1101001 aaaab
b1111101 aaaac
b100100010110010 aaaae
b1101001 aaaaf
b10101101 aaaag
b11110000110111 aaaai

#95000
0aaaaa

#95500
1aaaaa
b1101110 aaaab
b1011010 aaaac
b100111011001011 aaaae
b1101110 aaaaf
b1101110 aaaag
b100000110001010 aaaai

#96000
0aaaaa

#96500
1aaaaa
b10010111 aaaab
b10000010 aaaac
b101000001110111 aaaae
b10010111 aaaaf
b1111101 aaaag
b100100010110010 aaaai

#97000
0aaaaa

#97500
1aaaaa
b10010100 aaaab
b1100110 aaaac
b100111000111011 aaaae
b10010100 aaaaf
b1011010 aaaag
b100111011001011 aaaai

#98000
0aaaaa

#98500
1aaaaa
b10000010 aaaab
b111110 aaaac
b100100101010001 aaaae
b10000010 aaaaf
b10000010 aaaag
b101000001110111 aaaai

#99000
0aaaaa

#99500
1aaaaa
b1101001 aaaab
b10011100 aaaac
b100010000001010 aaaae
b1101001 aaaaf
b1100110 aaaag
b100111000111011 aaaai

#100000
0aaaaa

#100500
1aaaaa
b1011110 aaaab
b1000110 aaaac
b100000010010111 aaaae
b1011110 aaaaf
b111110 aaaag
b100100101010001 aaaai

#101000
0aaaaa

#101500
1aaaaa
b10000010 aaaab
b1101000 aaaac
b11110110100100 aaaae
b10000010 aaaaf
b10011100 aaaag
b100010000001010 aaaai

#102000
0aaaaa

#102500
1aaaaa
b1001111 aaaab
b1101001 aaaac
b11110011001010 aaaae
b1001111 aaaaf
b1000110 aaaag
b100000010010111 aaaai

#103000
0aaaaa

#103500
1aaaaa
b11001111 aaaab
b1101110 aaaac
b11101111000100 aaaae
b11001111 aaaaf
b1101000 aaaag
b11110110100100 aaaai

#104000
0aaaaa

#104500
1aaaaa
b101110 aaaab
b10010111 aaaac
b11101110101110 aaaae
b101110 aaaaf
b1101001 aaaag
b11110011001010 aaaai

#105000
0aaaaa

#105500
1aaaaa
b1111011 aaaab
b10010100 aaaac
b11110010011101 aaaae
b1111011 aaaaf
b1101110 aaaag
b11101111000100 aaaai

#106000
0aaaaa

#106500
1aaaaa
b1010101 aaaab
b10000010 aaaac
b11111100000010 aaaae
b1010101 aaaaf
b10010111 aaaag
b11101110101110 aaaai

#107000
0aaaaa

#107500
1aaaaa
b1101001 aaaab
b1101001 aaaac
b100010000100101 aaaae
b1101001 aaaaf
b10010100 aaaag
b11110010011101 aaaai

#108000
0aaaaa

#108500
1aaaaa
b10010000 aaaab
b1011110 aaaac
b100100100010011 aaaae
b10010000 aaaaf
b10000010 aaaag
b11111100000010 aaaai

#109000
0aaaaa

#109500
1aaaaa
b1011111 aaaab
b10000010 aaaac
b100110000010110 aaaae
b1011111 aaaaf
b1101001 aaaag
b100010000100101 aaaai

#110000
0aaaaa

#110500
1aaaaa
b10101010 aaaab
b1001111 aaaac
b100101100101000 aaaae
b10101010 aaaaf
b1011110 aaaag
b100100100010011 aaaai

#111000
0aaaaa

#111500
1aaaaa
b110111 aaaab
b11001111 aaaac
b100011011111000 aaaae
b110111 aaaaf
b10000010 aaaag
b100110000010110 aaaai

#112000
0aaaaa

#112500
1aaaaa
b10010001 aaaab
b101110 aaaac
b100010000001110 aaaae
b10010001 aaaaf
b1001111 aaaag
b100101100101000 aaaai

#113000
0aaaaa

#113500
1aaaaa
b1011010 aaaab
b1111011 aaaac
b100001010001100 aaaae
b1011010 aaaaf
b11001111 aaaag
b100011011111000 aaaai

#114000
0aaaaa

#114500
1aaaaa
b10011011 aaaab
b1010101 aaaac
b100010000101111 aaaae
b10011011 aaaaf
b101110 aaaag
b100010000001110 aaaai

#115000
0aaaaa

#115500
1aaaaa
b10000101 aaaab
b1101001 aaaac
b100010001010000 aaaae
b10000101 aaaaf
b1111011 aaaag
b100001010001100 aaaai

#116000
0aaaaa

#116500
1aaaaa
b10100000 aaaab
b10010000 aaaac
b100001010000100 aaaae
b10100000 aaaaf
b1010101 aaaag
b100010000101111 aaaai

#117000
0aaaaa

#117500
1aaaaa
b111010 aaaab
b1011111 aaaac
b11111111011110 aaaae
b111010 aaaaf
b1101001 aaaag
b100010001010000 aaaai

#118000
0aaaaa

#118500
1aaaaa
b10100100 aaaab
b10101010 aaaac
b11110110001011 aaaae
b10100100 aaaaf
b10010000 aaaag
b100001010000100 aaaai

#119000
0aaaaa

#119500
1aaaaa
b10101110 aaaab
b110111 aaaac
b11111111001111 aaaae
b10101110 aaaaf
b1011111 aaaag
b11111111011110 aaaai

#120000
0aaaaa

#120500
1aaaaa
b100100 aaaab
b10010001 aaaac
b100000111110110 aaaae
b100100 aaaaf
b10101010 aaaag
b11110110001011 aaaai

#121000
0aaaaa

#121500
1aaaaa
b1100000 aaaab
b1011010 aaaac
b100010101011001 aaaae
b1100000 aaaaf
b110111 aaaag
b11111111001111 aaaai

#122000
0aaaaa

#122500
1aaaaa
b1101110 aaaab
b10011011 aaaac
b100010100010101 aaaae
b1101110 aaaaf
b10010001 aaaag
b100000111110110 aaaai

#123000
0aaaaa

#123500
1aaaaa
b1110111 aaaab
b10000101 aaaac
b100010001011010 aaaae
b1110111 aaaaf
b1011010 aaaag
b100010101011001 aaaai

#124000
0aaaaa

#124500
1aaaaa
b1110000 aaaab
b10100000 aaaac
b100010000000000 aaaae
b1110000 aaaaf
b10011011 aaaag
b100010100010101 aaaai

#125000
0aaaaa

#125500
1aaaaa
b10001111 aaaab
b111010 aaaac
b100010111101000 aaaae
b10001111 aaaaf
b10000101 aaaag
b100010001011010 aaaai

#126000
0aaaaa

#126500
1aaaaa
b10000111 aaaab
b10100100 aaaac
b100100101010100 aaaae
b10000111 aaaaf
b10100000 aaaag
b100010000000000 aaaai

#127000
0aaaaa

#127500
1aaaaa
b1110110 aaaab
b10101110 aaaac
b100101110011010 aaaae
b1110110 aaaaf
b111010 aaaag
b100010111101000 aaaai

#128000
0aaaaa

#128500
1aaaaa
b10011011 aaaab
b100100 aaaac
b100110010011011 aaaae
b10011011 aaaaf
b10100100 aaaag
b100100101010100 aaaai

#129000
0aaaaa

#129500
1aaaaa
b10010100 aaaab
b1100000 aaaac
b100101101011001 aaaae
b10010100 aaaaf
b10101110 aaaag
b100101110011010 aaaai

#130000
0aaaaa

#130500
1aaaaa
b10111010 aaaab
b1101110 aaaac
b100100111110010 aaaae
b10111010 aaaaf
b100100 aaaag
b100110010011011 aaaai

#131000
0aaaaa

#131500
1aaaaa
b10110110 aaaab
b1110111 aaaac
b100010111011110 aaaae
b10110110 aaaaf
b1100000 aaaag
b100101101011001 aaaai

#132000
0aaaaa

#132500
1aaaaa
b1011101 aaaab
b1110000 aaaac
b100000110000100 aaaae
b1011101 aaaaf
b1101110 aaaag
b100100111110010 aaaai

#133000
0aaaaa

#133500
1aaaaa
b1001110 aaaab
b10001111 aaaac
b11110100110000 aaaae
b1001110 aaaaf
b1110111 aaaag
b100010111011110 aaaai

#134000
0aaaaa

#134500
1aaaaa
b10110100 aaaab
b10000111 aaaac
b11110010110011 aaaae
b10110100 aaaaf
b1110000 aaaag
b100000110000100 aaaai

#135000
0aaaaa

#135500
1aaaaa
b1011101 aaaab
b1110110 aaaac
b11111111110010 aaaae
b1011101 aaaaf
b10001111 aaaag
b11110100110000 aaaai

#136000
0aaaaa

#136500
1aaaaa
b1111001 aaaab
b10011011 aaaac
b100010010011111 aaaae
b1111001 aaaaf
b10000111 aaaag
b11110010110011 aaaai

#137000
0aaaaa

#137500
1aaaaa
b11000011 aaaab
b10010100 aaaac
b100100101001000 aaaae
b11000011 aaaaf
b1110110 aaaag
b11111111110010 aaaai

#138000
0aaaaa

#138500
1aaaaa
b10000100 aaaab
b10111010 aaaac
b100110001000010 aaaae
b10000100 aaaaf
b10011011 aaaag
b100010010011111 aaaai

#139000
0aaaaa

#139500
1aaaaa
b1110001 aaaab
b10110110 aaaac
b100111110101000 aaaae
b1110001 aaaaf
b10010100 aaaag
b100100101001000 aaaai

#140000
0aaaaa

#140500
1aaaaa
b1000100 aaaab
b1011101 aaaac
b101001111101001 aaaae
b1000100 aaaaf
b10111010 aaaag
b100110001000010 aaaai

#141000
0aaaaa

#141500
1aaaaa
b10001110 aaaab
b1001110 aaaac
b101100001111010 aaaae
b10001110 aaaaf
b10110110 aaaag
b100111110101000 aaaai

#142000
0aaaaa

#142500
1aaaaa
b1111001 aaaab
b10110100 aaaac
b101101001111101 aaaae
b1111001 aaaaf
b1011101 aaaag
b101001111101001 aaaai

#143000
0aaaaa

#143500
1aaaaa
b10110000 aaaab
b1011101 aaaac
b101011111111101 aaaae
b10110000 aaaaf
b1001110 aaaag
b101100001111010 aaaai

#144000
0aaaaa

#144500
1aaaaa
b11001110 aaaab
b1111001 aaaac
b101000110001110 aaaae
b11001110 aaaaf
b10110100 aaaag
b101101001111101 aaaai

#145000
0aaaaa

#145500
1aaaaa
b100111 aaaab
b11000011 aaaac
b100101101011000 aaaae
b100111 aaaaf
b1011101 aaaag
b101011111111101 aaaai

#146000
0aaaaa

#146500
1aaaaa
b10010011 aaaab
b10000100 aaaac
b100100010010110 aaaae
b10010011 aaaaf
b1111001 aaaag
b101000110001110 aaaai

#147000
0aaaaa

#147500
1aaaaa
b1001111 aaaab
b1110001 aaaac
b100101000011001 aaaae
b1001111 aaaaf
b11000011 aaaag
b100101101011000 aaaai

#148000
0aaaaa

#148500
1aaaaa
b1010101 aaaab
b1000100 aaaac
b100111000011011 aaaae
b1010101 aaaaf
b10000100 aaaag
b100100010010110 aaaai

#149000
0aaaaa

#149500
1aaaaa
b10000011 aaaab
b10001110 aaaac
b100111111110101 aaaae
b10000011 aaaaf
b1110001 aaaag
b100101000011001 aaaai

#150000
0aaaaa

#150500
1aaaaa
b1001010 aaaab
b1111001 aaaac
b100111011011100 aaaae
b1001010 aaaaf
b1000100 aaaag
b100111000011011 aaaai

#151000
0aaaaa

#151500
1aaaaa
b10000100 aaaab
b10110000 aaaac
b100100111100101 aaaae
b10000100 aaaaf
b10001110 aaaag
b100111111110101 aaaai

#152000
0aaaaa

#152500
1aaaaa
b10010001 aaaab
b11001110 aaaac
b100011001000000 aaaae
b10010001 aaaaf
b1111001 aaaag
b100111011011100 aaaai

#153000
0aaaaa

#153500
1aaaaa
b10011001 aaaab
b100111 aaaac
b100011101110010 aaaae
b10011001 aaaaf
b10110000 aaaag
b100100111100101 aaaai

#154000
0aaaaa

#154500
1aaaaa
b1101110 aaaab
b10010011 aaaac
b100110001100010 aaaae
b1101110 aaaaf
b11001110 aaaag
b100011001000000 aaaai

#155000
0aaaaa

#155500
1aaaaa
b1001101 aaaab
b1001111 aaaac
b101001010000010 aaaae
b1001101 aaaaf
b100111 aaaag
b100011101110010 aaaai

#156000
0aaaaa

#156500
1aaaaa
b1111010 aaaab
b1010101 aaaac
b101001000110100 aaaae
b1111010 aaaaf
b10010011 aaaag
b100110001100010 aaaai

#157000
0aaaaa

#157500
1aaaaa
b10110010 aaaab
b10000011 aaaac
b100110100000001 aaaae
b10110010 aaaaf
b1001111 aaaag
b101001010000010 aaaai

#158000
0aaaaa

#158500
1aaaaa
b10010110 aaaab
b1001010 aaaac
b100010010110101 aaaae
b10010110 aaaaf
b1010101 aaaag
b101001000110100 aaaai

#159000
0aaaaa

#159500
1aaaaa
b1100110 aaaab
b10000100 aaaac
b11110111010100 aaaae
b1100110 aaaaf
b10000011 aaaag
b100110100000001 aaaai

#160000
0aaaaa

#160500
1aaaaa
b10001000 aaaab
b10010001 aaaac
b11101110000010 aaaae
b10001000 aaaaf
b1001010 aaaag
b100010010110101 aaaai

#161000
0aaaaa

#161500
1aaaaa
b10010011 aaaab
b10011001 aaaac
b11101110010101 aaaae
b10010011 aaaaf
b10000100 aaaag
b11110111010100 aaaai

#162000
0aaaaa

#162500
1aaaaa
b10000001 aaaab
b1101110 aaaac
b11111110011011 aaaae
b10000001 aaaaf
b10010001 aaaag
b11101110000010 aaaai

#163000
0aaaaa

#163500
1aaaaa
b110101 aaaab
b1001101 aaaac
b100010001101100 aaaae
b110101 aaaaf
b10011001 aaaag
b11101110010101 aaaai

#164000
0aaaaa

#164500
1aaaaa
b11001000 aaaab
b1111010 aaaac
b100100011001001 aaaae
b11001000 aaaaf
b1101110 aaaag
b11111110011011 aaaai

#165000
0aaaaa

#165500
1aaaaa
b1101101 aaaab
b10110010 aaaac
b100101000111110 aaaae
b1101101 aaaaf
b1001101 aaaag
b100010001101100 aaaai

#166000
0aaaaa

#166500
1aaaaa
b1100111 aaaab
b10010110 aaaac
b100100001110100 aaaae
b1100111 aaaaf
b1111010 aaaag
b100100011001001 aaaai

#167000
0aaaaa

#167500
1aaaaa
b1101101 aaaab
b1100110 aaaac
b100011100111101 aaaae
b1101101 aaaaf
b10110010 aaaag
b100101000111110 aaaai

#168000
0aaaaa

#168500
1aaaaa
b1001000 aaaab
b10001000 aaaac
b100100010011110 aaaae
b1001000 aaaaf
b10010110 aaaag
b100100001110100 aaaai

#169000
0aaaaa

#169500
1aaaaa
b1111001 aaaab
b10010011 aaaac
b100110001110111 aaaae
b1111001 aaaaf
b1100110 aaaag
b100011100111101 aaaai

#170000
0aaaaa

#170500
1aaaaa
b10000110 aaaab
b10000001 aaaac
b100111101110000 aaaae
b10000110 aaaaf
b10001000 aaaag
b100100010011110 aaaai

#171000
0aaaaa

#171500
1aaaaa
b10100101 aaaab
b110101 aaaac
b100111111110110 aaaae
b10100101 aaaaf
b10010011 aaaag
b100110001110111 aaaai

#172000
0aaaaa

