Tutorials/2-6_Lab4_FIR8_rtl_Emulation/emulation/sc_fir8.vcd
$date
     May 06, 2025       15:02:50
$end

$version
 SystemC 3.0.2-Accellera --- Apr 19 2025 02:07:07
$end

$timescale
     100 ps
$end

$scope module SystemC $end
$var wire    8  aaaaa  X_0 [7:0]  $end
$var wire   16  aaaab  Y_0 [15:0]  $end
$var wire    8  aaaac  X_1 [7:0]  $end
$var wire   16  aaaad  Y_1 [15:0]  $end
$var wire    8  aaaae  X_2 [7:0]  $end
$var wire   16  aaaaf  Y_2 [15:0]  $end
$var wire    8  aaaag  X_3 [7:0]  $end
$var wire   16  aaaah  Y_3 [15:0]  $end
$var wire    8  aaaai  X_4 [7:0]  $end
$var wire   16  aaaaj  Y_4 [15:0]  $end
$var wire    8  aaaak  X_5 [7:0]  $end
$var wire   16  aaaal  Y_5 [15:0]  $end
$var wire    8  aaaam  X_6 [7:0]  $end
$var wire   16  aaaan  Y_6 [15:0]  $end
$var wire   16  aaaao  Yout [15:0]  $end
$var wire   16  aaaap  Yin [15:0]  $end
$var wire    8  aaaaq  Xout [7:0]  $end
$var wire    8  aaaar  Xin [7:0]  $end
$var wire    1  aaaas  clk       $end
$upscope $end
$enddefinitions  $end

$comment
All initial values are dumped below at time 0 sec = 0 timescale units.
$end

$dumpvars
b0 aaaaa
b0 aaaab
b0 aaaac
b0 aaaad
b0 aaaae
b0 aaaaf
b0 aaaag
b0 aaaah
b0 aaaai
b0 aaaaj
b0 aaaak
b0 aaaal
b0 aaaam
b0 aaaan
b0 aaaao
b0 aaaap
b0 aaaaq
b0 aaaar
0aaaas
$end

#500
b10111001 aaaar
1aaaas

#1000
0aaaas

#1500
b10111001 aaaaa
b101100 aaaar
1aaaas

#2000
0aaaas

#2500
b101100 aaaaa
b1011100100 aaaab
b10111001 aaaac
b10101100 aaaar
1aaaas

#3000
0aaaas

#3500
b10101100 aaaaa
b10110000 aaaab
b101100 aaaac
b100010101100 aaaad
b10111001 aaaae
b1000100 aaaar
1aaaas

#4000
0aaaas

#4500
b1000100 aaaaa
b1010110000 aaaab
b10101100 aaaac
b10011110100 aaaad
b101100 aaaae
b1001000010001 aaaaf
b10111001 aaaag
b10011011 aaaar
1aaaas

#5000
0aaaas

#5500
b10011011 aaaaa
b100010000 aaaab
b1000100 aaaac
b100011000000 aaaad
b10101100 aaaae
b110011111000 aaaaf
b101100 aaaag
b1100010010010 aaaah
b10111001 aaaai
b1101101 aaaar
1aaaas

#6000
0aaaas

#6500
b1101101 aaaaa
b1001101100 aaaab
b10011011 aaaac
b10111100000 aaaad
b1000100 aaaae
b1010111000000 aaaaf
b10101100 aaaag
b1011111101001 aaaah
b101100 aaaai
b1100010010010 aaaaj
b10111001 aaaak
b10010100 aaaar
1aaaas

#7000
0aaaas

#7500
b10010100 aaaaa
b110110100 aaaab
b1101101 aaaac
b100001010100 aaaad
b10011011 aaaae
b111101100100 aaaaf
b1000100 aaaag
b10001111010000 aaaah
b10101100 aaaai
b1111001101010 aaaaj
b101100 aaaak
b1001000010001 aaaal
b10111001 aaaam
b10111111 aaaar
1aaaas

#8000
0aaaas

#8500
b10111111 aaaaa
b1001010000 aaaab
b10010100 aaaac
b11110001000 aaaad
b1101101 aaaae
b1010100000011 aaaaf
b10011011 aaaag
b1111011001000 aaaah
b1000100 aaaai
b10111011000001 aaaaj
b10101100 aaaak
b1110011011110 aaaal
b101100 aaaam
b100010101100 aaaan
b10111001 aaaaq
b10001110 aaaar
1aaaas

#9000
0aaaas

#9500
b10001110 aaaaa
b1011111100 aaaab
b10111111 aaaac
b100010100100 aaaad
b10010100 aaaae
b1001011111001 aaaaf
b1101101 aaaag
b10001111111010 aaaah
b10011011 aaaai
b10110011011000 aaaaj
b1000100 aaaak
b10111100110110 aaaal
b10101100 aaaam
b1010000100001 aaaan
b1011100100 aaaao
b101100 aaaaq
b10100000 aaaar
1aaaas

#10000
0aaaas

#10500
b10100000 aaaaa
b1000111000 aaaab
b10001110 aaaac
b101101000100 aaaad
b10111111 aaaae
b1010111111100 aaaaf
b10010100 aaaag
b10001101111101 aaaah
b1101101 aaaai
b11001101011110 aaaaj
b10011011 aaaak
b11010101100101 aaaal
b1000100 aaaam
b10010011101110 aaaan
b100101011100 aaaao
b10101100 aaaaq
b10111100 aaaar
1aaaas

#11000
0aaaas

#11500
b10111100 aaaaa
b1010000000 aaaab
b10100000 aaaac
b100110100100 aaaad
b10001110 aaaae
b1101101001011 aaaaf
b10111111 aaaag
b10011010100001 aaaah
b10010100 aaaai
b11001001110100 aaaaj
b1101101 aaaak
b11101111111011 aaaal
b10011011 aaaam
b11001001100110 aaaan
b1011011010001 aaaao
b1000100 aaaaq
b10101101 aaaar
1aaaas

#12000
0aaaas

#12500
b10101101 aaaaa
b1011110000 aaaab
b10111100 aaaac
b100110111000 aaaad
b10100000 aaaae
b1100100100010 aaaaf
b10001110 aaaag
b10111101011010 aaaah
b10111111 aaaai
b11011100100101 aaaaj
b10010100 aaaak
b11111000000011 aaaal
b1101101 aaaam
b11110010101001 aaaan
b10010111111110 aaaao
b10011011 aaaaq
b10010100 aaaar
1aaaas

#13000
0aaaas

#13500
b10010100 aaaaa
b1010110100 aaaab
b10101101 aaaac
b101101010000 aaaad
b10111100 aaaae
b1100101000100 aaaaf
b10100000 aaaag
b10111000100111 aaaah
b10001110 aaaai
b11111111111111 aaaaj
b10111111 aaaak
b100000011101000 aaaal
b10010100 aaaam
b100000100010111 aaaan
b11010011010010 aaaao
b1101101 aaaaq
b10101101 aaaar
1aaaas

#14000
0aaaas

#14500
b10101101 aaaaa
b1001010000 aaaab
b10010100 aaaac
b101100001100 aaaad
b10101101 aaaae
b1110000010100 aaaaf
b10111100 aaaag
b10111001100010 aaaah
b10100000 aaaai
b100001000110110 aaaaj
b10001110 aaaak
b100100111001100 aaaal
b10111111 aaaam
b100010011110011 aaaan
b11111001011101 aaaao
b10010100 aaaaq
b10011000 aaaar
1aaaas

#15000
0aaaas

#15500
b10011000 aaaaa
b1010110100 aaaab
b10101101 aaaac
b100110100100 aaaad
b10010100 aaaae
b1110000110101 aaaaf
b10101101 aaaag
b11001000111100 aaaah
b10111100 aaaai
b100001101100111 aaaaj
b10100000 aaaak
b100110111011101 aaaal
b10001110 aaaam
b100100111011100 aaaan
b100001101100111 aaaao
b10111111 aaaaq
b10010000 aaaar
1aaaas

#16000
0aaaas

#16500
b10010000 aaaaa
b1001100000 aaaab
b10011000 aaaac
b101001101100 aaaad
b10101101 aaaae
b1100110000000 aaaaf
b10010100 aaaag
b11001100001110 aaaah
b10101101 aaaai
b100011101011010 aaaaj
b10111100 aaaak
b101000111010110 aaaal
b10100000 aaaam
b101000001110100 aaaan
b100011111101111 aaaao
b10001110 aaaaq
b10001010 aaaar
1aaaas

#17000
0aaaas

#17500
b10001010 aaaaa
b1001000000 aaaab
b10010000 aaaac
b100111010100 aaaad
b10011000 aaaae
b1101010001001 aaaaf
b10101101 aaaag
b10111111011101 aaaah
b10010100 aaaai
b100100100110110 aaaaj
b10101101 aaaak
b101010111000011 aaaal
b10111100 aaaam
b101010101011101 aaaan
b100110000010100 aaaao
b10100000 aaaaq
b10111011 aaaar
1aaaas

#18000
0aaaas

#18500
b10111011 aaaaa
b1000101000 aaaab
b10001010 aaaac
b100100100000 aaaad
b10010000 aaaae
b1100101000100 aaaaf
b10011000 aaaag
b11000001111010 aaaah
b10101101 aaaai
b100011010110110 aaaaj
b10010100 aaaak
b101100000111111 aaaal
b10101101 aaaam
b101101010100110 aaaan
b101001011110100 aaaao
b10111100 aaaaq
b10011101 aaaar
1aaaas

#19000
0aaaas

#19500
b10011101 aaaaa
b1011101100 aaaab
b10111011 aaaac
b100010111000 aaaad
b10001010 aaaae
b1011111100100 aaaaf
b10010000 aaaag
b10111010111001 aaaah
b10011000 aaaai
b100011011010111 aaaaj
b10101101 aaaak
b101011110101010 aaaal
b10010100 aaaam
b101110111011111 aaaan
b101100001001101 aaaao
b10101101 aaaaq
b1011110 aaaar
1aaaas

#20000
0aaaas

#20500
b1011110 aaaaa
b1001110100 aaaab
b10011101 aaaac
b101011101100 aaaad
b10111011 aaaae
b1011010011010 aaaaf
b10001010 aaaag
b10110001100100 aaaah
b10010000 aaaai
b100010010101010 aaaaj
b10011000 aaaak
b101011110011011 aaaal
b10101101 aaaam
b101111100101111 aaaan
b101110101011010 aaaao
b10010100 aaaaq
b1111011 aaaar
1aaaas

#21000
0aaaas

#21500
b1111011 aaaaa
b101111000 aaaab
b1011110 aaaac
b101001001000 aaaad
b10011101 aaaae
b1101011111011 aaaaf
b10111011 aaaag
b10101000111000 aaaah
b10001010 aaaai
b100000111011001 aaaaj
b10010000 aaaak
b101010110101111 aaaal
b10011000 aaaam
b101111111000110 aaaan
b110000000101111 aaaao
b10101101 aaaaq
b1110111 aaaar
1aaaas

#22000
0aaaas

#22500
b1110111 aaaaa
b111101100 aaaab
b1111011 aaaac
b11011011100 aaaad
b1011110 aaaae
b1101001000001 aaaaf
b10011101 aaaag
b10111101110000 aaaah
b10111011 aaaai
b11111010111000 aaaaj
b10001010 aaaak
b101001010111010 aaaal
b10010000 aaaam
b101111010111011 aaaan
b110000111100011 aaaao
b10011000 aaaaq
b10100010 aaaar
1aaaas

#23000
0aaaas

#23500
b10100010 aaaaa
b111011100 aaaab
b1110111 aaaac
b11100111100 aaaad
b1111011 aaaae
b1001101110110 aaaaf
b1011110 aaaag
b10111111010101 aaaah
b10011101 aaaai
b100001100001110 aaaaj
b10111011 aaaak
b100111101010011 aaaal
b10001010 aaaam
b101110001101111 aaaan
b110001000100110 aaaao
b10010000 aaaaq
b10010111 aaaar
1aaaas

#24000
0aaaas

#24500
b10010111 aaaaa
b1010001000 aaaab
b10100010 aaaac
b11110000000 aaaad
b1110111 aaaae
b1001011011111 aaaaf
b1111011 aaaag
b10011010111101 aaaah
b1011110 aaaai
b100010001001010 aaaaj
b10011101 aaaak
b101000011111011 aaaal
b10111011 aaaam
b101100100110010 aaaan
b110000011111011 aaaao
b10001010 aaaaq
b1010010 aaaar
1aaaas

#25000
0aaaas

#25500
b1010010 aaaaa
b1001011100 aaaab
b10010111 aaaac
b100101110100 aaaad
b10100010 aaaae
b1001011011011 aaaaf
b1110111 aaaag
b10001111001100 aaaah
b1111011 aaaai
b11110001010001 aaaaj
b1011110 aaaak
b101001001100011 aaaal
b10011101 aaaam
b101100000010111 aaaan
b101111010010111 aaaao
b10111011 aaaaq
b1010000 aaaar
1aaaas

#26000
0aaaas

#26500
b1010000 aaaaa
b101001000 aaaab
b1010010 aaaac
b100110011100 aaaad
b10010111 aaaae
b1011101010010 aaaaf
b10100010 aaaag
b10001010101101 aaaah
b1110111 aaaai
b11011100010011 aaaaj
b1111011 aaaak
b100110101111000 aaaal
b1011110 aaaam
b101100001010111 aaaan
b101110000011110 aaaao
b10011101 aaaaq
b1000011 aaaar
1aaaas

#27000
0aaaas

#27500
b1000011 aaaaa
b101000000 aaaab
b1010000 aaaac
b11000110100 aaaad
b1010010 aaaae
b1100000110011 aaaaf
b10010111 aaaag
b10100001011111 aaaah
b10100010 aaaai
b11001110011010 aaaaj
b1110111 aaaak
b100100001010100 aaaal
b1111011 aaaam
b101011011001011 aaaan
b101101010001011 aaaao
b1011110 aaaaq
b11010010 aaaar
1aaaas

#28000
0aaaas

#28500
b11010010 aaaaa
b100001100 aaaab
b1000011 aaaac
b10100001000 aaaad
b1010000 aaaae
b1000110011110 aaaaf
b1010010 aaaag
b10101101100000 aaaah
b10010111 aaaai
b11100000110001 aaaaj
b10100010 aaaak
b100001010110010 aaaal
b1110111 aaaam
b101001100111100 aaaan
b101100111001111 aaaao
b1111011 aaaaq
b10001111 aaaar
1aaaas

#29000
0aaaas

#29500
b10001111 aaaaa
b1101001000 aaaab
b11010010 aaaac
b10001100100 aaaad
b1000011 aaaae
b111000000100 aaaaf
b1010000 aaaag
b10001100010111 aaaah
b1010010 aaaai
b11110001101101 aaaaj
b10010111 aaaak
b100001101101100 aaaal
b10100010 aaaam
b100110111101000 aaaan
b101100010110111 aaaao
b1110111 aaaaq
b1000110 aaaar
1aaaas

#30000
0aaaas

#30500
b1000110 aaaaa
b1000111100 aaaab
b10001111 aaaac
b101011100100 aaaad
b11010010 aaaae
b101110010011 aaaaf
b1000011 aaaag
b1110000111110 aaaah
b1010000 aaaai
b11011001000100 aaaaj
b1010010 aaaak
b100011011110000 aaaal
b10010111 aaaam
b100101001001010 aaaan
b101010100011000 aaaao
b10100010 aaaaq
b10001000 aaaar
1aaaas

#31000
0aaaas

#31500
b10001000 aaaaa
b100011000 aaaab
b1000110 aaaac
b100111111100 aaaad
b10001111 aaaae
b1100011100110 aaaaf
b11010010 aaaag
b1011011101010 aaaah
b1000011 aaaai
b10110110110111 aaaaj
b1010000 aaaak
b100010001101111 aaaal
b1010010 aaaam
b100101010000000 aaaan
b101000001110000 aaaao
b10010111 aaaaq
b110011 aaaar
1aaaas

#32000
0aaaas

#32500
b110011 aaaaa
b1000100000 aaaab
b10001000 aaaac
b10110000100 aaaad
b1000110 aaaae
b1100011011011 aaaaf
b10001111 aaaag
b10011101110111 aaaah
b11010010 aaaai
b10010100100100 aaaaj
b1000011 aaaak
b11111000010100 aaaal
b1010000 aaaam
b100101011001000 aaaan
b100110010100110 aaaao
b1010010 aaaaq
b1010000 aaaar
1aaaas

#33000
0aaaas

#33500
b1010000 aaaaa
b11001100 aaaab
b110011 aaaac
b11101111000 aaaad
b10001000 aaaae
b1000011010010 aaaaf
b1000110 aaaag
b10101111100100 aaaah
b10001111 aaaai
b11001011001110 aaaaj
b11010010 aaaak
b11010001000010 aaaal
b1000011 aaaam
b100100000101111 aaaan
b100101111001000 aaaao
b1010000 aaaaq
b1001011 aaaar
1aaaas

#34000
0aaaas

#34500
b1001011 aaaaa
b101000000 aaaab
b1010000 aaaac
b10010000100 aaaad
b110011 aaaae
b1001011001100 aaaaf
b10001000 aaaag
b10001000100111 aaaah
b1000110 aaaai
b11101001110101 aaaaj
b10001111 aaaak
b11100110100110 aaaal
b11010010 aaaam
b100000100111000 aaaan
b100110000001000 aaaao
b1000011 aaaaq
b1100001 aaaar
1aaaas

#35000
0aaaas

#35500
b1100001 aaaaa
b100101100 aaaab
b1001011 aaaac
b10010001100 aaaad
b1010000 aaaae
b110001110011 aaaaf
b110011 aaaag
b10001011100010 aaaah
b10001000 aaaai
b11010100110000 aaaaj
b1000110 aaaak
b100000011000101 aaaal
b10001111 aaaam
b11111000011010 aaaan
b100100100111011 aaaao
b11010010 aaaaq
b10110110 aaaar
1aaaas

#36000
0aaaas

#36500
b10110110 aaaaa
b110000100 aaaab
b1100001 aaaac
b10011000100 aaaad
b1001011 aaaae
b110001010100 aaaaf
b1010000 aaaag
b1100110010010 aaaah
b110011 aaaai
b11010000110111 aaaaj
b10001000 aaaak
b100000101001011 aaaal
b1000110 aaaam
b100000001011010 aaaan
b100010010000000 aaaao
b10001111 aaaaq
b1111010 aaaar
1aaaas

#37000
0aaaas

#37500
b1111010 aaaaa
b1011011000 aaaab
b10110110 aaaac
b10110111000 aaaad
b1100001 aaaae
b101111011111 aaaaf
b1001011 aaaag
b1011100010011 aaaah
b1010000 aaaai
b10100110101000 aaaaj
b110011 aaaak
b100001001111000 aaaal
b10001000 aaaam
b100010000001101 aaaan
b100000001010110 aaaao
b1000110 aaaaq
b10110000 aaaar
1aaaas

#38000
0aaaas

#38500
b10110000 aaaaa
b111101000 aaaab
b1111010 aaaac
b101000001100 aaaad
b10110110 aaaae
b111000111101 aaaaf
b1100001 aaaag
b1011001001010 aaaah
b1001011 aaaai
b10010000110010 aaaaj
b1010000 aaaak
b11100100110010 aaaal
b110011 aaaam
b100011110101011 aaaan
b100000101110010 aaaao
b10001000 aaaaq
b10100100 aaaar
1aaaas

#39000
0aaaas

#39500
b10100100 aaaaa
b1011000000 aaaab
b10110000 aaaac
b100010010000 aaaad
b1111010 aaaae
b1011101111110 aaaaf
b10110110 aaaag
b1100011000001 aaaah
b1100001 aaaai
b10000100001001 aaaaj
b1001011 aaaak
b11000101111000 aaaal
b1010000 aaaam
b100010011011100 aaaan
b100011000101101 aaaao
b110011 aaaaq
b1001111 aaaar
1aaaas

#40000
0aaaas

#40500
b1001111 aaaaa
b1010010000 aaaab
b10100100 aaaac
b101000101000 aaaad
b10110000 aaaae
b1010111110110 aaaaf
b1111010 aaaag
b10011001101001 aaaah
b10110110 aaaai
b10001100101100 aaaaj
b1100001 aaaak
b10101110000101 aaaal
b1001011 aaaam
b11110011110010 aaaan
b100100001110111 aaaao
b1010000 aaaaq
b10010111 aaaar
1aaaas

#41000
0aaaas

#41500
b10010111 aaaaa
b100111100 aaaab
b1001111 aaaac
b101001110000 aaaad
b10100100 aaaae
b1100111000000 aaaaf
b10110000 aaaag
b10011110110010 aaaah
b1111010 aaaai
b11000011101101 aaaaj
b10110110 aaaak
b10101010000010 aaaal
b1100001 aaaam
b11010011111100 aaaan
b100011000011100 aaaao
b1001011 aaaaq
b10001101 aaaar
1aaaas

#42000
0aaaas

#42500
b10001101 aaaaa
b1001011100 aaaab
b10010111 aaaac
b11001000100 aaaad
b1001111 aaaae
b1101000101100 aaaaf
b10100100 aaaag
b10110101010110 aaaah
b10110000 aaaai
b11011010011101 aaaaj
b1111010 aaaak
b11010011110010 aaaal
b10110110 aaaam
b11000000010001 aaaan
b11111000011110 aaaao
b1100001 aaaaq
b111010 aaaar
1aaaas

#43000
0aaaas

#43500
b111010 aaaaa
b1000110100 aaaab
b10001101 aaaac
b100001010000 aaaad
b10010111 aaaae
b1001000100111 aaaaf
b1001111 aaaag
b10111110001000 aaaah
b10100100 aaaai
b11111100010010 aaaaj
b10110000 aaaak
b11110011010111 aaaal
b1111010 aaaam
b11001100001010 aaaan
b11011010000000 aaaao
b10110110 aaaaq
b1101011 aaaar
1aaaas

#44000
0aaaas

#44500
b1101011 aaaaa
b11101000 aaaab
b111010 aaaac
b100011111000 aaaad
b10001101 aaaae
b1010100000011 aaaaf
b10010111 aaaag
b10010010101010 aaaah
b1001111 aaaai
b100001100011110 aaaaj
b10100100 aaaak
b100011111001101 aaaal
b10110000 aaaam
b11101010101010 aaaan
b11001011101001 aaaao
b1111010 aaaaq
b1001000 aaaar
1aaaas

#45000
0aaaas

#45500
b1001000 aaaaa
b110101100 aaaab
b1101011 aaaac
b10011101100 aaaad
b111010 aaaae
b1011000010101 aaaaf
b10001101 aaaag
b10011000110101 aaaah
b10010111 aaaai
b11101000000110 aaaaj
b1001111 aaaak
b100111100010110 aaaal
b10100100 aaaam
b100010100010111 aaaan
b11010011110010 aaaao
b10110000 aaaaq
b10110000 aaaar
1aaaas

#46000
0aaaas

#46500
b10110000 aaaaa
b100100000 aaaab
b1001000 aaaac
b10111101100 aaaad
b1101011 aaaae
b111010100010 aaaaf
b111010 aaaag
b10011110111101 aaaah
b10001101 aaaai
b11100010111000 aaaaj
b10010111 aaaak
b100101011010101 aaaal
b1001111 aaaam
b100111101111101 aaaan
b11110101101010 aaaao
b10100100 aaaaq
b1000110 aaaar
1aaaas

#47000
0aaaas

#47500
b1000110 aaaaa
b1011000000 aaaab
b10110000 aaaac
b10100001100 aaaad
b1001000 aaaae
b111101011111 aaaaf
b1101011 aaaag
b1110111001001 aaaah
b111010 aaaai
b11100011101111 aaaaj
b10001101 aaaak
b100100011000101 aaaal
b10010111 aaaam
b101001011001010 aaaan
b100011110100111 aaaao
b1001111 aaaaq
b111110 aaaar
1aaaas

#48000
0aaaas

#48500
b111110 aaaaa
b100011000 aaaab
b1000110 aaaac
b100101100000 aaaad
b10110000 aaaae
b110011110100 aaaaf
b1001000 aaaag
b1110011011000 aaaah
b1101011 aaaai
b10111101110001 aaaaj
b111010 aaaak
b100011001111101 aaaal
b10001101 aaaam
b101000111101001 aaaan
b101000010111001 aaaao
b10010111 aaaaq
b11011101 aaaar
1aaaas

#49000
0aaaas

#49500
b11011101 aaaaa
b11111000 aaaab
b111110 aaaac
b11000001000 aaaad
b1000110 aaaae
b1011000111100 aaaaf
b10110000 aaaag
b1100011101111 aaaah
b1001000 aaaai
b10101111111111 aaaaj
b1101011 aaaak
b11111010011001 aaaal
b111010 aaaam
b100111101100001 aaaan
b101010100100110 aaaao
b10001101 aaaaq
b1110010 aaaar
1aaaas

#50000
0aaaas

#50500
b1110010 aaaaa
b1101110100 aaaab
b11011101 aaaac
b10000000000 aaaad
b111110 aaaae
b1000000110110 aaaaf
b1000110 aaaag
b10010001010100 aaaah
b10110000 aaaai
b10011001101000 aaaaj
b1001000 aaaak
b11100111100100 aaaal
b1101011 aaaam
b100100100110101 aaaan
b101010000011101 aaaao
b111010 aaaaq
b1111111 aaaar
1aaaas

#51000
0aaaas

#51500
b1111111 aaaaa
b111001000 aaaab
b1110010 aaaac
b101101010100 aaaad
b11011101 aaaae
b110000010110 aaaaf
b111110 aaaag
b1111110001000 aaaah
b1000110 aaaai
b11000001001111 aaaaj
b10110000 aaaak
b11001100000111 aaaal
b1001000 aaaam
b100001110011101 aaaan
b101000001001001 aaaao
b1101011 aaaaq
b111010 aaaar
1aaaas

#52000
0aaaas

#52500
b111010 aaaaa
b111111100 aaaab
b1111111 aaaac
b100011001100 aaaad
b1110010 aaaae
b1100110010101 aaaaf
b11011101 aaaag
b1100001110010 aaaah
b111110 aaaai
b10110110100000 aaaaj
b1000110 aaaak
b11011110011000 aaaal
b10110000 aaaam
b11110101000100 aaaan
b100101011100001 aaaao
b1001000 aaaaq
b1100111 aaaar
1aaaas

#53000
0aaaas

#53500
b1100111 aaaaa
b11101000 aaaab
b111010 aaaac
b11110111100 aaaad
b1111111 aaaae
b1011001110110 aaaaf
b1110010 aaaag
b10100101110000 aaaah
b11011101 aaaai
b10011111000100 aaaaj
b111110 aaaak
b11011100100101 aaaal
b1000110 aaaam
b11101101000111 aaaan
b100010010111101 aaaao
b10110000 aaaaq
b1101000 aaaar
1aaaas

#54000
0aaaas

#54500
b1101000 aaaaa
b110011100 aaaab
b1100111 aaaac
b10010110100 aaaad
b111010 aaaae
b1010100110011 aaaaf
b1111111 aaaag
b10100010111001 aaaah
b1110010 aaaai
b11010111001100 aaaaj
b11011101 aaaak
b11001110101110 aaaal
b111110 aaaam
b11101011100000 aaaan
b100000000000100 aaaao
b1000110 aaaaq
b10011101 aaaar
1aaaas

#55000
0aaaas

#55500
b10011101 aaaaa
b110100000 aaaab
b1101000 aaaac
b10110111100 aaaad
b1100111 aaaae
b110101100110 aaaaf
b111010 aaaag
b10011101010100 aaaah
b1111111 aaaai
b11100010010100 aaaaj
b1110010 aaaak
b11110101011001 aaaal
b11011101 aaaam
b11101000001101 aaaan
b11110001011111 aaaao
b111110 aaaaq
b10110011 aaaar
1aaaas

#56000
0aaaas

#56500
b10110011 aaaaa
b1001110100 aaaab
b10011101 aaaac
b11001111100 aaaad
b1101000 aaaae
b111011000011 aaaaf
b1100111 aaaag
b1110011100111 aaaah
b111010 aaaai
b11100110010111 aaaaj
b1111111 aaaak
b100000011101110 aaaal
b1110010 aaaam
b11111000001010 aaaan
b11101111011000 aaaao
b11011101 aaaaq
b1011001 aaaar
1aaaas

#57000
0aaaas

#57500
b1011001 aaaaa
b1011001100 aaaab
b10110011 aaaac
b100011111100 aaaad
b10011101 aaaae
b111111100100 aaaaf
b1101000 aaaag
b1101100010100 aaaah
b1100111 aaaai
b10111100001000 aaaaj
b111010 aaaak
b100010011111011 aaaal
b1111111 aaaam
b100001010110001 aaaan
b11110110000001 aaaao
b1110010 aaaaq
b1001001 aaaar
1aaaas

#58000
0aaaas

#58500
b1001001 aaaaa
b101100100 aaaab
b1011001 aaaac
b101011011000 aaaad
b10110011 aaaae
b1010111010001 aaaaf
b10011101 aaaag
b1110010010011 aaaah
b1101000 aaaai
b10101010010101 aaaaj
b1100111 aaaak
b11111101000001 aaaal
b111010 aaaam
b100011011100010 aaaan
b11111111010010 aaaao
b1111111 aaaaq
b10011001 aaaar
1aaaas

#59000
0aaaas

#59500
b10011001 aaaaa
b100100100 aaaab
b1001001 aaaac
b11011111000 aaaad
b1011001 aaaae
b1101001110111 aaaaf
b10110011 aaaag
b10010010111110 aaaah
b10011101 aaaai
b10100011100100 aaaaj
b1101000 aaaak
b11100100010111 aaaal
b1100111 aaaam
b100011110110011 aaaan
b100010010101101 aaaao
b111010 aaaaq
b10101001 aaaar
1aaaas

#60000
0aaaas

#60500
b10101001 aaaaa
b1001100100 aaaab
b10011001 aaaac
b10011010000 aaaad
b1001001 aaaae
b1001110001001 aaaaf
b1011001 aaaag
b10110110010111 aaaah
b10110011 aaaai
b11000101101101 aaaaj
b10011101 aaaak
b11010010111101 aaaal
b1101000 aaaam
b100010000010101 aaaan
b100011111001010 aaaao
b1100111 aaaaq
b1011100 aaaar
1aaaas

#61000
0aaaas

#61500
b1011100 aaaaa
b1010100100 aaaab
b10101001 aaaac
b100001010000 aaaad
b10011001 aaaae
b111000011001 aaaaf
b1001001 aaaag
b10011001001001 aaaah
b1011001 aaaai
b11110010000100 aaaaj
b10110011 aaaak
b11100000111001 aaaal
b10011101 aaaam
b11110111110111 aaaan
b100100101001111 aaaao
b1101000 aaaaq
b1010111 aaaar
1aaaas

#62000
0aaaas

#62500
b1010111 aaaaa
b101110000 aaaab
b1011100 aaaac
b101001010000 aaaad
b10101001 aaaae
b1001111000001 aaaaf
b10011001 aaaag
b1110100111011 aaaah
b1001001 aaaai
b11100101101001 aaaaj
b1011001 aaaak
b100001011101000 aaaal
b10110011 aaaam
b11110000011001 aaaan
b100010110110101 aaaao
b10011101 aaaaq
b10110010 aaaar
1aaaas

#63000
0aaaas

#63500
b10110010 aaaaa
b101011100 aaaab
b1010111 aaaac
b11011110100 aaaad
b1011100 aaaae
b1100011010001 aaaaf
b10101001 aaaag
b10001001101011 aaaah
b10011001 aaaai
b10111111111011 aaaaj
b1001001 aaaak
b100010100110101 aaaal
b1011001 aaaam
b100000010011101 aaaan
b100000001101011 aaaao
b10110011 aaaaq
b10000010 aaaar
1aaaas

#64000
0aaaas

#64500
b10000010 aaaaa
b1011001000 aaaab
b10110010 aaaac
b10110000100 aaaad
b1010111 aaaae
b1001101001100 aaaaf
b1011100 aaaag
b10101000110011 aaaah
b10101001 aaaai
b11000110001101 aaaaj
b10011001 aaaak
b100000010001010 aaaal
b1001001 aaaam
b100011100010100 aaaan
b11111011100101 aaaao
b1011001 aaaaq
b1010011 aaaar
1aaaas

#65000
0aaaas

#65500
b1010011 aaaaa
b1000001000 aaaab
b10000010 aaaac
b100110110100 aaaad
b10110010 aaaae
b111101110011 aaaaf
b1010111 aaaag
b10010100001001 aaaah
b1011100 aaaai
b11100011011101 aaaaj
b10101001 aaaak
b11111011101100 aaaal
b10011001 aaaam
b100100010100001 aaaan
b100001000000001 aaaao
b1001001 aaaaq
b1011001 aaaar
1aaaas

#66000
0aaaas

#66500
b1011001 aaaaa
b101001100 aaaab
b1010011 aaaac
b100011100000 aaaad
b10000010 aaaae
b1011011100110 aaaaf
b10110010 aaaag
b1111011011010 aaaah
b1010111 aaaai
b11011001101011 aaaaj
b1011100 aaaak
b100001000001110 aaaal
b10101001 aaaam
b100011110110110 aaaan
b100100000111000 aaaao
b10011001 aaaaq
b10001101 aaaar
1aaaas

#67000
0aaaas

#67500
b10001101 aaaaa
b101100100 aaaab
b1011001 aaaac
b10111101100 aaaad
b1010011 aaaae
b1011001100110 aaaaf
b10000010 aaaag
b10011100010111 aaaah
b10110010 aaaai
b11000010010111 aaaaj
b1010111 aaaak
b100000111011001 aaaal
b1011100 aaaam
b100011011011000 aaaan
b100101100000101 aaaao
b10101001 aaaaq
b10010110 aaaar
1aaaas

#68000
0aaaas

#68500
b10010110 aaaaa
b1000110100 aaaab
b10001101 aaaac
b10101111000 aaaad
b1011001 aaaae
b1000011111011 aaaaf
b1010011 aaaag
b10100000101010 aaaah
b10000010 aaaai
b11011001111110 aaaaj
b10110010 aaaak
b11111011101010 aaaal
b1010111 aaaam
b100011001011110 aaaan
b100101001011010 aaaao
b1011100 aaaaq
b1110010 aaaar
1aaaas

#69000
0aaaas

#69500
b1110010 aaaaa
b1001011000 aaaab
b10010110 aaaac
b100000000000 aaaad
b10001101 aaaae
b111010011101 aaaaf
b1011001 aaaag
b10000101101100 aaaah
b1010011 aaaai
b11100001011011 aaaaj
b10000010 aaaak
b100000111111001 aaaal
b10110010 aaaam
b100010111101101 aaaan
b100100001001000 aaaao
b1010111 aaaaq
b1010010 aaaar
1aaaas

#70000
0aaaas

#70500
b1010010 aaaaa
b111001000 aaaab
b1110010 aaaac
b100100111100 aaaad
b10010110 aaaae
b1001100111101 aaaaf
b10001101 aaaag
b1110011001101 aaaah
b1011001 aaaai
b11001100110000 aaaaj
b1010011 aaaak
b100001100110000 aaaal
b10000010 aaaam
b100011101000010 aaaan
b100011110111010 aaaao
b10110010 aaaaq
b111110 aaaar
1aaaas

#71000
0aaaas

#71500
b111110 aaaaa
b101001000 aaaab
b1010010 aaaac
b11110110000 aaaad
b1110010 aaaae
b1011010100110 aaaaf
b10010110 aaaag
b10000101010111 aaaah
b10001101 aaaai
b10110100111110 aaaaj
b1011001 aaaak
b100000001110110 aaaal
b1010011 aaaam
b100100000010001 aaaan
b100100010110101 aaaao
b10000010 aaaaq
b10101010 aaaar
1aaaas

#72000
0aaaas

#72500
b10101010 aaaaa
b11111000 aaaab
b111110 aaaac
b10110100000 aaaad
b1010010 aaaae
b1010001011110 aaaaf
b1110010 aaaag
b10011100101001 aaaah
b10010110 aaaai
b10111110000111 aaaaj
b10001101 aaaak
b11101111100001 aaaal
b1011001 aaaam
b100011100010100 aaaan
b100100101001010 aaaao
b1010011 aaaaq
b10000111 aaaar
1aaaas

#73000
0aaaas

