Projects/HLS/Clock/simulation/sc_Clock_tb.vcd
$date
     Dec 13, 2025       14:56:47
$end

$version
 SystemC 3.0.2-Accellera --- Dec 13 2025 09:39:15
$end

$timescale
     100 ps
$end

$scope module SystemC $end
$var wire    1  aaaaa  ap_clk       $end
$var wire    1  aaaab  ap_rst       $end
$var wire    1  aaaac  clear       $end
$var wire    1  aaaad  start_r       $end
$var wire    8  aaaae  hh [7:0]  $end
$var wire    8  aaaaf  mm [7:0]  $end
$var wire    8  aaaag  ss [7:0]  $end
$upscope $end
$enddefinitions  $end

$comment
All initial values are dumped below at time 0 sec = 0 timescale units.
$end

$dumpvars
0aaaaa
0aaaab
1aaaac
1aaaad
b0 aaaae
b0 aaaaf
b0 aaaag
$end

#500
1aaaaa

#1000
0aaaaa

#1500
1aaaaa

#2000
0aaaaa

#2500
1aaaaa

#3000
0aaaaa

#3500
1aaaaa
0aaaac
b1 aaaag

#4000
0aaaaa

#4500
1aaaaa
b10 aaaag

#5000
0aaaaa

#5500
1aaaaa
b11 aaaag

#6000
0aaaaa

#6500
1aaaaa
b100 aaaag

#7000
0aaaaa

#7500
1aaaaa
b101 aaaag

#8000
0aaaaa

#8500
1aaaaa
b110 aaaag

#9000
0aaaaa

#9500
1aaaaa
b111 aaaag

#10000
0aaaaa

#10500
1aaaaa
b1000 aaaag

#11000
0aaaaa

#11500
1aaaaa
b1001 aaaag

#12000
0aaaaa

#12500
1aaaaa
b1010 aaaag

#13000
0aaaaa

#13500
1aaaaa
b1011 aaaag

#14000
0aaaaa

#14500
1aaaaa
b1100 aaaag

#15000
0aaaaa

#15500
1aaaaa
b1101 aaaag

#16000
0aaaaa

#16500
1aaaaa
b1110 aaaag

#17000
0aaaaa

#17500
1aaaaa
b1111 aaaag

#18000
0aaaaa

#18500
1aaaaa
b10000 aaaag

#19000
0aaaaa

#19500
1aaaaa
b10001 aaaag

#20000
0aaaaa

#20500
1aaaaa
b10010 aaaag

#21000
0aaaaa

#21500
1aaaaa
b10011 aaaag

#22000
0aaaaa

#22500
1aaaaa
b10100 aaaag

#23000
0aaaaa

#23500
1aaaaa
b10101 aaaag

#24000
0aaaaa

#24500
1aaaaa
b10110 aaaag

#25000
0aaaaa

#25500
1aaaaa
b10111 aaaag

#26000
0aaaaa

#26500
1aaaaa
b11000 aaaag

#27000
0aaaaa

#27500
1aaaaa
b11001 aaaag

#28000
0aaaaa

#28500
1aaaaa
b11010 aaaag

#29000
0aaaaa

#29500
1aaaaa
b11011 aaaag

#30000
0aaaaa

#30500
1aaaaa
b11100 aaaag

#31000
0aaaaa

#31500
1aaaaa
b11101 aaaag

#32000
0aaaaa

#32500
1aaaaa
b11110 aaaag

#33000
0aaaaa

#33500
1aaaaa
b11111 aaaag

#34000
0aaaaa

#34500
1aaaaa
b100000 aaaag

#35000
0aaaaa

#35500
1aaaaa
b100001 aaaag

#36000
0aaaaa

#36500
1aaaaa
b100010 aaaag

#37000
0aaaaa

#37500
1aaaaa
b100011 aaaag

#38000
0aaaaa

#38500
1aaaaa
b100100 aaaag

#39000
0aaaaa

#39500
1aaaaa
b100101 aaaag

#40000
0aaaaa

#40500
1aaaaa
b100110 aaaag

#41000
0aaaaa

#41500
1aaaaa
b100111 aaaag

#42000
0aaaaa

#42500
1aaaaa
b101000 aaaag

#43000
0aaaaa

#43500
1aaaaa
b101001 aaaag

#44000
0aaaaa

#44500
1aaaaa
b101010 aaaag

#45000
0aaaaa

#45500
1aaaaa
b101011 aaaag

#46000
0aaaaa

#46500
1aaaaa
b101100 aaaag

#47000
0aaaaa

#47500
1aaaaa
b101101 aaaag

#48000
0aaaaa

#48500
1aaaaa
b101110 aaaag

#49000
0aaaaa

#49500
1aaaaa
b101111 aaaag

#50000
0aaaaa

#50500
1aaaaa
b110000 aaaag

#51000
0aaaaa

#51500
1aaaaa
b110001 aaaag

#52000
0aaaaa

#52500
1aaaaa
b110010 aaaag

#53000
0aaaaa

#53500
1aaaaa
b110011 aaaag

#54000
0aaaaa

#54500
1aaaaa
b110100 aaaag

#55000
0aaaaa

#55500
1aaaaa
b110101 aaaag

#56000
0aaaaa

#56500
1aaaaa
b110110 aaaag

#57000
0aaaaa

#57500
1aaaaa
b110111 aaaag

#58000
0aaaaa

#58500
1aaaaa
b111000 aaaag

#59000
0aaaaa

#59500
1aaaaa
b111001 aaaag

#60000
0aaaaa

#60500
1aaaaa
b111010 aaaag

#61000
0aaaaa

#61500
1aaaaa
b111011 aaaag

#62000
0aaaaa

#62500
1aaaaa
b1 aaaaf
b0 aaaag

#63000
0aaaaa

#63500
1aaaaa
b1 aaaag

#64000
0aaaaa

#64500
1aaaaa
b10 aaaag

#65000
0aaaaa

#65500
1aaaaa
b11 aaaag

#66000
0aaaaa

#66500
1aaaaa
b100 aaaag

#67000
0aaaaa

#67500
1aaaaa
b101 aaaag

#68000
0aaaaa

#68500
1aaaaa
b110 aaaag

#69000
0aaaaa

#69500
1aaaaa
b111 aaaag

#70000
0aaaaa

#70500
1aaaaa
b1000 aaaag

#71000
0aaaaa

#71500
1aaaaa
b1001 aaaag

#72000
0aaaaa

#72500
1aaaaa
b1010 aaaag

#73000
0aaaaa

#73500
1aaaaa
b1011 aaaag

#74000
0aaaaa

#74500
1aaaaa
b1100 aaaag

#75000
0aaaaa

#75500
1aaaaa
b1101 aaaag

#76000
0aaaaa

#76500
1aaaaa
b1110 aaaag

#77000
0aaaaa

#77500
1aaaaa
b1111 aaaag

#78000
0aaaaa

#78500
1aaaaa
b10000 aaaag

#79000
0aaaaa

#79500
1aaaaa
b10001 aaaag

#80000
0aaaaa

#80500
1aaaaa
b10010 aaaag

#81000
0aaaaa

#81500
1aaaaa
b10011 aaaag

#82000
0aaaaa

#82500
1aaaaa
b10100 aaaag

#83000
0aaaaa

#83500
1aaaaa
b10101 aaaag

#84000
0aaaaa

#84500
1aaaaa
b10110 aaaag

#85000
0aaaaa

#85500
1aaaaa
b10111 aaaag

#86000
0aaaaa

#86500
1aaaaa
b11000 aaaag

#87000
0aaaaa

#87500
1aaaaa
b11001 aaaag

#88000
0aaaaa

#88500
1aaaaa
b11010 aaaag

#89000
0aaaaa

#89500
1aaaaa
b11011 aaaag

#90000
0aaaaa

#90500
1aaaaa
b11100 aaaag

#91000
0aaaaa

#91500
1aaaaa
b11101 aaaag

#92000
0aaaaa

#92500
1aaaaa
b11110 aaaag

#93000
0aaaaa

#93500
1aaaaa
b11111 aaaag

#94000
0aaaaa

#94500
1aaaaa
b100000 aaaag

#95000
0aaaaa

#95500
1aaaaa
b100001 aaaag

#96000
0aaaaa

#96500
1aaaaa
b100010 aaaag

#97000
0aaaaa

#97500
1aaaaa
b100011 aaaag

#98000
0aaaaa

#98500
1aaaaa
b100100 aaaag

#99000
0aaaaa

#99500
1aaaaa
b100101 aaaag

#100000
0aaaaa

#100500
1aaaaa
b100110 aaaag

#101000
0aaaaa

#101500
1aaaaa
b100111 aaaag

#102000
0aaaaa

#102500
1aaaaa
b101000 aaaag

#103000
0aaaaa

#103500
1aaaaa
b101001 aaaag

#104000
0aaaaa

#104500
1aaaaa
b101010 aaaag

#105000
0aaaaa

#105500
1aaaaa
b101011 aaaag

#106000
0aaaaa

#106500
1aaaaa
b101100 aaaag

#107000
0aaaaa

#107500
1aaaaa
b101101 aaaag

#108000
0aaaaa

#108500
1aaaaa
b101110 aaaag

#109000
0aaaaa

#109500
1aaaaa
b101111 aaaag

#110000
0aaaaa

#110500
1aaaaa
b110000 aaaag

#111000
0aaaaa

#111500
1aaaaa
b110001 aaaag

#112000
0aaaaa

#112500
1aaaaa
b110010 aaaag

#113000
0aaaaa

#113500
1aaaaa
b110011 aaaag

#114000
0aaaaa

#114500
1aaaaa
b110100 aaaag

#115000
0aaaaa

#115500
1aaaaa
b110101 aaaag

#116000
0aaaaa

#116500
1aaaaa
b110110 aaaag

#117000
0aaaaa

#117500
1aaaaa
b110111 aaaag

#118000
0aaaaa

#118500
1aaaaa
b111000 aaaag

#119000
0aaaaa

#119500
1aaaaa
b111001 aaaag

#120000
0aaaaa

#120500
1aaaaa
b111010 aaaag

#121000
0aaaaa

#121500
1aaaaa
b111011 aaaag

#122000
0aaaaa

#122500
1aaaaa
b10 aaaaf
b0 aaaag

#123000
0aaaaa

#123500
1aaaaa
b1 aaaag

#124000
0aaaaa

#124500
1aaaaa
b10 aaaag

#125000
0aaaaa

#125500
1aaaaa
b11 aaaag

#126000
0aaaaa

#126500
1aaaaa
b100 aaaag

#127000
0aaaaa

#127500
1aaaaa
b101 aaaag

#128000
0aaaaa

#128500
1aaaaa
b110 aaaag

#129000
0aaaaa

#129500
1aaaaa
b111 aaaag

#130000
0aaaaa

#130500
1aaaaa
b1000 aaaag

#131000
0aaaaa

#131500
1aaaaa
b1001 aaaag

#132000
0aaaaa

#132500
1aaaaa
b1010 aaaag

#133000
0aaaaa

#133500
1aaaaa
b1011 aaaag

#134000
0aaaaa

#134500
1aaaaa
b1100 aaaag

#135000
0aaaaa

#135500
1aaaaa
b1101 aaaag

#136000
0aaaaa

#136500
1aaaaa
b1110 aaaag

#137000
0aaaaa

#137500
1aaaaa
b1111 aaaag

#138000
0aaaaa

#138500
1aaaaa
b10000 aaaag

#139000
0aaaaa

#139500
1aaaaa
b10001 aaaag

#140000
0aaaaa

#140500
1aaaaa
b10010 aaaag

#141000
0aaaaa

#141500
1aaaaa
b10011 aaaag

#142000
0aaaaa

#142500
1aaaaa
b10100 aaaag

#143000
0aaaaa

#143500
1aaaaa
b10101 aaaag

#144000
0aaaaa

#144500
1aaaaa
b10110 aaaag

#145000
0aaaaa

#145500
1aaaaa
b10111 aaaag

#146000
0aaaaa

#146500
1aaaaa
b11000 aaaag

#147000
0aaaaa

#147500
1aaaaa
b11001 aaaag

#148000
0aaaaa

#148500
1aaaaa
b11010 aaaag

#149000
0aaaaa

#149500
1aaaaa
b11011 aaaag

#150000
0aaaaa

#150500
1aaaaa
b11100 aaaag

#151000
0aaaaa

#151500
1aaaaa
b11101 aaaag

#152000
0aaaaa

#152500
1aaaaa
b11110 aaaag

#153000
0aaaaa

#153500
1aaaaa
b11111 aaaag

#154000
0aaaaa

#154500
1aaaaa
b100000 aaaag

#155000
0aaaaa

#155500
1aaaaa
b100001 aaaag

#156000
0aaaaa

#156500
1aaaaa
b100010 aaaag

#157000
0aaaaa

#157500
1aaaaa
b100011 aaaag

#158000
0aaaaa

#158500
1aaaaa
b100100 aaaag

#159000
0aaaaa

#159500
1aaaaa
b100101 aaaag

#160000
0aaaaa

#160500
1aaaaa
b100110 aaaag

#161000
0aaaaa

#161500
1aaaaa
b100111 aaaag

#162000
0aaaaa

#162500
1aaaaa
b101000 aaaag

#163000
0aaaaa

#163500
1aaaaa
b101001 aaaag

#164000
0aaaaa

#164500
1aaaaa
b101010 aaaag

#165000
0aaaaa

#165500
1aaaaa
b101011 aaaag

#166000
0aaaaa

#166500
1aaaaa
b101100 aaaag

#167000
0aaaaa

#167500
1aaaaa
b101101 aaaag

#168000
0aaaaa

#168500
1aaaaa
b101110 aaaag

#169000
0aaaaa

#169500
1aaaaa
b101111 aaaag

#170000
0aaaaa

#170500
1aaaaa
b110000 aaaag

#171000
0aaaaa

#171500
1aaaaa
b110001 aaaag

#172000
0aaaaa

#172500
1aaaaa
b110010 aaaag

#173000
0aaaaa

#173500
1aaaaa
b110011 aaaag

#174000
0aaaaa

#174500
1aaaaa
b110100 aaaag

#175000
0aaaaa

#175500
1aaaaa
b110101 aaaag

#176000
0aaaaa

#176500
1aaaaa
b110110 aaaag

#177000
0aaaaa

#177500
1aaaaa
b110111 aaaag

#178000
0aaaaa

#178500
1aaaaa
b111000 aaaag

#179000
0aaaaa

#179500
1aaaaa
b111001 aaaag

#180000
0aaaaa

#180500
1aaaaa
b111010 aaaag

#181000
0aaaaa

#181500
1aaaaa
b111011 aaaag

#182000
0aaaaa

#182500
1aaaaa
b11 aaaaf
b0 aaaag

#183000
0aaaaa

#183500
1aaaaa
b1 aaaag

#184000
0aaaaa

#184500
1aaaaa
b10 aaaag

#185000
0aaaaa

#185500
1aaaaa
b11 aaaag

#186000
0aaaaa

#186500
1aaaaa
b100 aaaag

#187000
0aaaaa

#187500
1aaaaa
b101 aaaag

#188000
0aaaaa

#188500
1aaaaa
b110 aaaag

#189000
0aaaaa

#189500
1aaaaa
b111 aaaag

#190000
0aaaaa

#190500
1aaaaa
b1000 aaaag

#191000
0aaaaa

#191500
1aaaaa
b1001 aaaag

#192000
0aaaaa

#192500
1aaaaa
b1010 aaaag

#193000
0aaaaa

#193500
1aaaaa
b1011 aaaag

#194000
0aaaaa

#194500
1aaaaa
b1100 aaaag

#195000
0aaaaa

#195500
1aaaaa
b1101 aaaag

#196000
0aaaaa

#196500
1aaaaa
b1110 aaaag

#197000
0aaaaa

#197500
1aaaaa
b1111 aaaag

#198000
0aaaaa

#198500
1aaaaa
b10000 aaaag

#199000
0aaaaa

#199500
1aaaaa
b10001 aaaag

#200000
0aaaaa

#200500
1aaaaa
b10010 aaaag

#201000
0aaaaa

#201500
1aaaaa
b10011 aaaag

#202000
0aaaaa

#202500
1aaaaa
b10100 aaaag

#203000
0aaaaa

#203500
1aaaaa
b10101 aaaag

#204000
0aaaaa

#204500
1aaaaa
b10110 aaaag

#205000
0aaaaa

#205500
1aaaaa
b10111 aaaag

#206000
0aaaaa

#206500
1aaaaa
b11000 aaaag

#207000
0aaaaa

#207500
1aaaaa
b11001 aaaag

#208000
0aaaaa

#208500
1aaaaa
b11010 aaaag

#209000
0aaaaa

#209500
1aaaaa
b11011 aaaag

#210000
0aaaaa

#210500
1aaaaa
b11100 aaaag

#211000
0aaaaa

#211500
1aaaaa
b11101 aaaag

#212000
0aaaaa

#212500
1aaaaa
b11110 aaaag

#213000
0aaaaa

#213500
1aaaaa
b11111 aaaag

#214000
0aaaaa

#214500
1aaaaa
b100000 aaaag

#215000
0aaaaa

#215500
1aaaaa
b100001 aaaag

#216000
0aaaaa

#216500
1aaaaa
b100010 aaaag

#217000
0aaaaa

#217500
1aaaaa
b100011 aaaag

#218000
0aaaaa

#218500
1aaaaa
b100100 aaaag

#219000
0aaaaa

#219500
1aaaaa
b100101 aaaag

#220000
0aaaaa

#220500
1aaaaa
b100110 aaaag

#221000
0aaaaa

#221500
1aaaaa
b100111 aaaag

#222000
0aaaaa

#222500
1aaaaa
b101000 aaaag

#223000
0aaaaa

#223500
1aaaaa
b101001 aaaag

#224000
0aaaaa

#224500
1aaaaa
b101010 aaaag

#225000
0aaaaa

#225500
1aaaaa
b101011 aaaag

#226000
0aaaaa

#226500
1aaaaa
b101100 aaaag

#227000
0aaaaa

#227500
1aaaaa
b101101 aaaag

#228000
0aaaaa

#228500
1aaaaa
b101110 aaaag

#229000
0aaaaa

#229500
1aaaaa
b101111 aaaag

#230000
0aaaaa

#230500
1aaaaa
b110000 aaaag

#231000
0aaaaa

#231500
1aaaaa
b110001 aaaag

#232000
0aaaaa

#232500
1aaaaa
b110010 aaaag

#233000
0aaaaa

#233500
1aaaaa
b110011 aaaag

#234000
0aaaaa

#234500
1aaaaa
b110100 aaaag

#235000
0aaaaa

#235500
1aaaaa
b110101 aaaag

#236000
0aaaaa

#236500
1aaaaa
b110110 aaaag

#237000
0aaaaa

#237500
1aaaaa
b110111 aaaag

#238000
0aaaaa

#238500
1aaaaa
b111000 aaaag

#239000
0aaaaa

#239500
1aaaaa
b111001 aaaag

#240000
0aaaaa

#240500
1aaaaa
b111010 aaaag

#241000
0aaaaa

#241500
1aaaaa
b111011 aaaag

#242000
0aaaaa

#242500
1aaaaa
b100 aaaaf
b0 aaaag

#243000
0aaaaa

#243500
1aaaaa
b1 aaaag

#244000
0aaaaa

#244500
1aaaaa
b10 aaaag

#245000
0aaaaa

#245500
1aaaaa
b11 aaaag

#246000
0aaaaa

#246500
1aaaaa
b100 aaaag

#247000
0aaaaa

#247500
1aaaaa
b101 aaaag

#248000
0aaaaa

#248500
1aaaaa
b110 aaaag

#249000
0aaaaa

#249500
1aaaaa
b111 aaaag

#250000
0aaaaa

#250500
1aaaaa
b1000 aaaag

#251000
0aaaaa

#251500
1aaaaa
b1001 aaaag

#252000
0aaaaa

#252500
1aaaaa
b1010 aaaag

#253000
0aaaaa

#253500
1aaaaa
b1011 aaaag

#254000
0aaaaa

#254500
1aaaaa
b1100 aaaag

#255000
0aaaaa

#255500
1aaaaa
b1101 aaaag

#256000
0aaaaa

#256500
1aaaaa
b1110 aaaag

#257000
0aaaaa

#257500
1aaaaa
b1111 aaaag

#258000
0aaaaa

#258500
1aaaaa
b10000 aaaag

#259000
0aaaaa

#259500
1aaaaa
b10001 aaaag

#260000
0aaaaa

#260500
1aaaaa
b10010 aaaag

#261000
0aaaaa

#261500
1aaaaa
b10011 aaaag

#262000
0aaaaa

#262500
1aaaaa
b10100 aaaag

#263000
0aaaaa

#263500
1aaaaa
b10101 aaaag

#264000
0aaaaa

#264500
1aaaaa
b10110 aaaag

#265000
0aaaaa

#265500
1aaaaa
b10111 aaaag

#266000
0aaaaa

#266500
1aaaaa
b11000 aaaag

#267000
0aaaaa

#267500
1aaaaa
b11001 aaaag

#268000
0aaaaa

#268500
1aaaaa
b11010 aaaag

#269000
0aaaaa

#269500
1aaaaa
b11011 aaaag

#270000
0aaaaa

#270500
1aaaaa
b11100 aaaag

#271000
0aaaaa

#271500
1aaaaa
b11101 aaaag

#272000
0aaaaa

#272500
1aaaaa
b11110 aaaag

#273000
0aaaaa

#273500
1aaaaa
b11111 aaaag

#274000
0aaaaa

#274500
1aaaaa
b100000 aaaag

#275000
0aaaaa

#275500
1aaaaa
b100001 aaaag

#276000
0aaaaa

#276500
1aaaaa
b100010 aaaag

#277000
0aaaaa

#277500
1aaaaa
b100011 aaaag

#278000
0aaaaa

#278500
1aaaaa
b100100 aaaag

#279000
0aaaaa

#279500
1aaaaa
b100101 aaaag

#280000
0aaaaa

#280500
1aaaaa
b100110 aaaag

#281000
0aaaaa

#281500
1aaaaa
b100111 aaaag

#282000
0aaaaa

#282500
1aaaaa
b101000 aaaag

#283000
0aaaaa

#283500
1aaaaa
b101001 aaaag

#284000
0aaaaa

#284500
1aaaaa
b101010 aaaag

#285000
0aaaaa

#285500
1aaaaa
b101011 aaaag

#286000
0aaaaa

#286500
1aaaaa
b101100 aaaag

#287000
0aaaaa

#287500
1aaaaa
b101101 aaaag

#288000
0aaaaa

#288500
1aaaaa
b101110 aaaag

#289000
0aaaaa

#289500
1aaaaa
b101111 aaaag

#290000
0aaaaa

#290500
1aaaaa
b110000 aaaag

#291000
0aaaaa

#291500
1aaaaa
b110001 aaaag

#292000
0aaaaa

#292500
1aaaaa
b110010 aaaag

#293000
0aaaaa

#293500
1aaaaa
b110011 aaaag

#294000
0aaaaa

#294500
1aaaaa
b110100 aaaag

#295000
0aaaaa

#295500
1aaaaa
b110101 aaaag

#296000
0aaaaa

#296500
1aaaaa
b110110 aaaag

#297000
0aaaaa

#297500
1aaaaa
b110111 aaaag

#298000
0aaaaa

#298500
1aaaaa
b111000 aaaag

#299000
0aaaaa

#299500
1aaaaa
b111001 aaaag

#300000
0aaaaa

#300500
1aaaaa
b111010 aaaag

#301000
0aaaaa

#301500
1aaaaa
b111011 aaaag

#302000
0aaaaa

#302500
1aaaaa
b101 aaaaf
b0 aaaag

#303000
0aaaaa

#303500
1aaaaa
b1 aaaag

#304000
0aaaaa

#304500
1aaaaa
b10 aaaag

#305000
0aaaaa

#305500
1aaaaa
b11 aaaag

#306000
0aaaaa

#306500
1aaaaa
b100 aaaag

#307000
0aaaaa

#307500
1aaaaa
b101 aaaag

#308000
0aaaaa

#308500
1aaaaa
b110 aaaag

#309000
0aaaaa

#309500
1aaaaa
b111 aaaag

#310000
0aaaaa

#310500
1aaaaa
b1000 aaaag

#311000
0aaaaa

#311500
1aaaaa
b1001 aaaag

#312000
0aaaaa

#312500
1aaaaa
b1010 aaaag

#313000
0aaaaa

#313500
1aaaaa
b1011 aaaag

#314000
0aaaaa

#314500
1aaaaa
b1100 aaaag

#315000
0aaaaa

#315500
1aaaaa
b1101 aaaag

#316000
0aaaaa

#316500
1aaaaa
b1110 aaaag

#317000
0aaaaa

#317500
1aaaaa
b1111 aaaag

#318000
0aaaaa

#318500
1aaaaa
b10000 aaaag

#319000
0aaaaa

#319500
1aaaaa
b10001 aaaag

#320000
0aaaaa

#320500
1aaaaa
b10010 aaaag

#321000
0aaaaa

#321500
1aaaaa
b10011 aaaag

#322000
0aaaaa

#322500
1aaaaa
b10100 aaaag

#323000
0aaaaa

#323500
1aaaaa
b10101 aaaag

#324000
0aaaaa

#324500
1aaaaa
b10110 aaaag

#325000
0aaaaa

#325500
1aaaaa
b10111 aaaag

#326000
0aaaaa

#326500
1aaaaa
b11000 aaaag

#327000
0aaaaa

#327500
1aaaaa
b11001 aaaag

#328000
0aaaaa

#328500
1aaaaa
b11010 aaaag

#329000
0aaaaa

#329500
1aaaaa
b11011 aaaag

#330000
0aaaaa

#330500
1aaaaa
b11100 aaaag

#331000
0aaaaa

#331500
1aaaaa
b11101 aaaag

#332000
0aaaaa

#332500
1aaaaa
b11110 aaaag

#333000
0aaaaa

#333500
1aaaaa
b11111 aaaag

#334000
0aaaaa

#334500
1aaaaa
b100000 aaaag

#335000
0aaaaa

#335500
1aaaaa
b100001 aaaag

#336000
0aaaaa

#336500
1aaaaa
b100010 aaaag

#337000
0aaaaa

#337500
1aaaaa
b100011 aaaag

#338000
0aaaaa

#338500
1aaaaa
b100100 aaaag

#339000
0aaaaa

#339500
1aaaaa
b100101 aaaag

#340000
0aaaaa

#340500
1aaaaa
b100110 aaaag

#341000
0aaaaa

#341500
1aaaaa
b100111 aaaag

#342000
0aaaaa

#342500
1aaaaa
b101000 aaaag

#343000
0aaaaa

#343500
1aaaaa
b101001 aaaag

#344000
0aaaaa

#344500
1aaaaa
b101010 aaaag

#345000
0aaaaa

#345500
1aaaaa
b101011 aaaag

#346000
0aaaaa

#346500
1aaaaa
b101100 aaaag

#347000
0aaaaa

#347500
1aaaaa
b101101 aaaag

#348000
0aaaaa

#348500
1aaaaa
b101110 aaaag

#349000
0aaaaa

#349500
1aaaaa
b101111 aaaag

#350000
0aaaaa

#350500
1aaaaa
b110000 aaaag

#351000
0aaaaa

#351500
1aaaaa
b110001 aaaag

#352000
0aaaaa

#352500
1aaaaa
b110010 aaaag

#353000
0aaaaa

#353500
1aaaaa
b110011 aaaag

#354000
0aaaaa

#354500
1aaaaa
b110100 aaaag

#355000
0aaaaa

#355500
1aaaaa
b110101 aaaag

#356000
0aaaaa

#356500
1aaaaa
b110110 aaaag

#357000
0aaaaa

#357500
1aaaaa
b110111 aaaag

#358000
0aaaaa

#358500
1aaaaa
b111000 aaaag

#359000
0aaaaa

#359500
1aaaaa
b111001 aaaag

#360000
0aaaaa

#360500
1aaaaa
b111010 aaaag

#361000
0aaaaa

#361500
1aaaaa
b111011 aaaag

#362000
0aaaaa

#362500
1aaaaa
b110 aaaaf
b0 aaaag

#363000
0aaaaa

#363500
1aaaaa
b1 aaaag

#364000
0aaaaa

#364500
1aaaaa
b10 aaaag

#365000
0aaaaa

#365500
1aaaaa
b11 aaaag

#366000
0aaaaa

#366500
1aaaaa
b100 aaaag

#367000
0aaaaa

#367500
1aaaaa
b101 aaaag

#368000
0aaaaa

#368500
1aaaaa
b110 aaaag

#369000
0aaaaa

#369500
1aaaaa
b111 aaaag

#370000
0aaaaa

#370500
1aaaaa
b1000 aaaag

#371000
0aaaaa

#371500
1aaaaa
b1001 aaaag

#372000
0aaaaa

#372500
1aaaaa
b1010 aaaag

#373000
0aaaaa

#373500
1aaaaa
b1011 aaaag

#374000
0aaaaa

#374500
1aaaaa
b1100 aaaag

#375000
0aaaaa

#375500
1aaaaa
b1101 aaaag

#376000
0aaaaa

#376500
1aaaaa
b1110 aaaag

#377000
0aaaaa

#377500
1aaaaa
b1111 aaaag

#378000
0aaaaa

#378500
1aaaaa
b10000 aaaag

#379000
0aaaaa

#379500
1aaaaa
b10001 aaaag

#380000
0aaaaa

#380500
1aaaaa
b10010 aaaag

#381000
0aaaaa

#381500
1aaaaa
b10011 aaaag

#382000
0aaaaa

#382500
1aaaaa
b10100 aaaag

#383000
0aaaaa

#383500
1aaaaa
b10101 aaaag

#384000
0aaaaa

#384500
1aaaaa
b10110 aaaag

#385000
0aaaaa

#385500
1aaaaa
b10111 aaaag

#386000
0aaaaa

#386500
1aaaaa
b11000 aaaag

#387000
0aaaaa

#387500
1aaaaa
b11001 aaaag

#388000
0aaaaa

#388500
1aaaaa
b11010 aaaag

#389000
0aaaaa

#389500
1aaaaa
b11011 aaaag

#390000
0aaaaa

#390500
1aaaaa
b11100 aaaag

#391000
0aaaaa

#391500
1aaaaa
b11101 aaaag

#392000
0aaaaa

#392500
1aaaaa
b11110 aaaag

#393000
0aaaaa

#393500
1aaaaa
b11111 aaaag

#394000
0aaaaa

#394500
1aaaaa
b100000 aaaag

#395000
0aaaaa

#395500
1aaaaa
b100001 aaaag

#396000
0aaaaa

#396500
1aaaaa
b100010 aaaag

#397000
0aaaaa

#397500
1aaaaa
b100011 aaaag

#398000
0aaaaa

#398500
1aaaaa
b100100 aaaag

#399000
0aaaaa

#399500
1aaaaa
b100101 aaaag

#400000
0aaaaa

#400500
1aaaaa
b100110 aaaag

#401000
0aaaaa

#401500
1aaaaa
b100111 aaaag

#402000
0aaaaa

#402500
1aaaaa
b101000 aaaag

#403000
0aaaaa

#403500
1aaaaa
b101001 aaaag

#404000
0aaaaa

#404500
1aaaaa
b101010 aaaag

#405000
0aaaaa

#405500
1aaaaa
b101011 aaaag

#406000
0aaaaa

#406500
1aaaaa
b101100 aaaag

#407000
0aaaaa

#407500
1aaaaa
b101101 aaaag

#408000
0aaaaa

#408500
1aaaaa
b101110 aaaag

#409000
0aaaaa

#409500
1aaaaa
b101111 aaaag

#410000
0aaaaa

#410500
1aaaaa
b110000 aaaag

#411000
0aaaaa

#411500
1aaaaa
b110001 aaaag

#412000
0aaaaa

#412500
1aaaaa
b110010 aaaag

#413000
0aaaaa

#413500
1aaaaa
b110011 aaaag

#414000
0aaaaa

#414500
1aaaaa
b110100 aaaag

#415000
0aaaaa

#415500
1aaaaa
b110101 aaaag

#416000
0aaaaa

#416500
1aaaaa
b110110 aaaag

#417000
0aaaaa

#417500
1aaaaa
b110111 aaaag

#418000
0aaaaa

#418500
1aaaaa
b111000 aaaag

#419000
0aaaaa

#419500
1aaaaa
b111001 aaaag

#420000
0aaaaa

#420500
1aaaaa
b111010 aaaag

#421000
0aaaaa

#421500
1aaaaa
b111011 aaaag

#422000
0aaaaa

#422500
1aaaaa
b111 aaaaf
b0 aaaag

#423000
0aaaaa

#423500
1aaaaa
b1 aaaag

#424000
0aaaaa

#424500
1aaaaa
b10 aaaag

#425000
0aaaaa

#425500
1aaaaa
b11 aaaag

#426000
0aaaaa

#426500
1aaaaa
b100 aaaag

#427000
0aaaaa

#427500
1aaaaa
b101 aaaag

#428000
0aaaaa

#428500
1aaaaa
b110 aaaag

#429000
0aaaaa

#429500
1aaaaa
b111 aaaag

#430000
0aaaaa

#430500
1aaaaa
b1000 aaaag

#431000
0aaaaa

#431500
1aaaaa
b1001 aaaag

#432000
0aaaaa

#432500
1aaaaa
b1010 aaaag

#433000
0aaaaa

#433500
1aaaaa
b1011 aaaag

#434000
0aaaaa

#434500
1aaaaa
b1100 aaaag

#435000
0aaaaa

#435500
1aaaaa
b1101 aaaag

#436000
0aaaaa

#436500
1aaaaa
b1110 aaaag

#437000
0aaaaa

#437500
1aaaaa
b1111 aaaag

#438000
0aaaaa

#438500
1aaaaa
b10000 aaaag

#439000
0aaaaa

#439500
1aaaaa
b10001 aaaag

#440000
0aaaaa

#440500
1aaaaa
b10010 aaaag

#441000
0aaaaa

#441500
1aaaaa
b10011 aaaag

#442000
0aaaaa

#442500
1aaaaa
b10100 aaaag

#443000
0aaaaa

#443500
1aaaaa
b10101 aaaag

#444000
0aaaaa

#444500
1aaaaa
b10110 aaaag

#445000
0aaaaa

#445500
1aaaaa
b10111 aaaag

#446000
0aaaaa

#446500
1aaaaa
b11000 aaaag

#447000
0aaaaa

#447500
1aaaaa
b11001 aaaag

#448000
0aaaaa

#448500
1aaaaa
b11010 aaaag

#449000
0aaaaa

#449500
1aaaaa
b11011 aaaag

#450000
0aaaaa

#450500
1aaaaa
b11100 aaaag

#451000
0aaaaa

#451500
1aaaaa
b11101 aaaag

#452000
0aaaaa

#452500
1aaaaa
b11110 aaaag

#453000
0aaaaa

#453500
1aaaaa
b11111 aaaag

#454000
0aaaaa

#454500
1aaaaa
b100000 aaaag

#455000
0aaaaa

#455500
1aaaaa
b100001 aaaag

#456000
0aaaaa

#456500
1aaaaa
b100010 aaaag

#457000
0aaaaa

#457500
1aaaaa
b100011 aaaag

#458000
0aaaaa

#458500
1aaaaa
b100100 aaaag

#459000
0aaaaa

#459500
1aaaaa
b100101 aaaag

#460000
0aaaaa

#460500
1aaaaa
b100110 aaaag

#461000
0aaaaa

#461500
1aaaaa
b100111 aaaag

#462000
0aaaaa

#462500
1aaaaa
b101000 aaaag

#463000
0aaaaa

#463500
1aaaaa
b101001 aaaag

#464000
0aaaaa

#464500
1aaaaa
b101010 aaaag

#465000
0aaaaa

#465500
1aaaaa
b101011 aaaag

#466000
0aaaaa

#466500
1aaaaa
b101100 aaaag

#467000
0aaaaa

#467500
1aaaaa
b101101 aaaag

#468000
0aaaaa

#468500
1aaaaa
b101110 aaaag

#469000
0aaaaa

#469500
1aaaaa
b101111 aaaag

#470000
0aaaaa

#470500
1aaaaa
b110000 aaaag

#471000
0aaaaa

#471500
1aaaaa
b110001 aaaag

#472000
0aaaaa

